<?xml version="1.0" encoding="utf-8"?>
<!-- Generator: Adobe Illustrator 16.0.0, SVG Export Plug-In . SVG Version: 6.00 Build 0)  -->
<!DOCTYPE svg PUBLIC "-//W3C//DTD SVG 1.1//EN" "http://www.w3.org/Graphics/SVG/1.1/DTD/svg11.dtd">
<svg version="1.1" id="Layer_1" xmlns="http://www.w3.org/2000/svg" xmlns:xlink="http://www.w3.org/1999/xlink" x="0px" y="0px"
	 width="226.5px" height="68.07px" viewBox="0 0 226.5 68.07" enable-background="new 0 0 226.5 68.07" xml:space="preserve">
<path fill="none" stroke="#2B2923" stroke-miterlimit="10" d="M222.75,61.061c0,2.571-2.164,4.654-4.834,4.654H8.584
	c-2.67,0-4.834-2.083-4.834-4.654V7.009c0-2.571,2.165-4.654,4.834-4.654h209.332c2.67,0,4.834,2.083,4.834,4.654V61.061z"/>
<g>
	<polygon fill="#2B2923" points="144.596,33.862 144.771,33.862 144.771,32.409 145.256,32.409 145.256,32.257 144.115,32.257 
		144.115,32.409 144.596,32.409 	"/>
	<path fill="#2B2923" d="M112.328,21.651h1.59c0.211,0.708,0.316,1.137,0.316,1.289h1.102c0-0.124-0.244-0.87-0.729-2.236
		c-0.486-1.368-0.729-2.117-0.729-2.247h-1.303c0,0.14-0.27,0.899-0.805,2.279c-0.534,1.379-0.804,2.113-0.804,2.204h1.039
		C112.006,22.776,112.113,22.348,112.328,21.651z M113.1,19.072h0.055c0,0.098,0.195,0.736,0.59,1.923h-1.254
		C112.898,19.801,113.1,19.163,113.1,19.072z"/>
	<path fill="#2B2923" d="M112.705,42.817c3.596,0,5.602-2.757,5.602-5.36c0-2.669-2.029-5.205-5.271-5.205
		c-3.352,0-5.714,2.469-5.714,5.359C107.321,40.082,109.196,42.817,112.705,42.817z M110.478,33.685
		c0.528-0.464,1.254-0.752,1.983-0.752c2.736,0,3.662,3.707,3.662,5.648c0,0.861-0.131,1.742-0.664,2.449
		c-0.504,0.705-1.387,1.123-2.248,1.123c-2.67,0-3.75-3.595-3.75-5.775C109.461,35.428,109.616,34.457,110.478,33.685z"/>
	<path fill="#2B2923" d="M103.722,22.94c-0.031-0.697-0.046-1.481-0.046-2.345c0-0.849,0.015-1.56,0.046-2.139h-0.975
		c0.028,0.586,0.047,1.3,0.047,2.139c0,0.852-0.019,1.633-0.047,2.345H103.722z"/>
	<path fill="#2B2923" d="M127.986,23.064c0.637,0,1.17-0.232,1.602-0.695c0.432-0.464,0.648-1.048,0.648-1.754
		c0-0.659-0.205-1.201-0.613-1.626c-0.408-0.424-0.916-0.636-1.521-0.636c-0.637,0-1.172,0.23-1.602,0.695
		c-0.434,0.463-0.648,1.048-0.648,1.754c0,0.655,0.203,1.197,0.613,1.623C126.871,22.851,127.381,23.064,127.986,23.064z
		 M127.154,19.551c0.232-0.302,0.518-0.45,0.852-0.45c0.363,0,0.666,0.148,0.912,0.447c0.242,0.298,0.367,0.687,0.367,1.167
		c0,0.457-0.117,0.836-0.352,1.139c-0.234,0.302-0.52,0.453-0.854,0.453c-0.359,0-0.662-0.151-0.906-0.45
		c-0.248-0.301-0.373-0.688-0.373-1.164C126.801,20.232,126.92,19.852,127.154,19.551z"/>
	<path fill="#2B2923" d="M106.329,22.982c0.753,0,1.34-0.244,1.758-0.73c0.419-0.487,0.627-1.056,0.627-1.708
		c0-0.578-0.187-1.074-0.561-1.488c-0.373-0.414-0.974-0.619-1.802-0.619c-0.062,0-0.188,0.002-0.382,0.009
		c-0.196,0.008-0.341,0.012-0.443,0.012h-0.6c0.027,0.59,0.044,1.302,0.044,2.139c0,0.869-0.017,1.651-0.044,2.345
		C105.523,22.967,105.991,22.982,106.329,22.982z M106.209,19.124c0.528,0,0.919,0.151,1.178,0.454
		c0.256,0.301,0.387,0.673,0.387,1.115c0,0.439-0.12,0.812-0.356,1.118c-0.238,0.307-0.604,0.461-1.097,0.461
		c-0.15,0-0.299-0.015-0.449-0.046c-0.021-0.539-0.033-1.082-0.033-1.631c0-0.501-0.013-0.979-0.034-1.439
		C105.974,19.134,106.111,19.124,106.209,19.124z"/>
	<path fill="#2B2923" d="M136.855,41.994c1.123,0.812,2.225,0.858,2.928,0.858c0.662,0,1.41-0.088,2.137-0.418
		c0.242-0.11,0.484-0.266,0.727-0.396l1.168-1.103c-0.748,0.375-1.564,0.77-2.686,0.77c-2.094,0-3.99-1.627-4.539-4.425l1.695-0.133
		l5.176-2.092c-0.152-0.508-0.438-1.455-1.541-2.18c-0.658-0.42-1.475-0.618-2.27-0.618c-2.266,0-5.043,1.675-5.043,5.089
		C134.607,38.997,135.291,40.891,136.855,41.994z M139.035,32.984c1.189,0,2.18,1.015,2.18,1.895c0,0.309-0.221,0.44-0.637,0.594
		l-4.008,1.741c-0.023-0.396-0.068-0.794-0.068-1.168C136.502,33.667,138.152,32.984,139.035,32.984z"/>
	<path fill="#2B2923" d="M121.178,22.94c-0.025-0.707-0.037-1.277-0.037-1.707c0.047,0.004,0.123,0.006,0.23,0.006
		c0.592,0,1.092-0.131,1.502-0.393c0.406-0.263,0.611-0.667,0.611-1.215c0-0.403-0.154-0.703-0.453-0.9
		c-0.303-0.198-0.668-0.295-1.105-0.295c-0.176,0-0.387,0.002-0.627,0.009c-0.242,0.008-0.406,0.012-0.49,0.012h-0.598
		c0.027,0.599,0.045,1.312,0.045,2.139c0,0.899-0.018,1.682-0.045,2.345H121.178z M121.615,19.083c0.652,0,0.98,0.244,0.98,0.735
		c0,0.53-0.42,0.796-1.258,0.796c-0.076,0-0.145-0.002-0.199-0.007c0-0.548-0.016-1.039-0.039-1.474
		C121.281,19.101,121.455,19.083,121.615,19.083z"/>
	<path fill="#2B2923" d="M130.607,27.562v0.011l-0.002-0.007v12.958v0.732c0,0.442-0.088,0.511-0.598,1.175h3.926l0.822-0.487
		c-0.377-0.045-0.758-0.066-1.133-0.111c-0.732-0.065-0.887-0.198-0.887-1.063v-0.245V28.216c0.004-0.049,0.01-0.097,0.012-0.144
		c0.092-0.775,0.312-0.91,1-1.31h-3.172l-1.666,0.799H130.607z"/>
	<path fill="#2B2923" d="M132.057,22.94c-0.033-0.815-0.049-1.507-0.049-2.074c0-0.406-0.031-0.861-0.086-1.362h0.051
		c0.094,0.349,0.471,0.997,1.135,1.945c0.629,0.899,0.945,1.396,0.945,1.491h0.852c-0.033-0.7-0.051-1.482-0.051-2.345
		c0-0.857,0.018-1.57,0.051-2.139h-0.863c0.033,0.653,0.051,1.293,0.051,1.914c0,0.407,0.023,0.866,0.082,1.378h-0.055
		c-0.088-0.322-0.434-0.935-1.039-1.836c-0.566-0.848-0.848-1.334-0.848-1.456h-1.025c0.033,0.586,0.053,1.3,0.053,2.139
		c0,0.852-0.02,1.633-0.053,2.345H132.057z"/>
	<path fill="#2B2923" d="M117.047,22.94c-0.023-0.707-0.037-1.277-0.037-1.707c0.047,0.004,0.123,0.006,0.232,0.006
		c0.59,0,1.092-0.131,1.498-0.393c0.408-0.263,0.611-0.667,0.611-1.215c0-0.403-0.15-0.703-0.451-0.9
		c-0.303-0.198-0.668-0.295-1.105-0.295c-0.178,0-0.385,0.002-0.627,0.009c-0.24,0.008-0.406,0.012-0.486,0.012h-0.602
		c0.031,0.599,0.045,1.312,0.045,2.139c0,0.899-0.014,1.682-0.045,2.345H117.047z M117.484,19.083c0.652,0,0.979,0.244,0.979,0.735
		c0,0.53-0.418,0.796-1.256,0.796c-0.076,0-0.143-0.002-0.201-0.007c0-0.548-0.012-1.039-0.035-1.474
		C117.15,19.101,117.322,19.083,117.484,19.083z"/>
	<path fill="#2B2923" d="M123.143,40.209c0.223,0,0.463-0.021,0.707-0.045c-0.109,0.267-0.221,0.487-0.221,0.863
		c0,0.684,0.354,1.104,0.664,1.502c-0.994,0.067-2.852,0.176-4.221,1.016c-1.305,0.773-1.701,1.901-1.701,2.695
		c0,1.637,1.547,3.16,4.75,3.16c3.801,0,5.811-2.098,5.811-4.174c0-1.525-0.883-2.277-1.855-3.096l-0.793-0.618
		c-0.246-0.198-0.58-0.465-0.58-0.948c0-0.487,0.334-0.798,0.621-1.084c0.926-0.729,1.857-1.504,1.857-3.137
		c0-1.682-1.061-2.562-1.568-2.984h1.369l1.414-0.795h-4.553c-1.193,0-2.695,0.179-3.955,1.217c-0.949,0.815-1.414,1.943-1.414,2.96
		C119.475,38.463,120.803,40.209,123.143,40.209z M127.453,46.087c0,1.368-1.129,2.388-3.25,2.388c-2.361,0-3.889-1.129-3.889-2.696
		c0-1.568,1.414-2.101,1.902-2.274c0.926-0.312,2.119-0.357,2.32-0.357c0.219,0,0.328,0,0.508,0.024
		C126.725,44.366,127.453,44.958,127.453,46.087z M121.904,34.024c0.355-0.443,0.973-0.729,1.547-0.729
		c1.836,0,2.783,2.474,2.783,4.065c0,0.396-0.041,1.103-0.547,1.611c-0.359,0.354-0.953,0.619-1.506,0.619
		c-1.9,0-2.762-2.452-2.762-3.933C121.42,35.083,121.531,34.488,121.904,34.024z"/>
	<path fill="#2B2923" d="M152.934,43.337c0-0.552-0.037-1.138-0.113-1.753h0.113c0.387,0.526,0.863,0.918,1.432,1.171
		s1.197,0.381,1.885,0.381c1.377,0,2.451-0.481,3.225-1.441c0.773-0.961,1.16-2.308,1.16-4.044c0-1.728-0.383-3.071-1.143-4.027
		c-0.76-0.959-1.842-1.437-3.242-1.437c-0.707,0-1.334,0.128-1.877,0.385c-0.549,0.257-1.027,0.674-1.439,1.254h-0.076l-0.223-1.447
		h-1.299v15.307h1.598V43.337z M152.934,37.295c0.014-1.305,0.262-2.256,0.742-2.854c0.482-0.597,1.264-0.896,2.344-0.896
		c0.936,0,1.666,0.352,2.184,1.056c0.516,0.703,0.777,1.714,0.777,3.031c0,1.299-0.262,2.316-0.777,3.056
		c-0.518,0.738-1.232,1.108-2.145,1.108c-1.092,0-1.887-0.319-2.383-0.96c-0.492-0.639-0.742-1.7-0.742-3.186V37.295z"/>
	<polygon fill="#2B2923" points="145.703,32.395 145.709,32.395 146.16,33.862 146.299,33.862 146.744,32.395 146.754,32.395 
		146.754,33.862 146.912,33.862 146.912,32.257 146.633,32.257 146.232,33.555 146.225,33.555 145.816,32.257 145.543,32.257 
		145.543,33.862 145.703,33.862 	"/>
	<path fill="#2B2923" d="M79.797,21.651h1.59c0.211,0.708,0.316,1.137,0.316,1.289h1.101c0-0.124-0.243-0.87-0.729-2.236
		c-0.486-1.368-0.729-2.117-0.729-2.247h-1.304c0,0.14-0.268,0.899-0.801,2.279c-0.539,1.379-0.807,2.113-0.807,2.204h1.037
		C79.473,22.776,79.581,22.348,79.797,21.651z M80.569,19.072h0.055c0,0.098,0.196,0.736,0.591,1.923h-1.255
		C80.365,19.801,80.569,19.163,80.569,19.072z"/>
	<path fill="#2B2923" d="M99.526,23.064c0.636,0,1.171-0.232,1.602-0.695c0.432-0.464,0.647-1.048,0.647-1.754
		c0-0.659-0.205-1.201-0.612-1.626c-0.41-0.424-0.918-0.636-1.523-0.636c-0.636,0-1.169,0.23-1.602,0.695
		c-0.43,0.463-0.646,1.048-0.646,1.754c0,0.655,0.205,1.197,0.613,1.623S98.92,23.064,99.526,23.064z M98.694,19.551
		c0.231-0.302,0.518-0.45,0.854-0.45c0.359,0,0.664,0.148,0.909,0.447c0.245,0.298,0.368,0.687,0.368,1.167
		c0,0.457-0.116,0.836-0.352,1.139c-0.235,0.302-0.52,0.453-0.854,0.453c-0.358,0-0.661-0.151-0.906-0.45
		c-0.247-0.301-0.371-0.688-0.371-1.164C98.341,20.232,98.458,19.852,98.694,19.551z"/>
	<path fill="#2B2923" d="M84.397,22.94c-0.031-0.815-0.049-1.507-0.049-2.074c0-0.406-0.027-0.861-0.087-1.362h0.058
		c0.089,0.349,0.468,0.997,1.127,1.945c0.633,0.899,0.948,1.396,0.948,1.491h0.852c-0.032-0.7-0.05-1.482-0.05-2.345
		c0-0.857,0.018-1.57,0.05-2.139h-0.862c0.032,0.653,0.049,1.293,0.049,1.914c0,0.407,0.027,0.866,0.082,1.378h-0.053
		c-0.091-0.322-0.435-0.935-1.04-1.836c-0.565-0.848-0.85-1.334-0.85-1.456h-1.022c0.032,0.586,0.053,1.3,0.053,2.139
		c0,0.852-0.021,1.633-0.053,2.345H84.397z"/>
	<path fill="#2B2923" d="M179.324,44.503c-0.469,1.235-1.254,1.853-2.35,1.853c-0.439,0-0.836-0.04-1.188-0.118v1.282
		c0.477,0.11,0.959,0.165,1.445,0.165c0.875,0,1.611-0.249,2.211-0.746c0.602-0.5,1.127-1.344,1.58-2.533l4.537-12.027h-1.717
		c-1.477,4.086-2.35,6.527-2.617,7.32c-0.266,0.794-0.439,1.355-0.523,1.683h-0.076c-0.121-0.61-0.439-1.603-0.945-2.979
		l-2.314-6.024h-1.715l4.26,10.623L179.324,44.503z"/>
	<path fill="#2B2923" d="M42.191,53.606c0.055-0.031,0.201-0.115,0.409-0.234l14.182-8.19l7.395-4.268l0.069-0.041
		c0.08-0.046,0.234-0.135,0.426-0.246l0.286-0.165c0.846-0.488,2.24-1.293,3.523-2.034l4.145-2.393l-8.449-4.879l-7.395-4.268
		c0,0-13.472-7.778-14.262-8.234c-0.002-0.002-0.005-0.002-0.005-0.002l-1.575-0.91v0.131v1.557c0,1.592,0,16.605,0,16.605
		s0,16.226,0,16.944v1.216v0.134l1.248-0.721L42.191,53.606z"/>
	<path fill="#2B2923" d="M89.852,22.982c0.752,0,1.34-0.244,1.759-0.73c0.415-0.487,0.626-1.056,0.626-1.708
		c0-0.578-0.187-1.074-0.56-1.488s-0.976-0.619-1.804-0.619c-0.06,0-0.188,0.002-0.381,0.009c-0.196,0.008-0.344,0.012-0.442,0.012
		h-0.603c0.03,0.59,0.045,1.302,0.045,2.139c0,0.869-0.015,1.651-0.045,2.345C89.043,22.967,89.514,22.982,89.852,22.982z
		 M89.731,19.124c0.529,0,0.922,0.151,1.179,0.454c0.258,0.301,0.388,0.673,0.388,1.115c0,0.439-0.121,0.812-0.358,1.118
		c-0.237,0.307-0.603,0.461-1.098,0.461c-0.147,0-0.297-0.015-0.447-0.046c-0.022-0.539-0.032-1.082-0.032-1.631
		c0-0.501-0.013-0.979-0.037-1.439C89.497,19.134,89.633,19.124,89.731,19.124z"/>
	<path fill="#2B2923" d="M86.848,43.581c1.221,0,2.372-0.177,3.66-0.378l3.171-0.731v-2.706c0-0.222,0.02-0.865,0.044-1.065
		c0.045-0.176,0.064-0.222,0.223-0.354l0.576-0.556h-4.701l-1.776,0.955l3.351-0.177v3.568c-0.664,0.269-1.396,0.555-2.818,0.555
		c-4.833,0-7.851-3.925-7.851-8.093c0-3.881,2.642-6.543,6.144-6.543c2.616,0,3.992,1.353,4.746,2.083l-0.554,0.889l0.775-0.178
		l1.842-1.752c-0.487-0.332-1.265-0.909-2.928-1.376c-1.044-0.286-2.195-0.464-3.393-0.464c-5.655,0-8.96,3.991-8.96,8.293
		C78.399,39.079,80.726,43.581,86.848,43.581z"/>
	<path fill="#2B2923" d="M100.747,42.817c3.594,0,5.604-2.757,5.604-5.36c0-2.669-2.03-5.205-5.271-5.205
		c-3.355,0-5.716,2.469-5.716,5.359C95.364,40.082,97.241,42.817,100.747,42.817z M98.52,33.685
		c0.527-0.464,1.257-0.752,1.984-0.752c2.734,0,3.662,3.707,3.662,5.648c0,0.861-0.131,1.742-0.662,2.449
		c-0.506,0.705-1.391,1.123-2.25,1.123c-2.67,0-3.75-3.595-3.75-5.775C97.504,35.428,97.659,34.457,98.52,33.685z"/>
	<rect x="162.74" y="27.946" fill="#2B2923" width="1.602" height="14.997"/>
	<path fill="#2B2923" d="M169.607,43.136c0.783,0,1.438-0.118,1.959-0.353c0.523-0.234,1.051-0.684,1.574-1.344h0.082l0.316,1.503
		h1.186v-7.211c0-1.232-0.305-2.128-0.91-2.688c-0.609-0.561-1.541-0.839-2.801-0.839c-0.623,0-1.244,0.081-1.863,0.24
		c-0.623,0.161-1.191,0.383-1.713,0.666l0.492,1.225c1.109-0.54,2.107-0.811,2.988-0.811c0.781,0,1.355,0.197,1.711,0.594
		c0.355,0.394,0.533,1.006,0.533,1.837v0.653l-1.793,0.059c-3.41,0.104-5.117,1.22-5.117,3.354c0,0.995,0.297,1.763,0.891,2.303
		C167.736,42.865,168.559,43.136,169.607,43.136z M168.771,38.409c0.564-0.351,1.482-0.548,2.752-0.594l1.6-0.068v0.955
		c0,0.983-0.283,1.748-0.85,2.295c-0.57,0.545-1.355,0.818-2.35,0.818c-0.629,0-1.119-0.151-1.469-0.454
		c-0.352-0.301-0.525-0.741-0.525-1.318C167.93,39.302,168.211,38.758,168.771,38.409z"/>
	<path fill="#2B2923" d="M94.167,22.94c-0.02-0.603-0.03-1.198-0.03-1.788c0.122-0.002,0.247-0.003,0.381-0.003
		c0.315,0,0.546,0.097,0.689,0.285c0.141,0.19,0.347,0.693,0.611,1.506h1.021c-0.297-0.793-0.532-1.337-0.707-1.634
		c-0.174-0.298-0.378-0.479-0.609-0.543v-0.052c0.601-0.227,0.903-0.623,0.903-1.194c0-0.722-0.526-1.081-1.581-1.081
		c-0.187,0-0.39,0.002-0.607,0.009c-0.221,0.008-0.361,0.012-0.433,0.012h-0.597c0.031,0.59,0.046,1.302,0.046,2.139
		c0,0.869-0.015,1.651-0.046,2.345H94.167z M94.666,19.086c0.589,0,0.882,0.229,0.882,0.685c0,0.508-0.366,0.761-1.096,0.761
		c-0.087,0-0.193-0.001-0.319-0.007c0-0.571-0.014-1.034-0.039-1.391C94.258,19.102,94.448,19.086,94.666,19.086z"/>
</g>
</svg>
