<?xml version="1.0" encoding="utf-8"?>
<!-- Generator: Adobe Illustrator 16.0.0, SVG Export Plug-In . SVG Version: 6.00 Build 0)  -->
<!DOCTYPE svg PUBLIC "-//W3C//DTD SVG 1.1//EN" "http://www.w3.org/Graphics/SVG/1.1/DTD/svg11.dtd">
<svg version="1.1" id="Layer_1" xmlns="http://www.w3.org/2000/svg" xmlns:xlink="http://www.w3.org/1999/xlink" x="0px" y="0px"
	 width="116.5px" height="115.5px" viewBox="0 0 116.5 115.5" enable-background="new 0 0 116.5 115.5" xml:space="preserve">
<path fill="#253038" d="M110.5,88.928c0,11.875-9.627,21.502-21.502,21.502H27.502C15.627,110.43,6,100.803,6,88.928V27.432
	C6,15.557,15.627,5.93,27.502,5.93h61.496c11.875,0,21.502,9.627,21.502,21.502V88.928z"/>
<g>
	<g>
		<path fill-rule="evenodd" clip-rule="evenodd" fill="#FFFFFF" d="M74.502,71.766l-2.051,0.403L66.672,53.15l-25.296-5.72
			c-0.084,0.831,0.217,1.534,0.9,2.115c0.476,0.435,0.984,0.736,1.521,0.902l21.505,4.816l0.686,2.145l-18.802-4.289
			c-0.103,0.769,0.206,1.48,0.934,2.145c0.435,0.394,0.94,0.664,1.522,0.809c0.125,0.04,0.217,0.092,0.277,0.156l16.875,3.696
			l0.623,2.114l-16.036-3.605c-0.064,0.808,0.228,1.534,0.87,2.174c0.56,0.497,1.191,0.8,1.894,0.903l14.112,3.169l0.65,2.021
			l-15.415-3.326c-1.241-0.269-2.186-0.84-2.827-1.71c-0.851-1.096-1.306-2.331-1.367-3.697c-1.243-0.187-2.186-0.746-2.83-1.68
			c-0.847-1.056-1.283-2.268-1.304-3.635l-1.615-0.342c0,0.022-0.021,0.01-0.063-0.031c-1.222-0.166-2.185-0.734-2.889-1.708
			c-1.161-1.494-1.502-3.192-1.025-5.097c0.04-0.146,0.072-0.269,0.092-0.374l28.248,6.372l0.252-0.092l0.061,0.151l-0.123-0.088
			l0.184,0.183L74.502,71.766z"/>
	</g>
	<g>
		<path fill="#FFFFFF" d="M58.25,87.882c-8.276,0-15.443-2.972-21.304-8.83c-5.857-5.858-8.828-13.025-8.828-21.304
			c0-8.299,2.972-15.466,8.83-21.301c5.858-5.858,13.025-8.829,21.302-8.829c8.296,0,15.462,2.972,21.302,8.832
			c5.857,5.834,8.828,13.001,8.828,21.298c0,8.276-2.971,15.443-8.83,21.304C73.713,84.91,66.547,87.882,58.25,87.882z
			 M58.25,29.767c-7.685,0-14.342,2.76-19.783,8.202c-5.441,5.418-8.199,12.073-8.199,19.779c0,7.688,2.759,14.344,8.198,19.782
			c5.442,5.442,12.1,8.202,19.784,8.202c7.703,0,14.359-2.759,19.779-8.199c5.443-5.444,8.203-12.101,8.203-19.785
			c0-7.704-2.76-14.359-8.199-19.778C72.609,32.526,65.953,29.767,58.25,29.767z"/>
	</g>
</g>
</svg>
