<?xml version="1.0" encoding="utf-8"?>
<!-- Generator: Adobe Illustrator 16.0.0, SVG Export Plug-In . SVG Version: 6.00 Build 0)  -->
<!DOCTYPE svg PUBLIC "-//W3C//DTD SVG 1.1//EN" "http://www.w3.org/Graphics/SVG/1.1/DTD/svg11.dtd">
<svg version="1.1" id="Layer_1" xmlns="http://www.w3.org/2000/svg" xmlns:xlink="http://www.w3.org/1999/xlink" x="0px" y="0px"
	 width="226.5px" height="68.07px" viewBox="0 0 226.5 68.07" enable-background="new 0 0 226.5 68.07" xml:space="preserve">
<path fill="none" stroke="#1C9146" stroke-miterlimit="10" d="M222.75,61.061c0,2.57-2.164,4.653-4.834,4.653H8.584
	c-2.67,0-4.834-2.083-4.834-4.653V7.009c0-2.57,2.165-4.653,4.834-4.653h209.332c2.67,0,4.834,2.083,4.834,4.653V61.061z"/>
<path fill="#1C9146" d="M93.314,24.56c-0.153,0.52-0.284,0.969-0.391,1.44h-0.036c-0.105-0.473-0.225-0.934-0.391-1.44l-0.933-2.925
	h-1.575l2.143,5.763h1.432l2.201-5.763h-1.527L93.314,24.56z"/>
<path fill="#1C9146" d="M87.54,30.936l-4.987,15.506h2.571l1.387-4.551h5.038l1.448,4.551h2.647l-5.018-15.506H87.54z
	 M86.944,39.979l1.291-4.051c0.338-1.291,0.582-2.265,0.737-2.923h0.044c0.382,1.531,0.645,2.507,0.786,2.923l1.306,4.051H86.944z"
	/>
<path fill="#1C9146" d="M72.891,19.039H61.967c-1.404,0-2.55,1.142-2.55,2.545v24.274c0,1.404,1.146,2.543,2.55,2.543h10.924
	c1.403,0,2.547-1.139,2.547-2.543V21.583C75.438,20.179,74.294,19.039,72.891,19.039z M66.161,21.619h2.529
	c0.168,0,0.305,0.135,0.305,0.303c0,0.158-0.137,0.295-0.305,0.295h-2.529c-0.162,0-0.299-0.137-0.299-0.295
	C65.864,21.753,65.999,21.619,66.161,21.619z M67.427,47.049c-0.727,0-1.316-0.592-1.316-1.315c0-0.729,0.592-1.32,1.316-1.32
	c0.729,0,1.316,0.594,1.316,1.32C68.743,46.457,68.155,47.049,67.427,47.049z M73.891,43.283H60.966V24.167h12.925V43.283z"/>
<path fill="#1C9146" d="M115.497,35.035c-1.687,0-2.939,0.664-3.773,1.994h-0.042l-0.146-1.771h-2.181
	c0.062,1.257,0.093,2.48,0.093,3.677v12.043h2.484v-5.873c0.646,1.062,1.71,1.59,3.191,1.59c1.373,0,2.518-0.49,3.445-1.467
	c1.035-1.107,1.555-2.605,1.555-4.515c0-1.7-0.441-3.075-1.324-4.116C117.919,35.551,116.816,35.035,115.497,35.035z
	 M116.811,43.658c-0.521,0.723-1.248,1.08-2.188,1.08c-0.795,0-1.444-0.281-1.94-0.836c-0.501-0.562-0.747-1.248-0.747-2.062V39.98
	c0-0.201,0.037-0.451,0.113-0.763c0.154-0.657,0.482-1.19,0.98-1.604c0.5-0.404,1.049-0.607,1.664-0.607
	c0.906,0,1.627,0.375,2.168,1.109c0.488,0.701,0.734,1.602,0.734,2.688C117.596,41.986,117.333,42.938,116.811,43.658z"/>
<rect x="107.418" y="19" fill="#1C9146" width="1.452" height="8.398"/>
<path fill="#1C9146" d="M84.761,25.138h2.52l0.721,2.26h1.572l-2.59-7.974h-1.857l-2.555,7.974h1.502L84.761,25.138z M85.61,22.076
	c0.131-0.475,0.262-1.031,0.379-1.49h0.024c0.118,0.459,0.247,1.004,0.401,1.49l0.627,1.963h-2.047L85.61,22.076z"/>
<path fill="#1C9146" d="M100.071,26.759h0.034l0.104,0.64h1.312c-0.07-0.355-0.094-0.863-0.094-1.385v-2.068
	c0-1.269-0.532-2.438-2.377-2.438c-0.91,0-1.657,0.248-2.082,0.511l0.283,0.944c0.392-0.248,0.982-0.426,1.551-0.426
	c1.016,0,1.17,0.627,1.17,1.006v0.094c-2.13-0.012-3.417,0.732-3.417,2.179c0,0.875,0.647,1.715,1.81,1.715
	C99.122,27.529,99.727,27.207,100.071,26.759z M97.999,25.66c0-0.877,0.98-1.09,2.012-1.078v0.793c0,0.105,0,0.213-0.036,0.32
	c-0.144,0.414-0.557,0.791-1.147,0.791C98.366,26.486,97.999,26.226,97.999,25.66z"/>
<path fill="#1C9146" d="M103.214,35.035c-1.69,0-2.944,0.664-3.778,1.994h-0.043l-0.137-1.771h-2.187
	c0.062,1.257,0.094,2.48,0.094,3.677v12.043h2.483v-5.873c0.646,1.062,1.708,1.59,3.192,1.59c1.37,0,2.523-0.49,3.445-1.467
	c1.037-1.107,1.554-2.605,1.554-4.515c0-1.7-0.442-3.075-1.321-4.116C105.631,35.551,104.532,35.035,103.214,35.035z
	 M104.524,43.658c-0.521,0.723-1.254,1.08-2.187,1.08c-0.798,0-1.447-0.281-1.944-0.836c-0.501-0.562-0.746-1.248-0.746-2.062V39.98
	c0-0.201,0.038-0.451,0.113-0.763c0.154-0.657,0.479-1.19,0.979-1.604c0.5-0.404,1.054-0.607,1.666-0.607
	c0.904,0,1.625,0.375,2.164,1.109c0.492,0.701,0.733,1.602,0.733,2.688C105.304,41.986,105.044,42.938,104.524,43.658z"/>
<path fill="#1C9146" d="M144.57,27.398h1.453v-3.396c0-0.166,0.023-0.342,0.07-0.459c0.154-0.438,0.557-0.854,1.137-0.854
	c0.791,0,1.101,0.627,1.101,1.455v3.254h1.455v-3.42c0-1.82-1.041-2.472-2.045-2.472c-0.959,0-1.587,0.541-1.849,0.992h-0.033
	l-0.069-0.865h-1.267c0.021,0.498,0.047,1.056,0.047,1.718V27.398L144.57,27.398z"/>
<path fill="#1C9146" d="M130.665,27.517c0.828,0,1.515-0.154,2.012-0.367l-0.213-0.994c-0.45,0.154-0.924,0.26-1.598,0.26
	c-0.937,0-1.738-0.449-1.771-1.49h3.854c0.023-0.129,0.049-0.342,0.049-0.612c0-1.267-0.617-2.804-2.484-2.804
	c-1.846,0-2.813,1.503-2.813,3.101C127.698,26.369,128.798,27.517,130.665,27.517z M130.43,22.5c0.971,0,1.207,0.875,1.192,1.408
	h-2.526C129.152,23.316,129.529,22.5,130.43,22.5z"/>
<path fill="#1C9146" d="M169.023,27.517c0.828,0,1.517-0.154,2.013-0.367l-0.213-0.994c-0.449,0.154-0.923,0.26-1.599,0.26
	c-0.936,0-1.738-0.449-1.772-1.49h3.854c0.023-0.129,0.047-0.342,0.047-0.612c0-1.267-0.615-2.804-2.481-2.804
	c-1.849,0-2.813,1.503-2.813,3.101C166.057,26.369,167.157,27.517,169.023,27.517z M168.786,22.5c0.971,0,1.207,0.875,1.194,1.408
	h-2.53C167.512,23.316,167.891,22.5,168.786,22.5z"/>
<path fill="#1C9146" d="M110.766,25.814c0,0.875,0.649,1.715,1.812,1.715c0.758,0,1.357-0.32,1.703-0.771h0.035l0.105,0.64h1.312
	c-0.07-0.355-0.094-0.863-0.094-1.385v-2.068c0-1.269-0.531-2.438-2.379-2.438c-0.909,0-1.655,0.248-2.079,0.511l0.283,0.944
	c0.391-0.248,0.981-0.426,1.549-0.426c1.017,0,1.171,0.627,1.171,1.006v0.094C112.055,23.625,110.766,24.369,110.766,25.814z
	 M114.221,24.582v0.793c0,0.105,0,0.213-0.035,0.32c-0.144,0.414-0.558,0.791-1.146,0.791c-0.461,0-0.827-0.26-0.827-0.826
	C112.21,24.783,113.192,24.57,114.221,24.582z"/>
<path fill="#1C9146" d="M104.401,20.81c0.508,0,0.826-0.354,0.826-0.781c-0.011-0.449-0.318-0.791-0.816-0.791
	c-0.483,0-0.815,0.342-0.815,0.791C103.595,20.455,103.915,20.81,104.401,20.81z"/>
<rect x="103.68" y="21.635" fill="#1C9146" width="1.454" height="5.763"/>
<rect x="124.552" y="19" fill="#1C9146" width="1.451" height="8.398"/>
<path fill="#1C9146" d="M130.27,37.514c-1.086-0.429-1.838-0.822-2.254-1.189c-0.474-0.406-0.711-0.914-0.711-1.523
	c0-0.551,0.207-1.02,0.618-1.405c0.494-0.418,1.183-0.646,2.06-0.646c1.106,0,2.102,0.242,2.977,0.715l0.627-2.022
	c-0.939-0.486-2.111-0.734-3.521-0.734c-1.584,0-2.852,0.406-3.812,1.217c-0.961,0.814-1.435,1.859-1.435,3.136
	c0,1.946,1.357,3.428,4.07,4.436c0.998,0.373,1.705,0.769,2.142,1.197c0.426,0.432,0.643,0.961,0.643,1.582
	c0,0.715-0.264,1.277-0.78,1.697c-0.521,0.418-1.248,0.633-2.188,0.633c-1.302,0-2.496-0.326-3.586-0.969l-0.576,2.069
	c1.013,0.644,2.347,0.967,4.021,0.967c1.805,0,3.209-0.45,4.227-1.354c0.914-0.824,1.375-1.902,1.375-3.223
	c0-1.072-0.316-1.97-0.943-2.688C132.585,38.68,131.607,38.047,130.27,37.514z"/>
<path fill="#1C9146" d="M140.238,21.507c-1.737,0-2.979,1.158-2.979,3.054c0,1.854,1.267,2.969,2.886,2.969
	c1.469,0,2.959-0.945,2.959-3.064C143.102,22.714,141.952,21.507,140.238,21.507z M140.191,26.476c-0.875,0-1.432-0.843-1.432-1.953
	c0-0.959,0.412-1.963,1.441-1.963c0.992,0,1.395,1.041,1.395,1.938C141.598,25.669,141.02,26.476,140.191,26.476z"/>
<path fill="#1C9146" d="M155.122,25.435c0,0.756,0.144,1.289,0.461,1.619c0.271,0.297,0.711,0.475,1.254,0.475
	c0.449,0,0.84-0.072,1.054-0.156l-0.021-1.1c-0.166,0.049-0.309,0.061-0.568,0.061c-0.557,0-0.744-0.354-0.744-1.062v-2.545h1.383
	v-1.09h-1.383V20.16l-1.432,0.4v1.075h-0.816v1.091h0.816v2.709H155.122z"/>
<path fill="#1C9146" d="M147.823,35.035c-1.701,0-3.056,0.545-4.062,1.652c-1.002,1.104-1.506,2.521-1.506,4.256
	c0,1.649,0.486,3.031,1.459,4.119s2.285,1.631,3.928,1.631c1.701,0,3.064-0.566,4.099-1.697c0.979-1.106,1.469-2.514,1.469-4.236
	c0-1.67-0.478-3.038-1.426-4.094C150.786,35.572,149.471,35.035,147.823,35.035z M149.938,43.473
	c-0.531,0.907-1.279,1.354-2.224,1.354c-0.973,0-1.726-0.44-2.256-1.328c-0.451-0.731-0.67-1.608-0.67-2.639
	c0-1.06,0.219-1.949,0.67-2.682c0.517-0.888,1.278-1.328,2.271-1.328c0.969,0,1.709,0.44,2.238,1.328
	c0.441,0.729,0.664,1.614,0.664,2.639C150.632,41.84,150.402,42.732,149.938,43.473z"/>
<path fill="#1C9146" d="M158.271,35.631c-0.568,0.443-0.98,1.035-1.242,1.771h-0.068l-0.09-2.142h-2.164
	c0.045,1.062,0.066,2.234,0.066,3.519v7.664h2.483v-5.865c0-0.896,0.207-1.623,0.621-2.207c0.478-0.658,1.149-0.988,2.022-0.988
	c0.273,0,0.537,0.021,0.783,0.064v-2.369c-0.18-0.029-0.391-0.041-0.617-0.041C159.423,35.035,158.825,35.229,158.271,35.631z"/>
<path fill="#1C9146" d="M166.762,35.006c-1.64,0-2.941,0.599-3.914,1.793c-0.916,1.125-1.382,2.525-1.382,4.216
	c0,1.719,0.5,3.088,1.488,4.104c0.987,1.021,2.353,1.527,4.08,1.527c1.444,0,2.696-0.228,3.752-0.689l-0.392-1.727
	c-0.906,0.354-1.908,0.53-3.014,0.53c-0.998,0-1.811-0.26-2.438-0.782c-0.693-0.582-1.053-1.424-1.084-2.525h7.457
	c0.057-0.311,0.09-0.688,0.09-1.129c0-1.398-0.33-2.572-0.988-3.525C169.596,35.604,168.374,35.006,166.762,35.006z M163.859,39.676
	c0.076-0.75,0.324-1.395,0.736-1.93c0.508-0.67,1.168-1.016,1.98-1.016c0.887,0,1.547,0.35,1.979,1.037
	c0.336,0.541,0.494,1.174,0.482,1.905h-5.178V39.676L163.859,39.676z"/>
<path fill="#1C9146" d="M162.257,22.689c0.804,0,1.111,0.641,1.111,1.469v3.24h1.455v-3.396c0-1.844-1.029-2.494-2.013-2.494
	c-0.367,0-0.711,0.095-1.006,0.263c-0.297,0.151-0.543,0.377-0.721,0.647h-0.023V19h-1.455v8.398h1.455v-3.455
	c0-0.152,0.013-0.31,0.06-0.438C161.286,23.068,161.688,22.689,162.257,22.689z"/>
<path fill="#1C9146" d="M120.488,21.507c-0.862,0-1.487,0.365-1.846,0.923h-0.021V19h-1.453v6.777c0,0.592-0.024,1.229-0.047,1.621
	h1.237l0.072-0.863h0.023c0.414,0.709,1.076,0.994,1.82,0.994c1.301,0,2.615-1.031,2.615-3.103
	C122.902,22.677,121.896,21.507,120.488,21.507z M119.943,26.38c-0.625,0-1.135-0.428-1.286-1.016
	c-0.023-0.107-0.035-0.229-0.035-0.346v-0.937c0-0.141,0.021-0.27,0.049-0.379c0.154-0.639,0.697-1.062,1.287-1.062
	c0.969,0,1.453,0.825,1.453,1.848C121.411,25.66,120.855,26.38,119.943,26.38z"/>
<path fill="#1C9146" d="M138.802,32.477l-2.438,0.733v2.049h-1.631v1.861h1.631v5.639c0,1.412,0.277,2.421,0.832,3.015
	c0.552,0.604,1.324,0.896,2.302,0.896c0.797,0,1.438-0.094,1.933-0.274l-0.068-1.883c-0.293,0.075-0.658,0.108-1.105,0.108
	c-0.967,0-1.453-0.686-1.453-2.063v-5.437h2.742V35.26h-2.742L138.802,32.477L138.802,32.477z"/>
</svg>
