<?xml version="1.0" encoding="utf-8"?>
<!-- Generator: Adobe Illustrator 16.0.0, SVG Export Plug-In . SVG Version: 6.00 Build 0)  -->
<!DOCTYPE svg PUBLIC "-//W3C//DTD SVG 1.1//EN" "http://www.w3.org/Graphics/SVG/1.1/DTD/svg11.dtd">
<svg version="1.1" id="Layer_1" xmlns="http://www.w3.org/2000/svg" xmlns:xlink="http://www.w3.org/1999/xlink" x="0px" y="0px"
	 width="116.5px" height="115.5px" viewBox="0 0 116.5 115.5" enable-background="new 0 0 116.5 115.5" xml:space="preserve">
<path fill="#FAD704" d="M110.5,88.928c0,11.875-9.627,21.502-21.502,21.502H27.502C15.627,110.43,6,100.803,6,88.928V27.432
	C6,15.557,15.627,5.93,27.502,5.93h61.496c11.875,0,21.502,9.627,21.502,21.502V88.928z"/>
<path fill-rule="evenodd" clip-rule="evenodd" fill="#010101" d="M76.664,49.302c1.994,3.997,2.866,8.894,1.944,13.667
	c0.572-4.592-1.326-8.299-2.842-12.1c-1.508-2.647-3.046-5.57-5.857-7.399c-1.538-1.03-3.162-1.872-4.988-2.206
	c-0.958,0-1.777,0.441-2.35,1.246l-3.741,6.616c-0.595,1.451-1.798,2.882-3.19,3.772c-0.298,0.421-0.036,1.037-0.116,1.479
	c-0.109,0.073-0.233,0.103-0.377,0.088c-0.384-0.348,0.08-0.912-0.581-1.073c-0.247-0.116-0.391,0.181-0.58,0.288
	c0.057,0.175,0.304,0.133,0.435,0.263c0.319,0.428,0.595,0.916,0.435,1.508c0.021,0.103,0.06,0.226,0.175,0.262
	c0.152,0.044,0.259-0.065,0.318-0.173c0.021-0.29-0.079-0.66,0.202-0.812c0.328,0.152,0.675,0.094,0.987-0.059
	c0.573-0.209,0.052-1.103,0.668-1.132c0.109,0.239,0.101,0.603,0.434,0.668c0.348-0.116,0.471,0.239,0.552,0.464
	c0.123,0.415-0.109,0.791-0.029,1.19c0.152,0.203,0.464,0.1,0.667,0.086c0.21-0.435-0.137-0.855-0.145-1.306
	c0.203-0.029,0.421-0.146,0.494-0.347c0.084-0.56-0.566-0.69-0.872-0.986c-0.211-0.117-0.47-0.276-0.551-0.523
	c3.067-2.292,4.038-5.601,5.54-8.619c0.391-0.68,0.883-1.582,1.711-1.828c2.247-0.182,3.805,1.479,5.51,2.7
	c3.748,3.771,5.808,8.24,6.814,13.144c0.124,0.783,0.255,1.646,0.117,2.466c-0.32-0.115-0.238,0.393-0.291,0.609
	c-0.123,0.943-0.151,2.068,0.028,2.988c0.037,0.029,0.067,0.079,0.118,0.06c0.391-0.9,0.217-2.032,0.261-3.077
	c0.528,1.466,0.064,3.097-0.464,4.411c-0.479,1.966-0.929,3.938-1.22,5.978c0.152,0.086,0.312-0.175,0.465,0
	c-0.116,1.269-1.321,2.234-0.871,3.598c0.24,0.363,0.755,0.174,1.074,0.116c-0.159,0.268-0.443,0.436-0.755,0.32
	c-0.312-0.108-0.674-0.327-0.783-0.667c-0.298-1.186,1.009-1.909,0.668-3.105l-0.115-0.117c0.397-0.819,0.267-1.986,0.376-2.989
	c-0.231-0.252-0.5-0.63-0.87-0.521l-0.202,0.375c-0.312,1.365-0.675,2.715-0.813,4.15c-2.24,2.735-5.024,4.759-7.975,6.072
	l-0.319,0.16c-0.71,0.196-1.435,0.537-2.175,0.73c0.218-0.485,0.878-0.847,1.508-0.812c0.275,0.066,0.688,0.139,0.927-0.057
	c0.168-0.205,0.182-0.529,0.059-0.755c-0.573-0.64-1.175,0.181-1.74,0.319c-0.318,0.079-0.695,0.211-1.015,0.116
	c-0.312-0.319-0.24-0.798-0.291-1.218c0.146-0.728-0.188-1.538,0.175-2.178c0.073-0.246-0.102-0.436-0.29-0.522
	c-0.261-0.095-0.639-0.195-0.898-0.029c-0.56,0.429,0.05,0.944,0.145,1.393c0.18,0.914,0.094,1.944-0.378,2.698
	c-0.609,0.553-1.574,0.581-2.35,0.379c-0.238,0.21-0.267,0.545-0.202,0.841c0.441,0.465,1.007-0.116,1.508-0.176
	c0.543-0.18,1.074,0.037,1.479,0.379c-0.602,0.167-1.414,0.253-2.118,0.376l-0.55,0.089l-1.364,0.054l-0.723,0.033
	c-0.987-0.015-1.951-0.074-2.901-0.176L53.9,80.403c-0.811-0.181-1.64-0.328-2.437-0.553l-0.696-0.197
	c-1.581-0.544-3.125-1.175-4.554-2.088c-0.362,0.254-0.709,0.629-1.16,0.578c-0.167-0.23-0.231-0.578-0.55-0.667
	c-0.442,0.096-0.87-0.021-1.247-0.173c0.26,0.064,0.731,0.037,0.986-0.202c1.319-1.351,1.566-3.149,2.118-4.818
	c0.116-0.74,0.384-1.422,0.319-2.234c0.102-0.044,0.254,0.03,0.232,0.174c0.072,2.38-0.914,4.316-1.711,6.327
	c-0.109,0.392-0.268,0.798-0.203,1.218c0.493,0.247,0.92-0.166,1.333-0.378c0.994-2.066,2.001-4.235,1.684-6.732
	c0.136-0.129,0.311,0,0.462,0c0.015,2.402-0.478,4.594-1.247,6.677c0.065,0.225,0.327,0.182,0.494,0.143
	c1.936-1.355,1.312-3.872,1.768-5.89c0.11-0.306,0.226-0.616,0.465-0.871c0.145,0.457-0.015,1.001-0.087,1.481
	c-0.42,1.354-0.442,2.879-0.928,4.206c-0.044,0.465-0.087,1.001,0.261,1.336c0.275-0.03,0.427-0.283,0.58-0.493
	c0.928-1.568,1.768-3.179,1.682-5.166l0.086-1.161c0.058-0.094,0.211-0.063,0.291-0.028c0.24,0.391,0.037,0.892,0.059,1.334
	l-0.406,1.713c0.065,0.363-0.051,0.885,0.319,1.132c0.5-0.043,0.536-0.631,0.783-0.958c0.732-1.784,1.371-3.743,1.016-5.832
	c-0.304,0.552-0.094,1.604-1.016,1.712c-0.376,0.072-0.601-0.217-0.898-0.349c-0.884,0.349-1.392-0.391-2.261-0.261
	c-0.472-0.116-0.69-0.826-1.248-0.725c-0.311,0.114-0.602-0.045-0.668-0.35c-0.383-0.281-0.717,0.168-1.101,0.059
	c-1.124-1.233-0.081-2.866-0.116-4.295c0.108-1.007-0.008-2.001-0.464-2.814c-0.116-0.116-0.312-0.145-0.465-0.088l-0.116,0.146
	c-0.247,3.235-0.652,6.405-1.74,9.286c-0.442,1.298-0.942,2.566-1.189,3.944c-6.184-5.824-8.315-15.393-5.104-23.387
	c2.909-7.762,10.985-13.565,19.258-13.725C64.979,37.122,72.772,41.691,76.664,49.302z M68.487,44.194
	c0.167,0.174,0.253,0.42,0.175,0.668c-0.755,0.709-1.219-0.509-1.828-0.756c-0.312-0.173-0.617-0.449-0.958-0.464
	c0.777,0.806,1.588,1.597,2.06,2.525v0.173c0.442-0.463,0.965-1.233,1.682-1.362c1.342,0.776,2.676,2.153,2.495,3.802
	c-0.016,0.146-0.196,0.223-0.32,0.146c-0.833-0.851-1.465-1.938-2.494-2.556c-0.123,0.146-0.021,0.349,0.029,0.493
	c0.458,0.8,1.377,1.401,1.739,2.236c0.073,0.268-0.18,0.29-0.347,0.348c-1.038,0.072-1.537-1.066-2.059-1.741
	c-0.125-0.036-0.06,0.102-0.118,0.145c0.393,0.979,1.393,1.705,1.829,2.669c0.006,0.138-0.089,0.189-0.204,0.204
	c-1.036-0.08-1.753-1.053-2.465-1.798c0.145,0.84,0.95,1.479,1.335,2.262c0.05,0.144,0.151,0.305,0.087,0.464
	c-0.472,0.224-0.921-0.124-1.306-0.379c-0.407-0.347-0.703-0.802-1.043-1.129c0.123,0.891,0.941,1.574,1.363,2.379
	c0.08,0.181,0.006,0.421-0.233,0.376c-0.877-0.115-1.45-0.95-2.146-1.508c-0.153,0.137,0.037,0.268,0.058,0.405
	c0.378,0.64,1.088,1.132,1.306,1.828c0.05,0.218-0.181,0.231-0.319,0.176c-0.682-0.306-1.233-0.916-1.885-1.277
	c0.15,0.746,0.949,1.312,1.189,2.059c-0.813,0.146-1.329-0.719-1.771-1.247c-0.196,0.059-0.123,0.347-0.059,0.466
	c0.233,0.463,0.741,0.818,0.784,1.361c-0.16,0.146-0.384,0.124-0.55,0c-0.485-0.302-0.863-0.854-1.334-1.188
	c0.181,0.637,0.724,1.203,0.9,1.886c-0.654,0.029-1.074-0.712-1.625-1.016c-0.153,0.145,0.035,0.289,0.058,0.435
	c0.231,0.456,0.703,0.813,0.783,1.335c-0.936-0.088-1.769-0.937-2.205-1.741c0.023-0.27,0.269-0.544,0.521-0.609
	c0.408-0.123,0.885-0.065,1.162-0.493c2.205-2.242,3.522-4.904,5.192-7.4c-0.973-0.224-1.77-1.057-2.612-1.682
	c-0.028-0.021-0.043-0.073-0.086-0.058c0.537,0.798,1.45,1.421,1.77,2.292c0.007,0.168-0.094,0.297-0.26,0.32
	c-0.936,0.007-1.595-0.667-2.321-1.16c0.523,0.688,1.4,1.297,1.828,2.06c0.037,0.138-0.036,0.239-0.173,0.232
	c-0.973-0.029-1.69-0.676-2.495-1.104c0.615,0.71,1.537,1.415,1.885,2.293c-0.558,0.081-0.979-0.335-1.45-0.551
	c-0.355-0.224-0.717-0.53-1.073-0.667c0.674,0.682,1.443,1.371,1.885,2.176c0.043,0.138-0.058,0.211-0.174,0.204
	c-0.863-0.146-1.514-0.799-2.232-1.306c0.478,0.667,1.16,1.321,1.419,2.118c0.043,0.231-0.246,0.13-0.347,0.116
	c-0.711-0.146-1.124-1.08-1.856-1.074c0.152,0.349,0.667,0.587,0.551,1.016c-0.399,0.328-0.739-0.255-1.189-0.058
	c0.529,0.543,1.819,0.82,1.48,1.886c-0.058,0.161-0.175,0.349-0.348,0.407c-1.038,0.167-1.342-1.319-2.35-1.133
	c-0.152,0.11-0.247,0.299-0.319,0.465c0.356,0.261,0.942-0.044,1.276,0.261c0.188,0.246,0.247,0.581,0.174,0.9
	c-0.189,0.203-0.333,0.007-0.522-0.059c-0.586-0.582-1.378-0.812-1.886-1.479v-0.175c2.595-2.45,3.988-5.396,5.018-8.502
	c0.283-0.695,0.958-1.372,1.769-1.335C66.617,42.68,67.523,43.506,68.487,44.194z M53.174,46.457
	c1.371,0.914,2.763,1.771,4.032,2.932c0.457,0.283,0.312,0.885,0.261,1.306c-0.188,0.644-0.741,1.211-1.307,1.623
	c-0.195-0.049-0.58,0.125-0.694-0.144l0.027-0.203c0.154-0.088,0.335,0.115,0.465,0c-0.057-0.45-0.558-0.819-0.956-0.959
	c-0.261-0.042-0.522,0.037-0.61,0.292c-1.312-0.362-1.972-1.815-2.87-2.758c-1.24-1.45-2.633-2.974-4.322-3.654
	c-0.116-0.007-0.234-0.109-0.348-0.029c-0.174,0.175,0.13,0.537-0.262,0.522c-0.391,0.073-0.805-0.161-1.13,0.087l-0.204,0.318
	c0.514,0.472,1.667-0.29,1.799,0.755c0.291,0.151,0.514-0.146,0.638-0.35c0.049-0.173,0.02-0.275,0.028-0.463
	c0.224,0.101,0.37,0.297,0.261,0.551c-0.022,0.086-0.08,0.16-0.057,0.262c0.087,0.138,0.246,0.181,0.376,0.115
	c0.167-0.072,0.145-0.355,0.405-0.261c0.234,0.342-0.324,0.61-0.173,0.986c0.153,0.212,0.413,0.356,0.668,0.291
	c0.289-0.071,0.093-0.53,0.463-0.463c0.116,0.051,0.108,0.203,0.116,0.319c-0.204,0.087-0.465,0.188-0.522,0.436
	c-0.08,0.189-0.109,0.5,0.028,0.668c0.153,0.224,0.421,0.231,0.61,0.085c0.196-0.174,0.275-0.398,0.318-0.638
	c0.181,0.124,0.238,0.349,0.291,0.553c-0.349,0.021-0.68,0.253-0.841,0.549c-0.385,0.189-0.478-0.564-0.869-0.173
	c-0.197,0.168-0.123,0.407-0.059,0.608c0.254,0.355,0.79,0.182,1.131,0.146c0.318,0,0.718-0.392,0.958,0
	c0.043,0.239-0.226,0.464,0.058,0.639c0.21,0.093,0.55-0.203,0.58,0.144c0.022,0.262-0.442,0.689,0.059,0.783l0.376-0.027
	l0.058,0.377c-0.218-0.501-0.855,0.036-1.044-0.464c-0.023-0.275,0.058-0.58-0.029-0.812c-0.196,0.079-0.168-0.203-0.291-0.292
	c-0.167-0.116-0.333,0.065-0.378,0.204L50.129,51.1c-0.146,0-0.384-0.114-0.436,0.118v0.521c-0.123-0.008-0.254-0.109-0.377-0.028
	c-0.21,0.108-0.079,0.368-0.115,0.552c-0.167-0.24-0.394-0.451-0.406-0.757c0.16-0.106,0.42-0.034,0.579-0.057
	c-0.021-0.437-0.567-0.782-0.928-0.986c-0.079-0.051-0.195-0.022-0.29-0.03c-0.312,0.34-0.021,0.792-0.029,1.191
	c0.167,1.065,0.546,2.19,0.231,3.307c-0.077,0.117-0.223,0.312-0.376,0.231c-0.255-0.6-0.107-1.368-0.232-2.03
	c-0.081-1.407-0.023-2.91-1.218-3.83c-0.167-0.058-0.277,0.095-0.348,0.204c0.13,0.463,0.63,0.769,0.579,1.305
	c-0.254,1.611,0.486,3.098,0.146,4.671c-0.058,0.104-0.102,0.276-0.261,0.263c-0.436-0.857-0.348-1.937-0.521-2.902
	c-0.211-1.276-0.038-2.605-0.377-3.83c-0.131-0.218-0.254-0.465-0.494-0.609c-0.238,0.37-0.034,0.848-0.057,1.277
	c0.145,1.842,0.507,3.598,0.695,5.427c-0.021,0.812,0.182,1.674-0.058,2.437c-0.086,0.102-0.181,0.182-0.318,0.146l-0.146-0.377
	l-0.405-3.279l-0.55-7.486c-0.015-0.894,0.602-1.626,1.304-2.119C48.526,42.584,50.89,45.29,53.174,46.457z M50.593,45.877
	c1.232-0.145,1.022,1.516,2.147,1.596c0.434,0.21,0.97,0.363,1.217,0.843c0.065,0.297-0.05,0.725,0.319,0.842
	c0.667,0.782,2.081-0.045,2.552,1.044c0.08,0.188,0.159,0.376,0.145,0.608c-0.216-0.218-0.355-0.66-0.696-0.638
	c-0.159,0.354-0.297,0.746-0.608,1.016c-0.304,0.014-0.552-0.218-0.696-0.464c-0.174-0.233,0.145-0.507-0.088-0.727
	c-0.174-0.262-0.463-0.457-0.752-0.406c-0.095,0.129-0.182,0.29-0.146,0.434c0.146,0.153,0.391,0.24,0.435,0.465
	c-0.145,0.057-0.405,0.029-0.551-0.086c-0.167-0.203-0.152-0.58-0.493-0.61c-0.16-0.007-0.341-0.029-0.406-0.203
	c0.007-0.276,0.042-0.674-0.318-0.696c-0.197-0.043-0.617,0-0.522-0.29c0.24-0.184,0.602-0.306,0.666-0.669
	c-0.036-0.101-0.014-0.254-0.144-0.289c-0.254,0-0.522,0.354-0.726,0.058c0.181-0.335-0.16-0.603-0.405-0.725
	c-0.42-0.312-1.075-0.066-1.422-0.552c-0.486-0.386-0.181-1.205-0.898-1.392c-0.117-0.03-0.298-0.118-0.32-0.175
	C49.847,44.601,49.736,45.936,50.593,45.877z M67.326,45.53c-0.027,0.042-0.05,0.107-0.116,0.115
	c-0.296-0.108-0.58-0.333-0.783-0.608l0.029-0.146C66.798,44.992,67.117,45.24,67.326,45.53z M66.196,46.429
	c-0.385-0.203-0.842-0.342-1.073-0.784c0.124-0.203,0.421-0.022,0.581,0.087C65.914,45.921,66.217,46.118,66.196,46.429z
	 M64.746,47.039c-0.334-0.022-0.589-0.233-0.842-0.436c0.103-0.196,0.305-0.007,0.435,0.058
	C64.477,46.785,64.731,46.814,64.746,47.039z M47.084,47.213c-0.253,0.116-0.463-0.066-0.667-0.174
	c-0.139-0.103-0.21-0.233-0.174-0.408c0.152-0.209,0.347,0.015,0.493,0.087C46.852,46.885,47.12,46.989,47.084,47.213z
	 M46.533,47.764c0.021,0.072-0.065,0.13-0.116,0.145c-0.32-0.014-0.574-0.166-0.813-0.376c-0.13-0.161-0.224-0.371-0.144-0.581
	c0.1-0.174,0.29-0.043,0.406,0C46.113,47.184,46.475,47.423,46.533,47.764z M48.157,47.184c0.029,0.268,0.103,0.631-0.174,0.813
	c-0.181,0.196-0.537,0.124-0.754,0.059c-0.239-0.132-0.036-0.428-0.058-0.639c0.16-0.022,0.276,0.057,0.435,0.028
	c0.161-0.202,0.007-0.615,0.436-0.493L48.157,47.184z M65.616,47.908c-0.239,0-0.479-0.217-0.638-0.435l0.029-0.115
	C65.218,47.523,65.63,47.59,65.616,47.908z M48.97,48.026c-0.174,0.296,0.282,1.009-0.407,0.812
	c-0.406-0.117-0.072-0.582-0.175-0.901C48.549,47.793,48.903,47.823,48.97,48.026z M46.503,48.838
	c0.023,0.166-0.209,0.166-0.317,0.115c-0.131-0.057-0.247-0.145-0.349-0.26C45.974,48.207,46.446,48.518,46.503,48.838z
	 M47.779,48.576l-0.262,0.232c0.176,0.233,0.132,0.559,0.262,0.812c-0.036,0.16-0.159,0.08-0.262,0.06
	c-0.165-0.421-0.724-0.711-0.666-1.19C47.142,48.389,47.527,48.417,47.779,48.576z M64.921,49.069
	c-0.312-0.072-0.582-0.312-0.785-0.58C64.449,48.628,64.717,48.822,64.921,49.069z M72.809,48.664
	c1.393,1.58,2.226,3.386,2.784,5.311c0.08,0.463,0.151,1.124-0.291,1.393c-0.246,0.114-0.441-0.175-0.551-0.348
	c-0.674-1.212-1.188-2.488-1.624-3.802c-0.072-0.103-0.174-0.269-0.318-0.262c0.376,1.458,1.422,2.641,1.218,4.266
	c-0.064,0.159-0.238,0.093-0.348,0.029c-0.806-0.835-1.102-1.873-1.565-2.844c-0.096-0.081-0.168-0.218-0.292-0.232v0.232
	c0.473,0.942,1.271,1.827,1.045,2.988c-0.058,0.166-0.211,0.34-0.376,0.406h-0.146c-0.435-1.161-0.928-2.329-1.741-3.307
	c0.066,1.254,1.081,2.182,1.336,3.395c-0.162,0.195-0.378,0.008-0.553-0.029c-0.854-0.632-1.218-1.561-1.739-2.379
	c0.087,1.152,0.905,1.958,1.13,3.017c-0.209,0.116-0.435-0.08-0.637-0.146c-0.711-0.421-0.95-1.211-1.45-1.771
	c-0.044,0-0.088,0.044-0.088,0.088c0.109,0.842,0.798,1.437,0.87,2.292c-0.151,0.146-0.318-0.021-0.464-0.058
	c-0.472-0.378-0.775-0.886-0.929-1.423c-0.101-0.15-0.273-0.333-0.463-0.26l-0.057,0.086c0.289,0.726,0.832,1.488,0.492,2.323
	l-0.174-0.059c-0.406-0.603-0.725-1.292-1.304-1.771c-0.117,0.262,0.071,0.536,0.174,0.784c0.202,0.406,0.528,0.791,0.521,1.246
	c-0.739,0.11-1.196-0.754-1.682-1.218c0.072,0.523,0.557,0.986,0.492,1.567c-0.102,0.167-0.37,0.167-0.552,0.115
	c-0.47-0.21-0.491-0.711-0.782-1.045c-0.204,0.125-0.102,0.465-0.087,0.668c0.094,0.262,0.552,0.413,0.378,0.755
	c-0.066,0.159-0.306,0.188-0.436,0.086c-0.181-0.108-0.022-0.29-0.028-0.434c-0.088-0.211-0.044-0.479-0.261-0.639
	c-0.115,0.079-0.304,0.182-0.436,0.057c-0.339-0.145-0.325-0.558-0.231-0.841c0.269-0.595,0.986-0.492,1.42-0.871
	c2.784-1.819,4.888-4.744,7.28-7.137C72.49,48.788,72.612,48.649,72.809,48.664z M64.224,50.173
	c-0.291-0.094-0.544-0.328-0.754-0.553l0.029-0.086L64.224,50.173z M48.593,49.882c-0.037,0.138,0.094,0.371-0.117,0.405
	c-0.202,0-0.5,0.039-0.521-0.202c0.029-0.18,0.022-0.486,0.29-0.465C48.396,49.62,48.593,49.708,48.593,49.882z M49.897,50.173
	c-0.037,0.232,0.102,0.638-0.232,0.638c-0.188,0.021-0.413-0.008-0.463-0.203c0.05-0.202-0.125-0.522,0.145-0.609
	C49.548,50.005,49.802,49.963,49.897,50.173z M67.936,50.492l0.608,0.697c-0.317-0.124-0.695-0.574-0.927-0.871
	C67.676,49.845,67.777,50.441,67.936,50.492z M54.538,52.756c0.015,0.159-0.161,0.202-0.261,0.261
	c-0.695,0.072-1.204-0.72-1.509-1.249c-0.224-0.349-0.217-0.812-0.579-1.072c-0.015,0.036-0.059,0.029-0.088,0.029v-0.319
	C53.037,50.964,53.863,51.892,54.538,52.756z M63.441,51.188c-0.217-0.023-0.471-0.246-0.667-0.464l0.029-0.087
	C63.042,50.759,63.29,50.979,63.441,51.188z M74.491,52.29c0.288,0.654,0.564,1.313,0.696,2.032c-0.319-1.153-0.82-2.205-1.48-3.192
	C74.099,51.385,74.259,51.892,74.491,52.29z M67.356,52.087c-0.276-0.078-0.508-0.376-0.668-0.609l0.029-0.173
	C66.871,51.565,67.226,51.79,67.356,52.087z M51.405,51.972l0.552-0.028c-0.167,0.225-0.515,0.225-0.784,0.174
	c-0.188-0.016-0.26-0.22-0.347-0.35v-0.376C50.884,51.666,51.166,51.819,51.405,51.972z M73.156,53.132
	c0.131,0.486,0.451,0.9,0.493,1.423l-0.145-0.146c-0.232-1.039-0.798-1.937-1.336-2.844C72.678,51.965,72.83,52.609,73.156,53.132z
	 M63.441,52.378c-0.123,0.102-0.333,0.312-0.522,0.146c-0.05-0.08-0.138-0.073-0.145-0.176c0.26,0.096,0.306-0.318,0.551-0.085
	L63.441,52.378z M66.486,53.19c-0.306-0.116-0.594-0.441-0.755-0.727l0.029-0.146C65.942,52.639,66.333,52.863,66.486,53.19z
	 M71.328,52.495c0.378,0.688,0.777,1.356,1.046,2.087c-0.457-0.703-0.74-1.529-1.248-2.234L71.328,52.495z M71.446,55.279
	c-0.32-0.072-0.437-0.507-0.609-0.784l-0.494-1.102C70.757,54.003,71.163,54.611,71.446,55.279z M54.189,53.944
	c0.058,0.196,0.028,0.421-0.087,0.581c-0.152,0.217-0.826,0.122-0.55,0.581c0.081,0.137,0.239,0.159,0.347,0.145
	c0.16-0.13,0.066-0.494,0.378-0.436c0.232,0.239,0.188,0.587,0.232,0.898c-0.168,0.08-0.522-0.065-0.493,0.232
	c0.18,0.167,0.529,0.246,0.347,0.58c-0.043,0.102-0.146,0.174-0.261,0.174l-0.318-0.405c-0.247,0.327,0.115,0.755-0.087,1.132
	c0.036,0.087,0.081,0.231,0.203,0.231c0.088,0.015,0.153-0.021,0.203-0.086c-0.093-0.255,0.16-0.364,0.32-0.435
	c0.16,0.013,0.124,0.239,0.087,0.347c-0.174,0.34-0.638,0.609-0.581,1.073c-0.115,0.095-0.318,0.073-0.435,0
	c-0.449-0.913,0.494-2.168-0.696-2.785c-0.993-0.291-1.586,0.987-2.552,0.406c-0.166-0.196-0.166-0.501-0.115-0.755
	c0.167-0.188,0.428-0.246,0.667-0.173c0.421,0.274,0.899,0.588,1.45,0.377c0.218-0.051,0.348-0.281,0.435-0.466
	c0.152-0.39-0.081-0.964,0.204-1.276C53.319,53.908,53.79,53.836,54.189,53.944z M64.601,54.757
	c-0.29-0.065-0.558-0.457-0.609-0.782L64.601,54.757z M69.647,54.787c0.065,0.426,0.564,0.681,0.667,1.103
	c-0.588-0.408-0.769-1.125-1.16-1.655C69.415,54.3,69.517,54.591,69.647,54.787z M51.753,54.845
	c0.058,0.317-0.356,0.182-0.522,0.175c-0.093-0.045-0.065-0.175-0.029-0.232C51.325,54.599,51.673,54.634,51.753,54.845z
	 M63.76,55.452c-0.291-0.114-0.47-0.426-0.637-0.665l0.027-0.088C63.397,54.881,63.6,55.186,63.76,55.452z M61.672,56.526
	c0.174,0.275,0.21,0.646,0.146,0.987c-0.189,0.284-0.523,0.406-0.841,0.35c-0.327-0.393-0.096-1.023-0.204-1.511
	c-0.096-0.131-0.283-0.139-0.406-0.058c-0.175,0.123-0.254,0.363-0.435,0.405c-0.304-0.34-0.043-0.811,0-1.188
	c-0.101-0.096-0.188-0.232-0.348-0.174c-0.103,0.094-0.189,0.232-0.348,0.174c-0.109-0.06-0.218-0.165-0.174-0.319
	c0.325-0.211,0.696-0.42,1.13-0.291C60.787,55.323,61.208,55.975,61.672,56.526z M56.973,55.192c0.066,0.21,0.036,0.472-0.174,0.58
	c-0.209-0.051-0.16-0.37-0.406-0.405c-0.139,0.006-0.26,0.028-0.349,0.145c-0.137,0.275,0.428,0.717-0.143,0.726
	c-0.276-0.138-0.161-0.479-0.146-0.696c0.087-0.355,0.479-0.486,0.754-0.64C56.713,54.873,56.909,55.012,56.973,55.192z
	 M69.009,56.412c-0.29-0.342-0.739-0.704-0.725-1.161C68.53,55.613,68.85,55.99,69.009,56.412z M76.087,55.831
	c0.695,1.517,0.955,3.337,0.781,5.165c-0.015,0.145-0.078,0.27-0.174,0.377c-0.354-0.094-0.413-0.508-0.58-0.785
	c-0.456-1.085-0.617-2.297-0.986-3.422c-0.703,1.218,0.777,2.089,0.609,3.366c0.051,0.486-0.167,0.941-0.58,1.161
	c-0.246,0.079-0.5,0-0.666-0.203l-0.175-0.321c-0.203-1.318-0.333-2.675-0.812-3.887c-0.238,0.275-0.035,0.716-0.059,1.074
	c0.123,1.014,0.499,2.065,0.232,3.104c-0.145,0.087-0.284-0.029-0.406-0.087c-0.921-1.009-0.921-2.394-1.451-3.569l-0.086-0.087
	l-0.203,0.232c0.407,1.132,0.791,2.46,0.463,3.714c-0.331-0.007-0.375-0.384-0.549-0.58c-0.407-0.841-0.596-1.778-0.959-2.642
	c-0.216,0.319,0.037,0.72,0.06,1.074c0.107,0.632,0.385,1.183,0.317,1.885c-0.049,0.096-0.188,0.066-0.261,0.03
	c-0.84-0.739-1.116-1.769-1.508-2.728c0.022,1.017,0.428,2.018,0.319,3.047c-0.282,0.016-0.471-0.304-0.639-0.522
	c-0.413-0.66-0.543-1.43-0.956-2.09c-0.167,0.146-0.167,0.443-0.116,0.668c0.116,0.696,0.602,1.283,0.58,2.003
	c-0.102,0.239-0.457,0.151-0.638,0.086c-1.124-0.645-0.239-2.306-1.536-2.93v-0.088c2.784-1.363,5.575-2.692,8.729-3.163
	C75.273,55.708,75.709,55.708,76.087,55.831z M58.077,55.918c0.195,0.226,0.223,0.521,0.201,0.842
	c-0.021-0.494-0.448-0.819-0.929-0.899c-0.027,0-0.071,0.007-0.085-0.029C57.51,55.751,57.872,55.722,58.077,55.918z M67.966,57.138
	c-0.183-0.473-0.509-0.886-0.813-1.307C67.667,56.063,67.943,56.637,67.966,57.138z M43.025,56.005
	c0.165,0.224,0.165,0.559,0.115,0.84c-1.073,0.807-2.023-0.439-3.219,0.06c-0.87,0.138-1.64,0.639-2.205,1.393
	c0.654,0.132,1.001-0.652,1.567-0.812c0.769-0.354,1.74-0.312,2.581-0.145l0.232-0.174c0.957,0.594,1.943,1.102,3.132,1.131
	c0.203,0,0.369-0.094,0.522-0.203c0.377,0.036,0.825-0.109,1.072,0.233c0.239,0.441,0.515,0.936,0.319,1.479
	c-0.146,0.421-0.624,0.61-0.929,0.842c-0.034,0.146,0.088,0.225,0.175,0.319c0.616,0,1.03-0.703,1.218-1.189
	c0.122-0.37,0.108-0.841-0.057-1.19c-0.225-0.312-0.538-0.645-0.899-0.755l-0.754,0.031c0.305-0.697,0.588-1.626,1.452-1.858
	c0.89-0.138,1.674,0.153,2.29,0.755c0.812,0.965,0.624,2.423,0.609,3.656c-0.217,1.104-0.79,2.43-2.029,2.727
	c-0.667,0.022-1.24-0.297-1.625-0.842c-0.397-0.441-0.021-1.261-0.551-1.595c-1.652,0.081-3.088,0.688-4.583,1.16
	c-1.478,0.406-2.224-1.212-3.711-0.783h-0.087c0.153-0.226,0.407-0.385,0.581-0.551c-0.543-0.065-1.197-0.08-1.479,0.464
	c-0.102,0.304-0.05,0.674-0.146,0.986c-0.434-0.217-0.696-0.667-0.724-1.133c0.052-0.63,0.5-1.226,1.073-1.507
	c0.413-0.226,0.942-0.067,1.392-0.03c0.102-0.159-0.051-0.304-0.174-0.376l-1.508-0.06c-0.297-0.159-0.124-0.528-0.087-0.783
	c0.45-1.449,2.227-0.623,2.814-1.915c0.441-0.174,0.855,0.087,1.333,0C41.508,56.151,42.254,55.613,43.025,56.005z M56.77,56.295
	c-0.013,0.117,0.008,0.283-0.145,0.319h-0.261c-0.05-0.08-0.021-0.196-0.028-0.29C56.444,56.229,56.685,56.128,56.77,56.295z
	 M66.891,57.369c-0.246-0.262-0.724-0.653-0.781-1.104C66.421,56.586,66.659,56.992,66.891,57.369z M59.293,56.556v0.204
	L58.83,56.73c0.022-0.139-0.072-0.37,0.145-0.378C59.149,56.324,59.28,56.382,59.293,56.556z M52.826,56.7
	c-0.007,0.145,0.037,0.356-0.145,0.378c-0.138-0.021-0.319-0.051-0.349-0.203c-0.036-0.138,0.073-0.238,0.174-0.289
	C52.624,56.599,52.796,56.541,52.826,56.7z M48.127,56.73c-0.311,0.407-0.833,0.528-1.334,0.463
	C47.092,56.802,47.643,56.526,48.127,56.73z M51.492,56.962c-0.138,0.122-0.364,0.211-0.464,0.407
	c-0.037,0.383,0.093,0.849-0.116,1.161c-0.233,0.114-0.292-0.203-0.349-0.349c-0.036-0.357-0.078-0.791,0.145-1.074
	C50.884,56.854,51.246,56.875,51.492,56.962z M65.673,57.832c-0.29-0.129-0.542-0.441-0.58-0.754l0.029-0.174
	C65.218,57.252,65.522,57.514,65.673,57.832z M57.958,57.427c0.276,0.29,0.552,0.58,0.552,0.987c-0.116,0.093-0.318,0.072-0.433,0
	c-0.255-0.239,0.195-1.06-0.465-0.842c-0.333,0.544-0.079,1.537-0.958,1.655c-0.384,0.275,0.282,0.724-0.232,0.869
	c-0.775,0.116,0.108-1.053-0.753-0.813c-0.152,0.132,0.05,0.291-0.058,0.437c-0.188,0.065-0.457,0.029-0.522-0.175
	c0.036-0.486,0.341-0.936,0.754-1.188c0.173,0.194-0.182,0.26-0.232,0.434c0.282,0.132,0.601,0,0.899,0
	c0.247-0.087,0.558-0.138,0.667-0.434c0.102-0.393-0.24-0.675-0.204-1.074C57.299,57.159,57.684,57.245,57.958,57.427z
	 M56.364,57.397c0.05,0.087,0.023,0.21,0.029,0.319c-0.109,0.072-0.233,0.101-0.378,0.087c-0.028-0.107-0.065-0.173-0.028-0.29
	C56.089,57.412,56.22,57.385,56.364,57.397z M60.164,57.397c-0.124,0.037-0.254,0.138-0.32,0.261
	c-0.065,0.152-0.006,0.326,0.059,0.465l0.086,0.088c-0.189,0.021-0.412-0.117-0.405-0.319
	C59.533,57.578,59.838,57.304,60.164,57.397z M76.521,60.356c-0.269-0.876-0.312-1.842-0.406-2.784
	C76.47,58.414,76.383,59.466,76.521,60.356z M62.629,57.892c0.05,0.565-0.125,1.109-0.639,1.363c-0.08,0.05-0.196,0.021-0.29,0.028
	c-0.123-0.13-0.021-0.304,0.03-0.435c0.297-0.369,0.195-1.051,0.753-1.16L62.629,57.892z M53.059,58.182
	c0.051,0.195,0.122,0.493-0.03,0.667c-0.188,0.181-0.428,0.239-0.667,0.289c0.21-0.129,0.405-0.289,0.494-0.521
	c0.043-0.319-0.096-0.559-0.146-0.842C52.935,57.789,52.949,58.044,53.059,58.182z M75.012,60.938
	c-0.115-0.695-0.188-1.464-0.608-2.061l-0.029-1.045C74.513,58.898,75.446,59.777,75.012,60.938z M55.551,58.064
	c-0.397,0.188-0.717,0.596-0.869,1.017c-0.123,0.065-0.232-0.08-0.232-0.204c-0.043-0.261,0.081-0.448,0.203-0.637
	C54.877,58.007,55.255,57.949,55.551,58.064z M59.236,59.458c-0.08,0.071-0.174,0.102-0.291,0.087
	c0.079-0.494-0.051-1.08,0.117-1.538C59.337,58.377,59.264,58.973,59.236,59.458z M73.303,60.764
	c-0.32-0.87-0.546-1.776-0.756-2.699C73.02,58.877,73.178,59.813,73.303,60.764z M41.806,58.675
	c0.057,0.166-0.146,0.202-0.232,0.262L39.6,58.965c-0.123-0.116-0.021-0.29,0.031-0.407C40.196,58.028,41.349,58.028,41.806,58.675z
	 M63.789,58.703c0.108,0.167,0.167,0.421,0.058,0.609c-0.102,0.254-0.378,0.457-0.58,0.639c-0.211,0.065-0.333-0.254-0.522-0.058
	c-0.354,0.254-0.108,0.82-0.55,0.986c-0.543,0.238-1.343-0.139-1.798,0.319c-0.182-0.166-0.007-0.479-0.146-0.667
	c0.232-0.103,0.624,0.145,0.668-0.261c-0.022-0.124-0.058-0.27-0.204-0.291c-0.167-0.021-0.261-0.146-0.232-0.318
	c0.159-0.364-0.354-1.024,0.318-1.132l0.204-0.263c0.145,0.493-0.014,1.037-0.086,1.481l0.463,0.028
	c0.211,0.413-0.876,0.79-0.174,1.016c0.537,0.05,0.348-0.603,0.696-0.754c0.427,0.167,0.682-0.27,0.986-0.494
	c0.284-0.348,0.195-0.812,0.174-1.218C63.397,58.021,63.6,58.5,63.789,58.703z M71.417,58.994c0.072,0.545,0.34,1.016,0.318,1.594
	c-0.152-0.797-0.371-1.565-0.696-2.291C71.25,58.441,71.337,58.746,71.417,58.994z M58.25,58.675
	c0.035,0.202-0.022,0.413-0.262,0.376c-0.131,0.051-0.181-0.078-0.174-0.174C57.647,58.465,58.089,58.697,58.25,58.675z
	 M70.43,60.647c0.016,0.073,0.037,0.146,0.029,0.232c-0.231-0.638-0.493-1.299-0.55-1.974C70.257,59.393,70.301,60.052,70.43,60.647
	z M57.64,59.022c0.007,0.189,0.007,0.443-0.115,0.608c-0.073,0.046-0.176,0.139-0.261,0.059c-0.074-0.123-0.058-0.282-0.058-0.435
	C57.323,59.109,57.467,59.029,57.64,59.022z M69.27,61.373c-0.368-0.732-0.68-1.539-0.841-2.322
	C68.82,59.777,69.047,60.574,69.27,61.373z M48.94,59.894c0.006,0.13,0.015,0.341-0.176,0.319c-0.195,0.014-0.369-0.116-0.434-0.291
	c-0.02-0.137,0.138-0.218,0.232-0.26C48.737,59.61,48.933,59.72,48.94,59.894z M66.08,59.834c0.015,0.088-0.021,0.154-0.087,0.205
	c-0.108,0.021-0.261-0.065-0.319,0.086c0.081,0.291,0.516,0.334,0.551,0.668c0,0.203-0.174,0.29-0.348,0.319
	c-0.666,0.08-1.544-0.226-1.943,0.378c0.037,0.166-0.036,0.341-0.202,0.376c-0.095-0.065-0.139-0.427-0.407-0.289
	c-0.073,0.188,0.16,0.436-0.058,0.637c-0.167,0.196-0.398,0.399-0.638,0.232c-0.088-0.146,0.028-0.283,0.085-0.406
	c0.197-0.021,0.356-0.153,0.408-0.347c-0.052-0.27,0.057-0.553,0.318-0.61c0.116-0.03,0.238-0.057,0.319-0.175
	c0.057-0.121-0.088-0.217-0.174-0.231c-0.167,0.007-0.327,0.11-0.493,0.029c-0.116-0.139-0.189-0.342-0.116-0.523
	c0.217-0.268,0.559,0.037,0.812-0.144c0.354-0.211,0.885-0.45,1.275-0.146C65.442,59.96,65.774,59.443,66.08,59.834z M67.791,61.257
	c-0.281-0.5-0.26-1.117-0.666-1.567C67.654,60.06,67.783,60.684,67.791,61.257z M58.395,59.806c-0.145,0.196-0.035,0.574-0.377,0.61
	l-0.261,0.028c-0.066-0.167-0.007-0.348,0.058-0.493C57.988,59.851,58.168,59.77,58.395,59.806z M53.493,60.039
	c0.037,0.137-0.072,0.238-0.174,0.288c-0.167,0.016-0.341,0-0.406-0.173C52.899,59.856,53.333,59.988,53.493,60.039z M57.206,60.01
	c0.064,0.181,0.007,0.385-0.059,0.552c-0.203,0.13-0.42,0.218-0.667,0.231C56.691,60.518,56.727,59.966,57.206,60.01z
	 M59.989,60.327c-0.239-0.007-0.485-0.107-0.726-0.027c-0.129,0.288-0.376,0.587-0.694,0.667c-0.138-0.095,0.005-0.218,0.028-0.319
	c0.327-0.493,0.906-0.588,1.421-0.608L59.989,60.327z M65.297,60.3c-0.166,0.167-0.485,0.188-0.725,0.174
	c0.043-0.153,0.209-0.254,0.349-0.291C65.064,60.176,65.21,60.176,65.297,60.3z M40.936,60.938c0.094,0.043,0.18,0.139,0.144,0.262
	c-0.646,0.217-1.312-0.03-1.854-0.319c0-0.226,0.26-0.318,0.406-0.436C40.073,60.647,40.348,61.257,40.936,60.938z M57.901,60.938
	c0.073,0.188,0.021,0.45-0.232,0.406h-0.115c-0.051-0.078-0.021-0.195-0.028-0.291C57.612,60.931,57.756,60.931,57.901,60.938z
	 M56.916,61.169c0.043,0.255-0.043,0.509-0.262,0.61c-0.145,0.015-0.204-0.159-0.174-0.289
	C56.394,61.192,56.742,61.199,56.916,61.169z M62.541,61.286c-0.007,0.138,0.037,0.392-0.145,0.464
	c-0.18,0.051-0.434-0.007-0.521,0.203c0.035,0.247-0.029,0.485-0.232,0.61h-0.204c-0.006-0.378-0.152-0.907,0.233-1.133
	C61.925,61.294,62.251,61.339,62.541,61.286z M58.685,61.547c-0.015,0.196,0.057,0.428-0.146,0.553H58.25
	c-0.022-0.219-0.117-0.58,0.203-0.64C58.539,61.474,58.67,61.424,58.685,61.547z M65.876,61.809l1.015,0.058
	c0.059,0.116,0.03,0.297-0.085,0.348c-0.247,0.015-0.603-0.188-0.696,0.174c-0.007,0.255,0.064,0.596-0.292,0.581
	c-0.094,0-0.21,0.022-0.261-0.088c-0.021-0.158,0.015-0.317,0.204-0.289c0.037-0.007,0.095,0.021,0.116-0.028
	c-0.181-0.312-0.138-0.87-0.637-0.9c-0.021,0.168-0.168,0.369-0.318,0.493c-0.276,0.319-0.741,0.29-0.929,0.697
	c-0.108-0.139-0.406-0.334-0.145-0.522l1.217-0.871C65.429,61.358,65.587,61.743,65.876,61.809z M48.707,61.779
	c-0.296,0.361-0.724,0.601-1.158,0.608c0.108-0.254-0.095-0.579,0.057-0.754C47.99,61.641,48.418,61.598,48.707,61.779z
	 M76.607,61.953c0.842,1.952,0.146,4.267-0.783,5.979c-0.115,0.064-0.166,0.289-0.349,0.202c-0.781-1.719,0.907-3.212,0-4.845
	c-0.174,0-0.121,0.188-0.174,0.29c0.044,1.717-0.174,3.328-1.043,4.672c-0.086,0.101-0.182,0.18-0.319,0.144
	c-0.703-1.74,0.501-3.488-0.029-5.338c-0.194,1.349,0.052,2.932-1.102,3.83c-0.095,0.006-0.196,0.108-0.291,0.029
	c0.037-1.271,0.429-2.649,0.118-3.918c-0.052-0.065-0.139-0.122-0.204-0.059l-0.058,0.088c0.181,1.269-0.11,2.48-0.754,3.481
	l-0.116,0.087l-0.117-0.115c-0.007-1.161-0.065-2.3-0.289-3.366l-0.088-0.087l-0.173,0.29c-0.152,0.92-0.037,1.952-0.319,2.814
	c-0.253-0.052-0.253-0.371-0.377-0.551c-0.254-0.659-0.108-1.487-0.231-2.205c-0.355-0.356-0.887,0.21-1.307-0.146
	c-0.181-0.123-0.137-0.335-0.145-0.522c0.406-0.776,1.334-0.305,1.972-0.522c1.966-0.153,3.908-0.428,5.946-0.319L76.607,61.953z
	 M50.738,62.795c-0.007,0.124-0.044,0.276-0.029,0.376c0.125,0.146,0.334,0.095,0.493,0.146c0.247,0.152,0.493,0.652,0.784,0.232
	c0.34-0.044,0.035,0.427,0.376,0.435c0.203,0.007,0.348-0.123,0.551-0.115c-0.203,0.341-0.223,0.761-0.493,1.073
	c-0.74-0.274-1.45-0.871-1.914-1.566c-0.253-0.196-0.595-0.176-0.928-0.176c-0.159-0.121-0.058-0.347-0.087-0.522
	C49.926,62.673,50.361,62.673,50.738,62.795z M61.527,63.057c0.028,0.08-0.043,0.123-0.088,0.174
	c-0.173,0.028-0.334-0.03-0.405-0.174c-0.021-0.117,0.109-0.11,0.174-0.146C61.344,62.881,61.498,62.946,61.527,63.057z
	 M63.354,63.693c-0.21,0.182-0.55,0.176-0.812,0.291c-0.202,0.167-0.478,0.253-0.753,0.175c-0.072-0.036-0.058-0.109-0.058-0.175
	c0.449-0.175,1.007-0.405,1.189-0.928C63.18,63.143,62.977,63.65,63.354,63.693z M64.862,63.433c0.08,0.104,0.16,0.204,0.146,0.35
	c-0.161,0.079-0.386-0.022-0.581-0.029c-0.224,0-0.463,0.131-0.667,0c-0.007-0.247,0.218-0.472,0.436-0.553
	C64.471,63.15,64.674,63.266,64.862,63.433z M68.227,63.81l0.406-0.086c-0.052,0.138-0.007,0.305-0.146,0.406
	c-0.247,0.029-0.413-0.298-0.639-0.146c0.058,1.065,1.647,0.139,1.45,1.247c-0.349-0.015-0.58-0.305-0.928-0.317
	c-0.247,0.151,0.109,0.428-0.028,0.667c-0.24,0.165-0.465-0.219-0.639,0.058c-0.074,0.254,0.376,0.42,0.145,0.609
	c-0.573,0.014-1.326-0.32-1.769,0.174c-0.015,0.196,0.209,0.181,0.319,0.261c0.485,0.152,1.044-0.05,1.508,0.059
	c-0.086,0.326-0.521,0.29-0.638,0.608c0.065,0.146,0.377-0.063,0.291,0.204c-0.08,0.204-0.406,0.182-0.552,0.405
	c-0.37-0.034-0.239-0.478-0.406-0.694c-0.275,0.093,0.072,0.45-0.261,0.493c-0.268-0.103-0.507,0.035-0.695,0.201
	c-0.124,0.073-0.124,0.196-0.118,0.32c0.233,0.167,0.611-0.227,0.755,0.115c0.145,0.146,0.588,0.154,0.376,0.493
	c-0.021,0.081-0.129,0.169-0.202,0.089c-0.24-0.414-0.791-0.182-1.16-0.205c-0.181,0.023-0.361,0.174-0.435,0.349
	c-0.037,0.153,0.043,0.29,0.175,0.349c0.21,0.035,0.449-0.03,0.637,0.116c0.007,0.269,0.007,0.538-0.116,0.755
	c-0.101-0.169-0.239-0.429-0.463-0.522c-0.173-0.079-0.478-0.109-0.638,0.029c0.072,0.182,0.319,0.107,0.377,0.318
	c0.022,0.349-0.398,0.581-0.203,0.93c0.21,0.305,0.732,0.174,0.753,0.637c-0.623,1.125-1.667,2.59-3.132,2.554
	c-1.662-0.472-1.908-2.291-2.552-3.569c0.079-0.094,0.282-0.151,0.232-0.319c-0.182-0.21-0.428,0.183-0.551-0.114
	c-0.006-0.124-0.006-0.247,0.116-0.32c0.203-0.058,0.421,0.247,0.522-0.058c-0.037-0.174-0.03-0.393-0.232-0.466
	c-0.856,0.211-1.609-0.173-2.204-0.753c-0.146-0.276-0.559-0.58-0.233-0.898c0.327-0.205,0.371-0.596,0.668-0.812
	c0.086-0.015,0.145,0.085,0.174,0.145c0.015,0.217-0.131,0.369-0.204,0.55c-0.166,0.118-0.384,0.11-0.521,0.29
	c0.058,0.183,0.202,0.356,0.405,0.378c0.261,0.021,0.494-0.238,0.697-0.116c-0.015,0.27-0.341,0.226-0.436,0.437l0.145,0.145
	c0.603-0.043,1.066-0.422,1.653-0.494c0.094,0.059,0.065,0.212,0.029,0.29c-0.239,0.283-0.595,0.268-0.87,0.466
	c0.319,0.174,0.791,0.174,1.13,0c0.218-0.176,0.342-0.43,0.552-0.552c0.151,0.094,0.078,0.306,0.057,0.434
	c-0.116,0.146-0.297,0.126-0.405,0.292c0.189,0.448,0.732,0.116,1.103,0.173c0.435-0.231,1-0.202,1.305-0.695
	c0.188-0.058,0.296,0.087,0.435,0.145c-0.058,0.238-0.348,0.261-0.522,0.406c0.319,0,0.674,0.263,0.958,0
	c0.267-0.334,0.078-0.856,0.202-1.247c0.081-0.379,0.247-0.819,0.668-0.959c-0.246-0.028-0.436-0.144-0.551-0.377
	c-0.051-0.268,0.26-0.392,0.435-0.492c0.275-0.168,0.653-0.225,0.812-0.552c-0.218-0.463,0.37-0.616,0.406-0.985
	c-0.491-0.169-0.927,0.311-1.419,0.145c0.007-0.247,0.065-0.508,0.288-0.639c0.276-0.058,0.61,0.115,0.871,0
	c0.398-0.921,1.393-0.966,2.204-0.9C67.749,63.499,67.914,63.796,68.227,63.81z M75.969,66.654c0.065-1,0.21-2.206,0.319-3.309
	C76.527,64.484,76.252,65.624,75.969,66.654z M74.316,66.828c0.066-0.958,0.211-2.226,0.32-3.338
	C74.875,64.638,74.599,65.79,74.316,66.828z M73.069,65.581c0.108-0.405,0.037-0.777,0.058-1.219l0.087-0.843
	C73.557,64.151,73.337,64.985,73.069,65.581z M70.4,65.176c-0.21-0.459-0.078-0.953-0.116-1.482
	C70.495,64.116,70.365,64.683,70.4,65.176z M67.414,63.926c-0.065,0.697-0.37,1.35-0.899,1.802c-0.261,0.2-0.732,0.019-0.869,0.404
	c0.021,0.29-0.196,0.471-0.435,0.551c-0.226,0.082-0.574,0.108-0.784-0.028c0.312-0.182,0.717-0.195,0.927-0.552
	c0.067-0.274-0.05-0.71,0.319-0.783c0.312-0.065,0.71,0.008,0.986-0.059c-0.137-0.269-0.499-0.093-0.752-0.144
	c-0.051-0.153-0.051-0.394,0.114-0.464c0.226-0.051,0.509,0.261,0.638-0.06c0.009-0.132,0.009-0.27-0.115-0.349
	c-0.174-0.008-0.494,0.276-0.523,0c0-0.129,0.043-0.269,0.175-0.319C66.638,64.188,67.022,63.536,67.414,63.926z M44.907,68.482
	c0.154-1.487,0.4-3.061,0.465-4.643C45.604,65.398,45.388,67.067,44.907,68.482z M78.261,65.087c-0.21,0.27-0.289,0.596-0.348,0.929
	c1.281,2.083,1.035,5.223,0.319,7.486c0.252-1.561,0.471-3.14,0.376-4.845c-0.051-0.704-0.289-1.371-0.812-1.829
	c-0.196,0.827,0.224,1.552,0.203,2.38c0.174,1.791-0.515,3.292-0.579,5.021c-0.285,0.015-0.486,0.282-0.667,0.492
	c0.477-2.046,1.391-4.127,0.781-6.413c-0.158,0.407-0.341,0.805-0.638,1.161c0.508-1.421,0.616-3.142,1.159-4.614
	C78.21,64.849,78.159,65.022,78.261,65.087z M62.571,64.999c0,0.161-0.087,0.305-0.232,0.379h-0.173
	c-0.102-0.188,0.042-0.379,0.202-0.464C62.447,64.914,62.564,64.899,62.571,64.999z M54.016,65.146
	c0.006,0.385-0.516,0.391-0.754,0.637c-0.233,0.008-0.355-0.201-0.465-0.375c-0.036-0.111-0.064-0.29,0.029-0.379
	C53.262,64.979,53.616,65.109,54.016,65.146z M63.703,65.522c0.05,0.152,0.05,0.362-0.117,0.466
	c-0.167,0.034-0.167-0.198-0.117-0.29C63.528,65.608,63.571,65.508,63.703,65.522z M54.827,65.755v0.115l-0.203,0.031
	c-0.064,0.455,0.717,0.179,0.638,0.753c-0.457,0.064-0.871-0.188-1.161-0.552c0.058-0.21,0.203-0.464,0.436-0.521
	C54.675,65.573,54.863,65.566,54.827,65.755z M69.212,65.87c-0.036,0.096,0.065,0.137,0.029,0.232
	c-0.24-0.087-0.385,0.21-0.639,0.173c-0.122-0.374,0.32-0.238,0.465-0.405H69.212z M68.284,67.06
	c0.123,0.536,0.167,1.118,0.639,1.511c-0.029,0.261-0.116,0.493-0.261,0.695c0.385,0.181,0.542,0.617,0.579,1.017l-0.058,0.434
	c-0.363-0.282-0.712-0.739-0.812-1.218c0.072-0.016,0.166,0.036,0.202-0.06c-0.42-0.136-0.145-0.767-0.347-1.102
	c-0.175-0.297-0.471-0.55-0.522-0.898c0.275-0.189,0.319-0.531,0.29-0.87C68.175,66.646,68.233,66.88,68.284,67.06z M62.049,66.799
	c-0.007,0.196-0.036,0.406-0.231,0.493c-0.066,0.022-0.138-0.021-0.146-0.087c-0.036-0.217,0.036-0.414,0.203-0.522
	C61.962,66.646,62.027,66.741,62.049,66.799z M56.799,67.408c0.036,0.146-0.08,0.231-0.203,0.231
	c-0.282,0.022-0.543-0.151-0.666-0.404c-0.014-0.103,0.014-0.204,0.114-0.232C56.364,66.979,56.669,67.111,56.799,67.408z
	 M64.891,68.57c-0.203,0.247-0.457,0.361-0.755,0.375c-0.086-0.128,0.051-0.23,0.087-0.348c0.146-0.086,0.5,0.08,0.464-0.203
	c-0.434-0.239-0.043-0.637,0-0.927C64.753,67.808,64.912,68.163,64.891,68.57z M67.587,68.686c-0.159,0.123-0.361,0.021-0.521-0.028
	c-0.182-0.146-0.138-0.393-0.145-0.609C67.052,68.482,67.907,67.989,67.587,68.686z M62.077,68.482c0.008,0.123,0,0.239-0.086,0.319
	c-0.093,0.029-0.181-0.036-0.203-0.116c-0.013-0.13,0.014-0.246,0.087-0.349C61.976,68.302,62.077,68.388,62.077,68.482z
	 M68.227,69.12c0.007,0.269,0.107,0.544,0.028,0.812c-0.304-0.297-0.427-0.695-0.841-0.928C67.617,68.672,68.08,68.838,68.227,69.12
	z M67.763,69.612c0.216,0.511,0.412,1.024,0.405,1.626c-0.413-0.354-0.34-1.059-0.842-1.306c-0.326,0.161,0.081,0.827-0.463,0.696
	c-0.08-0.55,0.08-1.109,0.463-1.479C67.587,69.157,67.646,69.446,67.763,69.612z M75.215,69.701
	c-0.203,1.066-0.224,2.213-0.493,3.251c-0.093-1.206,0.109-2.604,0.493-3.773V69.701z M55.551,69.438c0,0.126,0.023,0.27-0.085,0.35
	c-0.139,0.065-0.204-0.103-0.261-0.176c-0.036-0.13,0.05-0.238,0.145-0.288C55.443,69.295,55.53,69.358,55.551,69.438z
	 M47.867,69.933c-0.058,0.08-0.087,0.168-0.173,0.232c-0.095-0.16-0.066-0.464-0.03-0.667C47.94,69.462,47.91,69.758,47.867,69.933z
	 M63.963,69.817c-0.261,0.087-0.508,0.306-0.783,0.262l-0.087-0.146c0.232-0.175,0.536-0.202,0.782-0.348
	C63.918,69.629,63.933,69.738,63.963,69.817z M62.396,69.643c-0.021,0.328-0.486,0.211-0.725,0.319
	c-0.051-0.051-0.167-0.014-0.174-0.115c0.007-0.276,0.384-0.168,0.579-0.234C62.187,69.62,62.31,69.592,62.396,69.643z
	 M45.46,70.311c-0.16,2.003-0.813,3.801-2.234,5.28c-0.189,0.146-0.406,0.312-0.667,0.205c-0.267-0.227-0.209-0.589-0.26-0.901
	c0.072,0.247,0.153,0.545,0.407,0.669c0.427-0.103,0.696-0.573,0.955-0.9c0.906-1.509,1.575-3.112,1.654-4.962
	C45.497,69.774,45.453,70.094,45.46,70.311z M66.11,69.904l0.029,1.161c-0.081,0.093-0.197-0.043-0.291-0.059
	c-0.138-0.398-0.007-0.827,0.116-1.189C66.029,69.797,66.103,69.839,66.11,69.904z M55.06,70.282
	c-0.167,0.094-0.422,0.065-0.61,0.028c-0.08-0.095-0.146-0.202-0.116-0.349C54.56,70.115,55.095,69.869,55.06,70.282z M57.64,70.34
	c0.007,0.101,0.007,0.262-0.115,0.262c-0.131,0.043-0.146-0.103-0.176-0.176l0.118-0.289C57.576,70.144,57.654,70.223,57.64,70.34z
	 M68.023,71.963c0.138,0.379-0.123,0.741-0.117,1.132c-0.108,0.045-0.267,0.053-0.347-0.058c0.021-0.123,0.08-0.23,0.057-0.376
	l-0.174-0.116c-0.095-0.77-0.066-1.626-0.029-2.408C68.088,70.586,67.45,71.471,68.023,71.963z M61.238,70.368
	c0.056,0.182-0.104,0.269-0.233,0.289c-0.268-0.035-0.661,0.11-0.754-0.231c-0.021-0.136,0.131-0.188,0.232-0.203
	C60.737,70.187,61.055,70.144,61.238,70.368z M50.767,70.252c-0.007,0.166,0.036,0.472-0.146,0.551
	c-0.049-0.131-0.151-0.304-0.028-0.435C50.65,70.333,50.68,70.23,50.767,70.252z M67.153,71.414
	c-0.109,0.151-0.348,0.078-0.494,0.057c-0.145-0.094-0.347-0.195-0.406-0.376c0.066-0.225-0.165-0.698,0.204-0.669l0.087-0.086
	C66.653,70.737,67.167,70.963,67.153,71.414z M62.658,70.368c0,0.072-0.028,0.131-0.087,0.175c-0.188,0.094-0.376,0.341-0.638,0.26
	l-0.087-0.146C62.092,70.499,62.367,70.411,62.658,70.368z M68.98,72.254v0.175c-0.189,0.065-0.399,0.016-0.552-0.087v-1.771
	C69.009,71.007,68.59,71.746,68.98,72.254z M69.937,71.124v0.578c-0.297-0.303-0.623-0.674-0.521-1.131
	C69.633,70.709,69.836,70.884,69.937,71.124z M63.817,70.832l-0.028,0.175c-0.261,0.016-0.66,0.117-0.842-0.088
	c-0.057-0.189,0.161-0.189,0.262-0.232C63.412,70.737,63.781,70.564,63.817,70.832z M54.77,70.891
	c0.37,0.348-0.356,0.683,0.057,1.045c0.233,0.218,0.494,0.464,0.813,0.378c0.116-0.104,0.145-0.27,0.087-0.407
	c-0.14-0.253-0.877,0.057-0.522-0.465c0.181-0.226,0.5-0.18,0.753-0.146c0.202,0.088,0.073,0.421,0.232,0.582
	c0.449,0.645,1.103,1.189,1.827,1.362c0.116-0.115,0-0.273-0.087-0.376c-0.42-0.42-1.072-0.589-1.305-1.162
	c0.16-0.174,0.414-0.21,0.639-0.145c0.203,0.24-0.066,0.718,0.348,0.813c0.202,0,0.42-0.13,0.609,0
	c0.159,0.246,0.421,0.449,0.725,0.319c0.102-0.05,0.211-0.124,0.261-0.232c-0.016-0.544-0.899,0.123-0.812-0.464
	c0.18-0.219,0.645-0.196,0.58-0.553c-0.224-0.203-0.485,0.037-0.753,0c-0.021-0.123-0.08-0.232-0.058-0.376
	c0.428-0.095,0.958-0.109,1.275,0.23c0.162,0.232,0.436,0.459,0.291,0.784c-0.201,0.195-0.195,0.472-0.318,0.696
	c-0.74,1.291-2.321,1.415-3.017,2.7c-0.428,1.015-0.37,2.263-0.492,3.365c0.072,0.203,0.289,0.297,0.463,0.377
	c0.58-0.03,1.116-0.523,1.713-0.174c0.18,0.129,0.252,0.312,0.258,0.521c-0.014,0.203-0.136,0.385-0.318,0.493
	c-0.942,0.24-1.667-0.572-2.552-0.201c-0.399,0.326-0.957,0.629-1.45,0.375c-0.211-0.107-0.4-0.325-0.465-0.549l0.03-0.176
	c-0.414-0.08-0.813-0.195-1.249-0.232c-0.399,0.253-0.928,0.37-1.42,0.232c-0.146-0.087-0.355-0.159-0.407-0.349
	c0-0.427,0.188-0.818,0.551-1.044c0.449-0.051,0.732,0.304,1.161,0.319c0.55,0.036,1.101,0.428,1.653,0.116
	c0.528-0.327,1.218-0.631,1.479-1.248c-0.137-1.06,0.037-2.061,0.638-2.844c-0.275-0.413-0.791-0.471-1.131-0.841
	c-0.079-0.965-0.5-1.778-0.754-2.67l0.03-0.203C54.363,70.753,54.61,70.709,54.77,70.891z M69.386,71.906
	c-0.079,0.057-0.131,0.174-0.231,0.174c-0.239-0.355-0.269-0.834-0.204-1.277C69.096,71.173,69.683,71.5,69.386,71.906z
	 M52.826,71.095c0.087,0.536,0,1.081-0.26,1.508c-0.059-0.543-0.029-1.175,0.087-1.712C52.768,70.884,52.796,71.015,52.826,71.095z
	 M43.226,74.054c0.364-1.038,0.732-2.075,1.19-3.076C44.22,72.022,43.807,73.104,43.226,74.054z M44.706,75.011
	c-0.224,0.442-0.457,0.886-0.812,1.278c0.66-1.721,1.552-3.344,1.972-5.165C45.7,72.508,45.09,73.713,44.706,75.011z M61.179,71.296
	c-0.254,0.088-0.616,0.088-0.871,0c-0.02-0.138,0.139-0.093,0.204-0.146C60.75,71.158,61.063,71.115,61.179,71.296z M62.599,71.646
	c-0.312,0.122-0.681,0.122-1.044,0.115c-0.116-0.029-0.145-0.174-0.086-0.261c0.325-0.123,0.826-0.152,1.13,0.028V71.646z
	 M76.811,71.528c0.007,1.097-0.181,2.178-0.58,3.135c-0.043-1.096,0.13-2.176,0.523-3.135H76.811z M45.981,76.317l-0.407,0.579
	c0.269-0.833,0.727-1.719,1.074-2.583c0.167-0.928,0.602-1.747,0.638-2.727C47.2,73.306,46.765,74.888,45.981,76.317z
	 M70.604,72.254c0.174,0.393,0.146,0.864,0.204,1.306c-0.333-0.071-0.312-0.441-0.407-0.695c-0.201-0.312-0.614-0.574-0.491-0.986
	C70.221,71.638,70.487,72.028,70.604,72.254z M50.1,76.057c-0.08,0.21-0.189,0.405-0.349,0.579c0.008-1.023,0.414-1.958,0.552-2.959
	l0.26-1.741C50.803,73.4,50.427,74.758,50.1,76.057z M48.244,75.911c-0.125,0.187-0.181,0.398-0.318,0.58
	c0.108-0.886,0.462-1.792,0.608-2.729l0.231-1.769C48.919,73.4,48.541,74.656,48.244,75.911z M69.59,72.022
	c0.073,0.131,0.101,0.275,0.087,0.436c0.151,0.203,0.564,0.311,0.464,0.609c-0.146,0.194-0.349,0.007-0.493-0.06
	c-0.349-0.188-0.305-0.579-0.262-0.898C69.409,72.022,69.509,71.955,69.59,72.022z M56.713,72.894
	c-0.16,0.093-0.406,0.066-0.58,0.028c-0.146-0.16-0.27-0.326-0.262-0.551C56.097,72.675,56.757,72.458,56.713,72.894z M68.98,72.952
	c-0.116,0.216-0.015,0.768-0.087,1.131h-0.117c-0.158,0.493,0.073,1.044-0.086,1.538c-0.08,0.036-0.203-0.182-0.262-0.291
	l-0.058-1.306c0.139-0.065,0.291-0.007,0.405,0.059c-0.158-0.406-0.434-0.749-0.405-1.219l-0.057-0.262
	C68.51,72.783,68.697,73.06,68.98,72.952z M68.08,73.677c0.065,0.036,0.146,0.078,0.175,0.144c0,0.726-0.094,1.417-0.203,2.091
	h-0.174c-0.022-0.553-0.211-1.104-0.058-1.654c-0.116-0.036-0.319,0.057-0.435-0.058c-0.094-0.283-0.066-0.653-0.029-0.959
	C67.77,73.161,67.581,73.835,68.08,73.677z M69.473,73.328c-0.072,0.553,0.023,1.248-0.289,1.741
	c0.021-0.553-0.051-1.219,0.058-1.77L69.473,73.328z M70.837,73.881c0.006,0.202,0.006,0.404-0.116,0.55
	c-0.218-0.036-0.384-0.226-0.437-0.437c0.017-0.166-0.05-0.36,0.116-0.463C70.59,73.502,70.734,73.771,70.837,73.881z M69.995,73.82
	c0.102,0.553,0.442,1.321-0.059,1.801l-0.173-1.858L69.995,73.82z M71.271,74.546c-0.028,0.262-0.007,0.677-0.377,0.668
	c-0.188,0.016-0.479,0.116-0.609-0.087c-0.027-0.275,0.299-0.21,0.407-0.406C70.864,74.591,71.163,74.054,71.271,74.546z
	 M70.894,75.477c-0.122,0.312-0.493,0.397-0.753,0.551c-0.146,0.057-0.326,0.029-0.436-0.088v-0.089
	C70.081,75.678,70.467,75.083,70.894,75.477z M69.328,75.824c0,0.325-0.087,0.616-0.261,0.871c-0.188,0.035-0.247-0.183-0.32-0.292
	c-0.05-0.326,0.095-0.565,0.292-0.782C69.147,75.672,69.27,75.724,69.328,75.824z M68.747,77.044
	c0.088,0.238-0.121,0.312-0.289,0.346c-0.21,0.045-0.435-0.049-0.464-0.262c-0.043-0.456,0.044-0.861,0.261-1.217
	C68.697,76.07,68.747,76.594,68.747,77.044z M69.88,76.2c-0.017,0.255-0.197,0.464-0.407,0.609h-0.231
	c0.044-0.26,0.217-0.616,0.522-0.726L69.88,76.2z M47.17,76.606l0.03,0.521L47.17,76.606z"/>
<path fill-rule="evenodd" clip-rule="evenodd" fill="#221F1F" d="M57.583,32.792l-0.639,0.667c-0.471-0.072,0.065-0.442-0.231-0.638
	c-0.247-0.34-0.719-0.326-1.073-0.232c-0.595,0.261-0.724,0.87-0.724,1.452c0.05,0.623,0.484,1.232,1.072,1.478
	c0.392,0.103,0.885,0.205,1.219-0.085c0.101-0.154,0.138-0.268,0.348-0.261c0.072,0.217,0.101,0.507,0.086,0.784
	c-1.044,0.341-2.32,0.209-3.074-0.669c-0.449-0.586-0.595-1.56-0.231-2.233c0.29-0.544,0.848-0.922,1.421-1.017
	C56.51,31.941,57.156,32.226,57.583,32.792z M60.135,32.211c-0.049,0.043-0.022,0.116-0.028,0.173
	c-0.146,0.015-0.254,0.125-0.291,0.262l-0.347,2.989c0.55-0.015,1.376,0.449,1.71-0.173l0.26,0.027l-0.115,0.841l-2.9-0.347
	c-0.081-0.312,0.397-0.203,0.318-0.521l0.349-2.99c0-0.188-0.32-0.167-0.203-0.407L60.135,32.211z M64.514,33.023
	c0.072,0.335-0.318,0.174-0.434,0.349c-0.719,0.639-1.356,1.509-0.957,2.496c0.267,0.442,0.745,0.617,1.216,0.695
	c0.312-0.994,0.61-2,0.812-3.045c-0.058-0.146-0.261-0.175-0.115-0.35l1.188,0.319c0.015,0.232-0.195,0.103-0.29,0.262
	c-0.347,1.023-0.594,2.081-0.87,3.133c-0.036,0.196,0.313,0.189,0.146,0.406c-1.015-0.376-2.496-0.217-2.9-1.508
	c-0.334-1.13,0.471-1.929,1.188-2.698c0.008-0.19-0.318-0.155-0.115-0.35L64.514,33.023z M48.881,34.04l0.958,2.755
	c0.479-0.246,1.371-0.145,1.48-0.869l0.23-0.116l0.291,0.812l-2.785,0.958c-0.123-0.19,0.08-0.232,0.088-0.407
	c-0.305-1.043-0.653-2.067-1.045-3.076c-0.093-0.167-0.333-0.007-0.319-0.261l1.132-0.407C49.209,33.625,48.65,33.771,48.881,34.04z
	 M69.851,35.112c0.23,0.211,0.486,0.465,0.464,0.813c0.008,0.34-0.189,0.651-0.494,0.813l-0.579,0.116
	c0.275,0.239,0.422,0.528,0.436,0.871c-0.037,0.376-0.226,0.739-0.581,0.927c-1.189,0.312-2.052-0.696-3.075-1.045
	c-0.007-0.218,0.182-0.146,0.32-0.203l1.479-2.842c0.146-0.247-0.283-0.298-0.03-0.495L69.851,35.112z M46.91,34.764l1.247,2.757
	c0.073,0.246,0.427-0.036,0.377,0.289l-1.13,0.495c-0.161-0.211,0.209-0.414,0-0.638l-1.19-2.671
	c-0.072-0.253-0.462,0.015-0.405-0.319l1.102-0.492C47.207,34.365,46.699,34.517,46.91,34.764z M69.561,35.723
	c0.058,0.217-0.08,0.361-0.175,0.522c-0.5,0.332-0.942-0.182-1.392-0.32l0.464-0.958C68.85,35.157,69.351,35.278,69.561,35.723z
	 M44.706,35.462c0.291,1.267,0.559,2.545,0.898,3.8l-0.637,0.435l-3.074-2.35c-0.153-0.093-0.275,0.087-0.347-0.146l1.073-0.695
	c0.268,0.175-0.153,0.224,0.028,0.435c0.732,0.624,1.501,1.146,2.233,1.771c-0.167-0.914-0.443-1.857-0.667-2.786
	c-0.101-0.217-0.326,0.071-0.377-0.203l0.84-0.581C44.814,35.208,44.786,35.352,44.706,35.462z M68.98,37.261
	c0.028,0.26-0.03,0.478-0.174,0.666c-0.566,0.529-1.161-0.094-1.682-0.291l0.639-1.275C68.189,36.601,68.762,36.752,68.98,37.261z
	 M75.737,40.83c-0.122,0.629-0.712,1.246-1.334,1.42c-1.326,0.312-2.176-0.87-3.133-1.625c0.009-0.057,0.081-0.095,0.116-0.146
	c0.088,0.081,0.262,0.081,0.349,0l2.089-2.436c0.013-0.102-0.016-0.189-0.088-0.262l0.115-0.146
	C74.839,38.449,76.13,39.392,75.737,40.83z M75.1,40.16c-0.021,0.604-0.436,1.169-0.986,1.423c-0.682,0.195-1.269-0.16-1.739-0.639
	l1.942-2.264C74.823,39.022,75.107,39.56,75.1,40.16z M42.183,39.988c0.29,0.631,0.232,1.443-0.174,2
	c-0.443,0.612-1.08,1.017-1.829,1.017c-0.782-0.023-1.514-0.537-1.856-1.249c-0.312-0.644-0.196-1.537,0.232-2.088
	c0.436-0.603,1.058-0.863,1.74-0.928C41.089,38.769,41.834,39.254,42.183,39.988z M41.66,40.712c0.146,0.471,0.03,0.979-0.348,1.306
	c-0.304,0.239-0.644,0.385-1.072,0.32c-0.653-0.174-1.247-0.77-1.421-1.421c-0.124-0.552,0.146-1.065,0.609-1.366
	c0.327-0.238,0.769-0.166,1.131-0.057C41.038,39.755,41.494,40.198,41.66,40.712z M77.738,41.293c0.654,0.77,1.24,1.567,1.855,2.35
	l-0.608,0.494c-0.484-0.182,0.224-0.421-0.115-0.667l-0.898-1.132c-0.283,0.173-0.545,0.405-0.813,0.61
	c0.334,0.339,0.53,1.059,1.103,0.986l0.116,0.146c-0.232,0.196-0.494,0.456-0.754,0.639c-0.255-0.096-0.109-0.247-0.117-0.464
	c-0.158-0.364-0.478-0.661-0.724-0.987l-1.189,0.899c0.376,0.479,0.667,1.088,1.218,1.394c0.182,0.058,0.261-0.16,0.348,0.086
	c-0.203,0.175-0.522,0.739-0.725,0.406l-1.827-2.35c0.115-0.296,0.348,0.093,0.521-0.116l2.466-1.972
	C77.601,41.424,77.558,41.265,77.738,41.293z M36.324,42.657l2.959,1.48c0.138,0.05,0.239-0.16,0.349,0
	c-0.11,0.319-0.356,0.653-0.581,0.957c-0.044,0.073-0.16-0.014-0.174-0.086c0.072-0.254-0.225-0.349-0.377-0.435l-2.233-1.102v0.085
	l1.48,1.83c-0.116,0.232-0.247,0.586-0.58,0.348l-2.059-0.61c0.638,0.653,1.442,1.313,2.173,1.945c0.162,0.085,0.255-0.176,0.378,0
	c-0.058,0.302-0.348,0.58-0.521,0.869l-0.174-0.086c0.05-0.131,0.057-0.232-0.03-0.348l-2.435-2.147
	c-0.153-0.08-0.241,0.231-0.348,0c0.123-0.312,0.427-0.675,0.639-1.017l1.854,0.553v-0.088l-1.189-1.48l0.727-1.044
	C36.418,42.338,36.223,42.519,36.324,42.657z M82.175,48.229c0.364,0.58,0.443,1.479,0.029,2.059l-0.869-0.347
	c-0.088-0.45,0.516-0.13,0.579-0.551c0.072-0.32,0.016-0.654-0.173-0.9c-0.327-0.463-0.929-0.449-1.422-0.348
	c-0.558,0.152-1.058,0.704-1.218,1.248c-0.078,0.493-0.021,1.001,0.289,1.363c0.153,0.246,0.56,0.007,0.522,0.407
	c-0.246,0.079-0.472,0.226-0.725,0.29c-0.5-0.732-0.826-1.61-0.638-2.553c0.21-0.783,0.993-1.46,1.797-1.538
	C81.103,47.3,81.763,47.598,82.175,48.229z M36.18,48.838c0.326,0.754,0.064,1.618-0.378,2.233c-0.457,0.538-1.059,0.812-1.74,0.726
	c-0.776-0.065-1.603-0.616-1.827-1.392c-0.282-0.916,0.051-1.785,0.725-2.409c0.508-0.355,1.189-0.574,1.829-0.349
	C35.367,47.829,35.918,48.264,36.18,48.838z M35.627,49.213c0.218,0.474,0.161,1.061-0.202,1.454
	c-0.284,0.325-0.66,0.433-1.102,0.376c-0.638-0.058-1.277-0.429-1.567-1.017c-0.108-0.376-0.065-0.841,0.146-1.16
	c0.217-0.32,0.536-0.515,0.898-0.55C34.548,48.279,35.193,48.628,35.627,49.213z M83.567,52.523l-0.174,0.086
	c-0.391-0.405-0.927,0.015-1.362,0.087l0.348,1.598c0.436-0.088,1.139-0.008,1.305-0.523l0.174-0.029l0.261,1.189
	c-0.202,0.131-0.413-0.27-0.694-0.086l-2.814,0.667c-0.218,0.035-0.043,0.42-0.349,0.319l-0.26-1.161
	c0.079-0.071,0.174-0.123,0.26,0.029c0.175,0.131,0.385,0,0.581,0l1.072-0.262l-0.347-1.626c-0.508,0.065-1.06,0.197-1.566,0.35
	c-0.16,0.095-0.029,0.305-0.261,0.291c-0.138-0.363-0.196-0.813-0.291-1.22c0.188-0.115,0.203,0.094,0.349,0.146
	c1.087-0.152,2.096-0.486,3.161-0.696c0.261-0.072,0.021-0.408,0.348-0.319L83.567,52.523z M32.003,52.464
	c0.145,0.485-0.492,0.117-0.465,0.553c-0.035,0.21-0.035,0.441-0.116,0.638l3.133,0.552c0.145-0.045,0.151-0.255,0.347-0.174
	L34.7,55.251c-0.291,0.087-0.138-0.32-0.405-0.32l-2.959-0.521c-0.08,0.29-0.211,0.603-0.117,0.929
	c0.146,0.13,0.312,0.181,0.203,0.406l-0.812-0.146l0.608-3.28L32.003,52.464z M84.206,56.121c0.065,0.393,0.087,0.812,0.116,1.219
	c-0.043,0.037-0.116,0.029-0.174,0.029c0-0.095-0.103-0.166-0.174-0.203l-3.248,0.318c-0.189,0.066-0.095,0.313-0.349,0.261
	l-0.117-1.219c0.044-0.051,0.117-0.021,0.175-0.028c0.036,0.08,0.123,0.167,0.202,0.202l3.22-0.318
	C84.046,56.346,83.952,56.026,84.206,56.121z M30.813,57.166c1.073,0.037,2.219,0.065,3.278-0.028
	c0.138-0.081,0.072-0.284,0.289-0.204c-0.072,1.146,0.421,2.706-0.87,3.279c-0.994,0.515-1.935-0.153-2.783-0.523
	c-0.138,0.08-0.072,0.284-0.291,0.204v-1.19c0.297-0.146,0.246,0.24,0.436,0.291c0.616,0.5,1.414,0.747,2.233,0.58
	c0.324-0.094,0.586-0.392,0.725-0.697c0.107-0.274,0.036-0.616,0.057-0.928c-1.038-0.037-2.146-0.065-3.161,0.028
	c-0.116,0.087-0.087,0.275-0.291,0.204v-1.248C30.698,56.811,30.618,57.138,30.813,57.166z M80.929,58.761l3.189,0.29
	c0.182-0.05,0.153-0.317,0.378-0.174l-0.116,1.22c-0.305,0.102-0.182-0.283-0.435-0.291l-3.017-0.29
	c-0.064,0.508-0.255,1.059-0.058,1.567c0.159,0.102,0.355,0.174,0.231,0.407l-0.869-0.09l0.289-2.93
	C80.806,58.392,80.698,58.711,80.929,58.761z M34.613,62.243c-0.028,0.036-0.108,0.052-0.175,0.058
	c-0.058-0.064-0.07-0.181-0.174-0.201c-0.382,0.106-0.688,0.405-1.044,0.578l0.203,1.335c0.459-0.021,1.118,0.575,1.365-0.057h0.084
	l0.175,1.043c-0.217,0.169-0.217-0.173-0.406-0.173l-3.77-0.813l-0.117-0.782l3.365-1.974c0.136-0.096,0.065-0.296,0.289-0.261
	L34.613,62.243z M80.522,62.04c1.059,0.32,2.19,0.442,3.307,0.608c0.116-0.101,0.182-0.238,0.348-0.144l-0.551,2.988l-0.755-0.115
	c-0.021-0.103,0.06-0.161,0.03-0.261c0.182,0.006,0.384-0.103,0.405-0.291l0.231-1.422c-0.311-0.108-0.658-0.139-0.985-0.204
	c-0.042,0.479-0.435,1.147,0,1.482l-0.059,0.201l-0.985-0.146c-0.168-0.434,0.399-0.181,0.378-0.551l0.174-1.017
	c-0.45-0.151-0.986-0.21-1.48-0.317l-0.289,1.74c0.057,0.247,0.442,0.21,0.231,0.523l-0.782-0.146l0.521-3.162
	C80.451,61.809,80.451,61.895,80.522,62.04z M32.931,63.926l-1.334-0.262l1.16-0.725L32.931,63.926z"/>
<path fill-rule="evenodd" clip-rule="evenodd" fill="#010101" d="M64.427,24.812l0.927,3.83c1.502,0.428,2.989,0.913,4.41,1.538
	l3.074-2.467c1.463,0.564,2.783,1.472,4.117,2.35c-0.159,1.335-0.492,2.597-0.608,3.947c1.211,0.862,2.327,1.944,3.451,3.018
	c1.232-0.458,2.546-0.732,3.8-1.132c1.188,1.167,2.036,2.474,2.899,3.772l-2.088,3.309c0.833,1.487,1.58,3.016,2.232,4.585
	l3.887,0.493c0.559,1.464,0.907,3.024,1.16,4.613c-1.043,0.77-2.132,1.407-3.161,2.205c0.173,1.502,0.261,3.039,0.261,4.614
	l3.365,1.799c0.115,1.66-0.283,3.176-0.523,4.729c-1.246,0.355-2.551,0.571-3.799,0.93c-0.501,1.545-0.95,3.111-1.624,4.583
	l2.436,2.988c-0.586,1.453-1.419,2.803-2.319,4.123c-1.355-0.073-2.56-0.539-3.915-0.611c-0.812,1.031-1.646,2.054-2.61,3.019
	l1.159,3.567c-1.058,1.25-2.378,2.104-3.625,3.02c-1.153-0.536-2.204-1.328-3.334-1.915c-1.153,0.674-2.305,1.342-3.511,1.886
	l-0.26,3.889c-1.421,0.674-2.965,1.066-4.524,1.422c-0.842-0.979-1.508-2.039-2.35-3.019c-1.463,0.262-2.958,0.436-4.495,0.523
	l-1.595,3.366c-1.631,0.123-3.206-0.066-4.728-0.29c-0.406-1.168-0.704-2.381-1.073-3.569c-1.581-0.35-3.133-0.784-4.641-1.306
	l-2.668,2.494c-1.501-0.493-2.893-1.234-4.263-2.031c-0.014-1.262,0.255-2.48,0.318-3.743c-1.377-0.901-2.689-1.958-3.972-3.074
	l-3.423,1.303c-1.212-1.057-2.284-2.276-3.19-3.51c0.544-1.16,1.226-2.263,1.768-3.424c-1.007-1.479-1.864-3.017-2.581-4.613
	l-0.203-0.087l-3.538-0.233c-0.682-1.406-1.023-2.958-1.393-4.497c0.87-0.842,1.942-1.45,2.871-2.263
	c-0.268-1.728-0.543-3.446-0.549-5.28l-3.365-1.655c-0.131-1.683,0.196-3.177,0.377-4.729l3.711-1.045
	c0.422-1.784,0.972-3.518,1.655-5.193l-2.378-2.874c0.549-1.465,1.391-2.814,2.26-4.148c1.255,0.086,2.495,0.391,3.771,0.521
	c0.972-1.32,2.06-2.582,3.277-3.8c-0.319-1.221-0.784-2.366-1.13-3.571c1.051-1.197,2.37-2.183,3.654-3.046l3.393,1.974
	c1.399-0.791,2.813-1.523,4.293-2.119l0.085-0.203l0.377-3.713c1.436-0.589,2.965-0.966,4.524-1.248
	c0.891,0.956,1.48,2.146,2.35,3.162c1.615-0.241,3.27-0.384,5.016-0.318L59.7,24.26C61.366,24.222,62.896,24.507,64.427,24.812z
	 M83.132,46.429c3.525,6.688,3.852,16.474,0.784,23.475c-4.14,10.49-15.06,17.889-26.333,17.788
	c-10.673,0.093-20.489-5.746-25.551-15.321c-3.799-6.782-4.335-16.758-1.219-24.027c3.88-10.164,14.509-17.679,25.32-17.933
	C67.56,29.897,78.064,36.216,83.132,46.429z"/>
<path fill-rule="evenodd" clip-rule="evenodd" fill="#221F1F" d="M48.572,79.837c-0.418,0.217-0.907,0.193-1.39,0.14l-0.153,0.38
	c0.315,0.08,0.64,0.115,0.959,0.089l-1.305,3.232c-0.185,0.453-0.288,0.593-0.911,0.373l-0.101,0.251l2.111,0.853l0.101-0.25
	c-0.417-0.2-0.492-0.325-0.333-0.72l1.653-4.094L48.572,79.837z M53.968,81.893c0.58,0.08,0.863,0.593,0.785,1.151
	c-0.076,0.537-0.539,0.938-1.076,0.862c-0.551-0.078-0.805-0.587-0.729-1.115C53.026,82.231,53.381,81.81,53.968,81.893z
	 M54.606,84.289c-0.149,1.064-0.718,1.806-1.756,1.659c-0.303-0.041-0.71-0.151-0.74-0.518l-0.363-0.052l-0.117,0.835
	c0.371,0.147,0.76,0.276,1.166,0.334c1.646,0.23,2.694-0.975,2.919-2.577c0.188-1.326-0.275-2.553-1.734-2.758
	c-1.015-0.143-1.934,0.401-2.081,1.453c-0.133,0.941,0.465,1.736,1.408,1.869c0.45,0.062,1.045-0.068,1.313-0.444L54.606,84.289z
	 M59.129,85.98c0.077-0.4,0.628-0.719,0.95-0.922c0.814-0.519,1.896-1.251,1.759-2.36c-0.134-1.106-1.243-1.479-2.223-1.357
	c-0.539,0.066-1.205,0.288-1.637,0.613l0.131,1.069l0.422-0.053c0.078-0.614,0.455-0.92,1.05-0.992
	c0.553-0.068,1.143,0.288,1.215,0.869c0.126,1.031-1.44,1.615-2.083,2.564c-0.344,0.507-0.274,0.838-0.214,1.443l3.873-0.477
	l-0.147-1.206l-0.364,0.046c-0.044,0.424-0.267,0.459-0.624,0.503L59.129,85.98z M65.673,83.971
	c-0.193-0.561-0.096-1.091,0.514-1.301c0.56-0.192,1.039,0.139,1.221,0.671c0.187,0.541,0.027,1.114-0.547,1.312
	C66.302,84.847,65.858,84.504,65.673,83.971z M65.227,82.646c-0.549,0.39-0.778,1.003-0.553,1.661c0.377,1.094,1.41,1.28,2.4,0.939
	c0.997-0.344,1.683-1.229,1.316-2.296c-0.215-0.617-0.819-0.981-1.454-0.894c0.433-0.335,0.604-0.805,0.424-1.331
	c-0.305-0.887-1.327-0.884-2.068-0.628c-0.727,0.25-1.518,0.94-1.23,1.778c0.159,0.457,0.668,0.816,1.159,0.757L65.227,82.646z
	 M65.491,80.694c0.451-0.155,0.853-0.044,1.015,0.426c0.152,0.444-0.122,0.816-0.531,0.958c-0.442,0.152-0.852-0.002-1.007-0.452
	C64.813,81.176,65.069,80.84,65.491,80.694z"/>
</svg>
