<?xml version="1.0" encoding="utf-8"?>
<!-- Generator: Adobe Illustrator 16.0.0, SVG Export Plug-In . SVG Version: 6.00 Build 0)  -->
<!DOCTYPE svg PUBLIC "-//W3C//DTD SVG 1.1//EN" "http://www.w3.org/Graphics/SVG/1.1/DTD/svg11.dtd">
<svg version="1.1" id="Layer_1" xmlns="http://www.w3.org/2000/svg" xmlns:xlink="http://www.w3.org/1999/xlink" x="0px" y="0px"
	 width="116.5px" height="115.5px" viewBox="0 0 116.5 115.5" enable-background="new 0 0 116.5 115.5" xml:space="preserve">
<path fill="#0095B3" d="M110.5,88.928c0,11.875-9.627,21.502-21.502,21.502H27.502C15.627,110.43,6,100.803,6,88.928V27.432
	C6,15.557,15.627,5.93,27.502,5.93h61.496c11.875,0,21.502,9.627,21.502,21.502V88.928z"/>
<g>
	<g>
		<path fill="#001825" d="M86.444,28.893c-6.149-1.654-12.301-3.311-18.448-4.969c-0.041-0.01-0.081-0.023-0.123-0.032
			c-0.004,0-0.009-0.001-0.013-0.004c-1.542-0.416-2.768,0.095-3.559,1.009c-0.029,0.025-0.062,0.048-0.093,0.073
			c-3.586,2.974-7.171,5.949-10.757,8.925c-0.252,0.208-0.442,0.46-0.591,0.735c-0.384,0.17-0.745,0.38-1.059,0.639
			c-4.563,3.751-9.125,7.505-13.689,11.258c-0.385,0.233-0.723,0.529-0.987,0.877c-0.052,0.035-0.104,0.065-0.153,0.106
			c-2.764,2.206-5.529,4.409-8.294,6.615c-1.606,1.283-2.392,3.295-1.209,5.196c2.986,5.054,5.972,10.107,8.958,15.161
			c1.24,2.101,2.219,4.696,4.689,5.527c2.662,0.894,5.322,1.789,7.984,2.684c0.305,0.103,0.614,0.146,0.919,0.149
			c0.387,0.287,0.816,0.524,1.304,0.688c3.937,1.315,7.869,2.63,11.807,3.944c0.277,0.094,0.546,0.139,0.807,0.162
			c0.294,0.182,0.627,0.348,1.021,0.484c2.841,0.977,5.712,1.867,8.569,2.798c1.371,0.446,2.79,1.135,4.264,0.699
			c1.316-0.389,2.592-1.827,3.617-2.722c2.239-1.948,4.479-3.897,6.719-5.849c1.303-1.136,1.481-2.577,1.472-4.171
			c-0.032-5.073-0.062-10.146-0.094-15.22c-0.064-10.388-0.128-20.781-0.192-31.171C89.304,30.771,88.064,29.331,86.444,28.893z"/>
		<g>
			<g>
				<g>
					<g>
						<polygon fill="#012D3F" points="64.031,83.814 51.868,79.749 40.399,49.493 54.553,37.851 						"/>
						<polygon fill="#5F808D" points="50.004,79.029 41.883,76.301 30.671,57.329 38.966,50.712 						"/>
						<polygon fill="#BD3B00" points="66.959,27.551 85.543,32.556 85.832,79.995 85.591,80.023 76.722,88.001 66.292,84.605 
							65.862,84.458 56.202,36.478 						"/>
					</g>
					<polygon fill="#F29121" points="76.722,88.001 85.835,80.07 85.543,32.556 66.959,27.551 					"/>
				</g>
				<g opacity="0.5">
					<g>
						<polygon fill="#F3F3F3" points="66.708,41.183 67.737,47.226 65.032,47.94 63.707,42.625 						"/>
						<polygon fill="#F3F3F3" points="63.394,53.669 64.133,57.687 61.797,57.887 61.101,54.094 						"/>
						<polygon fill="#F3F3F3" points="68.689,56.776 69.218,60.879 66.781,61.192 66.293,57.216 						"/>
						<polygon fill="#F3F3F3" points="64.954,64.757 65.419,67.999 63.646,67.932 63.089,64.897 						"/>
						<polygon fill="#F3F3F3" points="69.969,71.147 70.314,73.914 68.203,73.692 67.862,71.02 						"/>
					</g>
					<g>
						<polygon fill="#F3F3F3" points="51.158,47.902 52.049,52.039 49.976,52.829 49.112,48.968 						"/>
						<polygon fill="#F3F3F3" points="49.262,56.949 50.075,59.693 48.455,60.003 47.692,57.411 						"/>
						<polygon fill="#F3F3F3" points="53.18,58.719 53.855,61.541 52.176,61.943 51.544,59.203 						"/>
						<polygon fill="#F3F3F3" points="51.171,64.562 51.74,66.789 50.489,66.874 49.879,64.804 						"/>
						<polygon fill="#F3F3F3" points="55.141,68.642 55.586,70.55 54.102,70.553 53.665,68.711 						"/>
					</g>
					<g>
						<polygon fill="#F3F3F3" points="38.208,57.406 39.396,60.248 38.019,61.089 36.883,58.438 						"/>
						<polygon fill="#F3F3F3" points="38.038,64.133 38.992,65.992 37.872,66.433 36.98,64.671 						"/>
						<polygon fill="#F3F3F3" points="41.084,64.886 41.942,66.816 40.786,67.329 39.977,65.449 						"/>
						<polygon fill="#F3F3F3" points="40.413,69.334 41.11,70.857 40.235,71.086 39.521,69.678 						"/>
						<polygon fill="#F3F3F3" points="43.799,71.737 44.363,73.045 43.306,73.245 42.744,71.981 						"/>
					</g>
				</g>
			</g>
			<polygon fill="#F3F3F3" points="71.418,31.962 72.491,40.128 76.072,40.419 75.317,32.782 			"/>
			<polygon fill="#F3F3F3" points="80.593,42.438 80.812,46.957 83.377,46.795 83.323,42.548 			"/>
			<polygon fill="#F3F3F3" points="73.317,47.462 73.974,52.669 77.21,51.899 76.863,47.24 			"/>
			<polygon fill="#F3F3F3" points="81.131,53.362 81.39,57.365 83.728,56.861 83.618,53.162 			"/>
			<polygon fill="#F3F3F3" points="74.688,58.674 77.749,57.739 78.287,62.706 75.376,63.712 			"/>
			<polygon fill="#F3F3F3" points="83.894,63.25 81.66,64.169 81.985,69.183 84.092,68.024 			"/>
			<polygon fill="#F3F3F3" points="76.513,72.402 77.274,78.018 79.52,76.394 79.04,70.944 			"/>
		</g>
	</g>
	<g>
		<g>
			<g>
				<g>
					<polygon fill="#012D3F" points="64.01,83.726 52.142,79.759 40.952,50.24 54.762,38.883 					"/>
					<polygon fill="#5F808D" points="50.323,79.06 42.399,76.397 31.463,57.886 39.555,51.431 					"/>
					<polygon fill="#BD3B00" points="66.866,28.835 84.997,33.719 85.28,80.001 85.043,80.027 76.392,87.813 66.216,84.499 
						65.795,84.354 56.37,37.543 					"/>
				</g>
				<polygon fill="#F29121" points="76.392,87.813 85.28,80.073 84.997,33.719 66.866,28.835 				"/>
			</g>
			<g opacity="0.5">
				<g>
					<polygon fill="#F3F3F3" points="66.621,42.134 67.626,48.031 64.987,48.727 63.692,43.542 					"/>
					<polygon fill="#F3F3F3" points="63.386,54.318 64.109,58.236 61.831,58.431 61.149,54.73 					"/>
					<polygon fill="#F3F3F3" points="68.554,57.347 69.068,61.351 66.692,61.656 66.217,57.777 					"/>
					<polygon fill="#F3F3F3" points="64.91,65.133 65.362,68.298 63.634,68.231 63.092,65.272 					"/>
					<polygon fill="#F3F3F3" points="69.803,71.369 70.138,74.067 68.079,73.852 67.747,71.245 					"/>
				</g>
				<g>
					<polygon fill="#F3F3F3" points="51.45,48.691 52.319,52.727 50.297,53.497 49.455,49.729 					"/>
					<polygon fill="#F3F3F3" points="49.6,57.516 50.394,60.195 48.812,60.498 48.067,57.967 					"/>
					<polygon fill="#F3F3F3" points="53.423,59.244 54.083,61.997 52.442,62.389 51.825,59.716 					"/>
					<polygon fill="#F3F3F3" points="51.463,64.944 52.019,67.116 50.799,67.199 50.201,65.179 					"/>
					<polygon fill="#F3F3F3" points="55.333,68.923 55.77,70.786 54.322,70.788 53.896,68.991 					"/>
				</g>
				<g>
					<polygon fill="#F3F3F3" points="38.815,57.961 39.974,60.734 38.63,61.556 37.522,58.968 					"/>
					<polygon fill="#F3F3F3" points="38.65,64.526 39.58,66.341 38.487,66.769 37.618,65.05 					"/>
					<polygon fill="#F3F3F3" points="41.621,65.259 42.459,67.144 41.331,67.644 40.542,65.812 					"/>
					<polygon fill="#F3F3F3" points="40.968,69.602 41.648,71.087 40.794,71.309 40.098,69.934 					"/>
					<polygon fill="#F3F3F3" points="44.271,71.944 44.821,73.219 43.788,73.416 43.241,72.184 					"/>
				</g>
			</g>
		</g>
		<polygon fill="#F3F3F3" points="71.216,33.139 72.262,41.106 75.757,41.39 75.02,33.94 		"/>
		<polygon fill="#F3F3F3" points="80.166,43.359 80.38,47.769 82.883,47.61 82.833,43.466 		"/>
		<polygon fill="#F3F3F3" points="73.068,48.262 73.709,53.341 76.868,52.59 76.528,48.045 		"/>
		<polygon fill="#F3F3F3" points="80.693,54.016 80.945,57.922 83.227,57.429 83.119,53.821 		"/>
		<polygon fill="#F3F3F3" points="74.406,59.2 77.394,58.287 77.919,63.134 75.077,64.114 		"/>
		<polygon fill="#F3F3F3" points="83.388,63.664 81.209,64.561 81.527,69.452 83.581,68.32 		"/>
		<polygon fill="#F3F3F3" points="76.186,72.593 76.929,78.071 79.12,76.488 78.652,71.171 		"/>
	</g>
</g>
</svg>
