<?xml version="1.0" encoding="utf-8"?>
<!-- Generator: Adobe Illustrator 16.0.0, SVG Export Plug-In . SVG Version: 6.00 Build 0)  -->
<!DOCTYPE svg PUBLIC "-//W3C//DTD SVG 1.1//EN" "http://www.w3.org/Graphics/SVG/1.1/DTD/svg11.dtd">
<svg version="1.1" id="Layer_1" xmlns="http://www.w3.org/2000/svg" xmlns:xlink="http://www.w3.org/1999/xlink" x="0px" y="0px"
	 width="116.5px" height="115.5px" viewBox="0 0 116.5 115.5" enable-background="new 0 0 116.5 115.5" xml:space="preserve">
<path fill="#131920" d="M110.5,88.928c0,11.875-9.627,21.502-21.502,21.502H27.502C15.627,110.43,6,100.803,6,88.928V27.432
	C6,15.557,15.627,5.93,27.502,5.93h61.496c11.875,0,21.502,9.627,21.502,21.502V88.928z"/>
<g>
	<path fill-rule="evenodd" clip-rule="evenodd" fill="#FFFFFF" d="M53.638,68.032c-1.902,1.169-3.458,0.119-3.458-2.331v-13.43
		c0-2.449,1.556-3.499,3.458-2.331l11.273,6.923c1.9,1.168,1.9,3.081,0,4.247L53.638,68.032z"/>
	<linearGradient id="SVGID_1_" gradientUnits="userSpaceOnUse" x1="30.8364" y1="57.75" x2="85.6641" y2="57.75">
		<stop  offset="0" style="stop-color:#1F8A44"/>
		<stop  offset="0.9905" style="stop-color:#239F49"/>
		<stop  offset="1" style="stop-color:#239F49"/>
	</linearGradient>
	<path fill="url(#SVGID_1_)" d="M66.833,39.053c0.139-8.932-7.873-12.436-16.548-12.436c-2.31,0-3.47,0.324-4.913,0.902
		c-5.539,2.221-4.972,5.803-6.719,11.633c7.053,1.47,14.108,2.942,21.162,4.415c3.631,0.896,7.515,1.138,10.629,2.507
		c2.763,1.211,4.91,3.316,6.519,5.714c2.131,3.173,3.774,8.618,2.206,13.738c-0.33,1.078-0.773,2.111-1.307,3.077
		c-0.928,1.678-2.131,3.144-3.507,4.243c-2.282,1.822-4.562,3.29-8.022,4.013c-4.017,0.839-8.054-0.544-11.333-1.305
		c-7.588-1.537-15.177-3.075-22.763-4.613h-0.103c-0.745,2.296-1.826,6.119-1.002,8.927c1.905,6.487,13.367,11.369,21.66,7.821
		c2.669-1.141,3.502-2.993,4.913-5.416c0,0,6.57,0.834,8.225,0.504c4.699-0.95,8.19-2.215,11.331-4.614
		c2.968-2.268,5.519-5.681,6.983-9.56c0.157-0.421,0.306-0.844,0.438-1.271C88.973,53.363,78.491,39.98,66.833,39.053"/>
</g>
</svg>
