<?xml version="1.0" encoding="utf-8"?>
<!-- Generator: Adobe Illustrator 16.0.0, SVG Export Plug-In . SVG Version: 6.00 Build 0)  -->
<!DOCTYPE svg PUBLIC "-//W3C//DTD SVG 1.1//EN" "http://www.w3.org/Graphics/SVG/1.1/DTD/svg11.dtd">
<svg version="1.1" id="Layer_1" xmlns="http://www.w3.org/2000/svg" xmlns:xlink="http://www.w3.org/1999/xlink" x="0px" y="0px"
	 width="203px" height="88px" viewBox="0 0 203 88" enable-background="new 0 0 203 88" xml:space="preserve">
<g>
	<path fill="#BAB9BA" d="M307.265,83.162c0.968,1.939,1.391,4.312,0.942,6.629c0.277-2.229-0.645-4.023-1.379-5.868
		c-0.731-1.284-1.478-2.702-2.841-3.588c-0.746-0.501-1.532-0.908-2.419-1.069c-0.465,0-0.861,0.213-1.14,0.604l-1.813,3.21
		c-0.288,0.703-0.873,1.396-1.547,1.83c-0.146,0.202-0.02,0.503-0.059,0.717c-0.053,0.035-0.111,0.05-0.182,0.043
		c-0.188-0.17,0.038-0.442-0.281-0.522c-0.12-0.055-0.189,0.09-0.281,0.144c0.026,0.084,0.146,0.062,0.211,0.126
		c0.153,0.207,0.287,0.443,0.211,0.73c0.01,0.051,0.027,0.109,0.086,0.127c0.071,0.021,0.125-0.029,0.152-0.084
		c0.012-0.142-0.037-0.32,0.1-0.395c0.158,0.073,0.326,0.046,0.479-0.027c0.277-0.104,0.024-0.535,0.323-0.549
		c0.053,0.116,0.049,0.291,0.212,0.323c0.168-0.056,0.229,0.116,0.266,0.226c0.061,0.2-0.053,0.383-0.015,0.576
		c0.074,0.1,0.228,0.051,0.325,0.042c0.102-0.21-0.066-0.415-0.071-0.634c0.098-0.014,0.205-0.068,0.239-0.168
		c0.043-0.271-0.274-0.334-0.422-0.479c-0.103-0.057-0.229-0.133-0.268-0.252c1.487-1.113,1.958-2.719,2.688-4.182
		c0.188-0.331,0.428-0.768,0.828-0.887c1.091-0.088,1.848,0.718,2.674,1.311c1.816,1.827,2.815,3.995,3.305,6.373
		c0.062,0.381,0.123,0.799,0.057,1.196c-0.154-0.058-0.115,0.19-0.141,0.296c-0.061,0.458-0.073,1.002,0.014,1.448
		c0.02,0.015,0.032,0.04,0.057,0.028c0.189-0.437,0.105-0.984,0.128-1.492c0.256,0.713,0.03,1.504-0.226,2.141
		c-0.231,0.953-0.45,1.91-0.592,2.898c0.074,0.041,0.151-0.084,0.227,0c-0.058,0.615-0.641,1.084-0.424,1.746
		c0.116,0.174,0.366,0.084,0.521,0.056c-0.077,0.13-0.216,0.21-0.366,0.153c-0.15-0.053-0.326-0.157-0.379-0.322
		c-0.146-0.573,0.488-0.928,0.322-1.506l-0.056-0.057c0.192-0.398,0.13-0.965,0.183-1.449c-0.112-0.123-0.242-0.307-0.421-0.254
		l-0.1,0.182c-0.15,0.664-0.326,1.316-0.396,2.014c-1.085,1.327-2.438,2.307-3.867,2.944l-0.154,0.079
		c-0.346,0.095-0.695,0.259-1.056,0.354c0.107-0.236,0.426-0.41,0.732-0.395c0.133,0.031,0.333,0.066,0.449-0.027
		c0.081-0.1,0.089-0.257,0.027-0.365c-0.277-0.311-0.57,0.088-0.844,0.153c-0.155,0.039-0.337,0.103-0.491,0.056
		c-0.153-0.154-0.117-0.386-0.142-0.59c0.069-0.354-0.093-0.746,0.085-1.056c0.034-0.119-0.05-0.211-0.143-0.253
		c-0.127-0.047-0.31-0.096-0.437-0.014c-0.271,0.207,0.024,0.457,0.071,0.674c0.088,0.442,0.047,0.942-0.184,1.31
		c-0.296,0.269-0.764,0.28-1.141,0.183c-0.116,0.104-0.129,0.265-0.1,0.41c0.217,0.225,0.489-0.058,0.732-0.086
		c0.264-0.088,0.521,0.02,0.718,0.184c-0.293,0.08-0.687,0.123-1.027,0.183l-0.268,0.043l-0.662,0.026l-0.351,0.016
		c-0.478-0.006-0.946-0.035-1.406-0.085l-0.323-0.044c-0.393-0.088-0.796-0.16-1.181-0.27l-0.339-0.096
		c-0.766-0.264-1.514-0.57-2.208-1.013c-0.177,0.123-0.345,0.307-0.562,0.28c-0.082-0.111-0.115-0.28-0.27-0.322
		c-0.213,0.046-0.422-0.012-0.604-0.085c0.127,0.03,0.354,0.019,0.478-0.099c0.64-0.653,0.76-1.525,1.026-2.336
		c0.057-0.358,0.187-0.689,0.154-1.084c0.051-0.021,0.122,0.014,0.112,0.084c0.034,1.154-0.441,2.094-0.829,3.069
		c-0.055,0.188-0.13,0.386-0.1,0.59c0.239,0.119,0.445-0.079,0.646-0.184c0.48-1.002,0.971-2.054,0.816-3.265
		c0.064-0.062,0.15,0,0.225,0c0.007,1.164-0.232,2.228-0.605,3.236c0.033,0.107,0.158,0.09,0.239,0.07
		c0.939-0.658,0.638-1.879,0.858-2.857c0.053-0.146,0.107-0.299,0.225-0.423c0.071,0.224-0.006,0.486-0.042,0.72
		c-0.204,0.656-0.215,1.396-0.45,2.039c-0.021,0.227-0.041,0.485,0.127,0.647c0.135-0.015,0.207-0.138,0.281-0.239
		c0.449-0.76,0.857-1.539,0.816-2.504l0.041-0.562c0.027-0.045,0.102-0.033,0.141-0.015c0.117,0.188,0.02,0.433,0.028,0.646
		l-0.197,0.83c0.032,0.178-0.022,0.43,0.155,0.551c0.242-0.021,0.261-0.307,0.38-0.465c0.354-0.865,0.665-1.816,0.493-2.83
		c-0.148,0.269-0.047,0.779-0.493,0.832c-0.183,0.035-0.291-0.105-0.437-0.17c-0.43,0.17-0.676-0.188-1.098-0.127
		c-0.229-0.055-0.335-0.399-0.604-0.352c-0.151,0.057-0.291-0.021-0.323-0.169c-0.187-0.137-0.349,0.081-0.536,0.028
		c-0.544-0.6-0.038-1.391-0.057-2.082c0.053-0.489-0.002-0.973-0.223-1.365c-0.059-0.057-0.154-0.07-0.228-0.043l-0.058,0.07
		c-0.117,1.568-0.314,3.105-0.842,4.504c-0.216,0.63-0.457,1.244-0.578,1.912c-3-2.823-4.033-7.465-2.476-11.34
		c1.411-3.766,5.328-6.58,9.34-6.658C301.597,77.256,305.377,79.473,307.265,83.162z M303.298,80.688
		c0.08,0.082,0.123,0.203,0.085,0.321c-0.365,0.347-0.591-0.245-0.887-0.364c-0.15-0.084-0.3-0.22-0.464-0.226
		c0.377,0.39,0.771,0.772,0.999,1.226v0.082c0.216-0.226,0.468-0.597,0.814-0.66c0.65,0.377,1.297,1.045,1.209,1.844
		c-0.006,0.07-0.094,0.109-0.152,0.07c-0.405-0.412-0.71-0.938-1.211-1.239c-0.061,0.071-0.011,0.171,0.015,0.239
		c0.222,0.388,0.669,0.68,0.844,1.084c0.035,0.129-0.087,0.141-0.168,0.168c-0.504,0.035-0.746-0.517-0.999-0.842
		c-0.06-0.02-0.027,0.047-0.056,0.069c0.188,0.474,0.675,0.826,0.886,1.294c0.003,0.064-0.042,0.092-0.099,0.1
		c-0.504-0.039-0.853-0.511-1.195-0.873c0.069,0.408,0.459,0.718,0.646,1.098c0.023,0.07,0.072,0.148,0.042,0.227
		c-0.229,0.107-0.446-0.062-0.634-0.186c-0.196-0.169-0.341-0.391-0.505-0.549c0.061,0.434,0.457,0.766,0.659,1.154
		c0.04,0.088,0.004,0.205-0.111,0.185c-0.426-0.056-0.702-0.462-1.041-0.732c-0.073,0.066,0.019,0.132,0.028,0.197
		c0.184,0.31,0.527,0.549,0.633,0.887c0.024,0.104-0.089,0.112-0.154,0.084c-0.33-0.147-0.598-0.442-0.914-0.618
		c0.073,0.36,0.46,0.637,0.576,1c-0.394,0.068-0.646-0.35-0.857-0.605c-0.096,0.025-0.061,0.169-0.028,0.225
		c0.111,0.225,0.358,0.397,0.379,0.662c-0.077,0.069-0.185,0.061-0.268,0c-0.233-0.148-0.417-0.416-0.646-0.576
		c0.087,0.309,0.352,0.582,0.438,0.913c-0.317,0.015-0.521-0.346-0.789-0.491c-0.072,0.068,0.018,0.14,0.028,0.211
		c0.111,0.222,0.342,0.394,0.381,0.646c-0.455-0.041-0.859-0.453-1.069-0.844c0.011-0.13,0.13-0.265,0.253-0.296
		c0.196-0.061,0.43-0.031,0.563-0.238c1.067-1.088,1.708-2.379,2.518-3.59c-0.472-0.107-0.857-0.514-1.268-0.814
		c-0.014-0.012-0.021-0.035-0.041-0.027c0.26,0.387,0.703,0.688,0.857,1.109c0.004,0.083-0.047,0.146-0.126,0.156
		c-0.454,0.003-0.773-0.325-1.126-0.564c0.253,0.336,0.68,0.631,0.884,1.002c0.02,0.064-0.016,0.114-0.082,0.11
		c-0.471-0.014-0.817-0.325-1.21-0.534c0.3,0.346,0.746,0.687,0.914,1.111c-0.271,0.039-0.474-0.161-0.702-0.268
		c-0.174-0.109-0.349-0.258-0.521-0.323c0.326,0.331,0.7,0.665,0.912,1.056c0.021,0.064-0.026,0.102-0.082,0.1
		c-0.419-0.071-0.735-0.389-1.085-0.635c0.234,0.323,0.562,0.641,0.688,1.027c0.021,0.111-0.119,0.064-0.169,0.057
		c-0.344-0.07-0.544-0.523-0.898-0.521c0.074,0.168,0.323,0.286,0.268,0.493c-0.192,0.158-0.357-0.123-0.577-0.028
		c0.258,0.265,0.885,0.397,0.718,0.915c-0.028,0.078-0.084,0.169-0.168,0.197c-0.504,0.08-0.65-0.643-1.142-0.549
		c-0.073,0.053-0.118,0.144-0.153,0.224c0.173,0.128,0.458-0.021,0.619,0.128c0.092,0.12,0.119,0.279,0.084,0.438
		c-0.092,0.099-0.161,0.002-0.254-0.029c-0.283-0.28-0.668-0.395-0.914-0.717V84.77c1.26-1.188,1.936-2.617,2.435-4.123
		c0.138-0.338,0.463-0.666,0.857-0.646C302.391,79.951,302.831,80.354,303.298,80.688z M295.872,81.783
		c0.665,0.443,1.34,0.857,1.955,1.421c0.222,0.139,0.151,0.432,0.126,0.635c-0.092,0.312-0.358,0.587-0.635,0.787
		c-0.094-0.024-0.279,0.06-0.336-0.071l0.015-0.098c0.075-0.042,0.162,0.057,0.226,0c-0.029-0.219-0.271-0.396-0.465-0.465
		c-0.127-0.02-0.253,0.018-0.296,0.141c-0.636-0.175-0.956-0.879-1.391-1.337c-0.603-0.702-1.278-1.44-2.099-1.772
		c-0.056-0.002-0.11-0.053-0.168-0.015c-0.084,0.087,0.063,0.261-0.127,0.253c-0.188,0.036-0.39-0.074-0.548,0.043l-0.1,0.155
		c0.25,0.229,0.81-0.142,0.872,0.365c0.142,0.073,0.25-0.07,0.311-0.169c0.025-0.086,0.01-0.133,0.014-0.225
		c0.108,0.049,0.18,0.145,0.127,0.268c-0.011,0.041-0.039,0.076-0.027,0.126c0.043,0.067,0.119,0.089,0.184,0.058
		c0.081-0.035,0.07-0.174,0.195-0.128c0.113,0.167-0.157,0.296-0.083,0.479c0.071,0.103,0.198,0.173,0.321,0.141
		c0.143-0.034,0.047-0.257,0.228-0.227c0.056,0.026,0.052,0.101,0.056,0.156c-0.099,0.043-0.226,0.09-0.254,0.209
		c-0.039,0.094-0.052,0.245,0.016,0.325c0.072,0.109,0.203,0.112,0.295,0.042c0.096-0.085,0.134-0.193,0.154-0.309
		c0.088,0.059,0.114,0.168,0.142,0.267c-0.17,0.011-0.331,0.123-0.407,0.267c-0.188,0.093-0.232-0.272-0.422-0.084
		c-0.096,0.082-0.061,0.197-0.027,0.297c0.121,0.172,0.381,0.088,0.547,0.07c0.155,0,0.35-0.19,0.465,0
		c0.021,0.114-0.109,0.225,0.026,0.31c0.104,0.046,0.269-0.099,0.283,0.069c0.01,0.127-0.215,0.336,0.028,0.381l0.182-0.016
		l0.029,0.184c-0.106-0.242-0.416,0.02-0.508-0.225c-0.012-0.134,0.029-0.281-0.016-0.395c-0.094,0.039-0.08-0.1-0.14-0.141
		c-0.081-0.058-0.162,0.031-0.183,0.098l-0.043,0.381c-0.069,0-0.186-0.057-0.211,0.057v0.253c-0.062-0.003-0.123-0.053-0.184-0.014
		c-0.102,0.053-0.038,0.18-0.057,0.267c-0.08-0.115-0.189-0.219-0.195-0.365c0.074-0.053,0.203-0.018,0.279-0.027
		c-0.01-0.212-0.273-0.379-0.448-0.479c-0.04-0.025-0.095-0.011-0.142-0.016c-0.151,0.165-0.011,0.385-0.016,0.577
		c0.081,0.519,0.266,1.062,0.112,1.604c-0.037,0.058-0.107,0.151-0.183,0.113c-0.123-0.291-0.053-0.665-0.111-0.984
		c-0.039-0.685-0.012-1.412-0.592-1.858c-0.08-0.028-0.133,0.046-0.168,0.099c0.062,0.227,0.306,0.375,0.279,0.633
		c-0.123,0.782,0.237,1.504,0.071,2.267c-0.029,0.05-0.05,0.134-0.127,0.127c-0.211-0.416-0.169-0.938-0.253-1.407
		c-0.104-0.617-0.018-1.263-0.184-1.857c-0.062-0.104-0.123-0.226-0.24-0.293c-0.113,0.177-0.016,0.41-0.025,0.619
		c0.068,0.892,0.245,1.743,0.338,2.631c-0.01,0.393,0.087,0.812-0.027,1.182c-0.043,0.05-0.09,0.087-0.156,0.07l-0.07-0.184
		l-0.195-1.589l-0.269-3.633c-0.007-0.433,0.293-0.788,0.633-1.026C293.619,79.904,294.764,81.217,295.872,81.783z M294.62,81.501
		c0.598-0.069,0.496,0.735,1.041,0.774c0.211,0.102,0.47,0.177,0.591,0.408c0.03,0.146-0.023,0.353,0.155,0.407
		c0.321,0.382,1.009-0.021,1.235,0.507c0.039,0.092,0.078,0.184,0.071,0.295c-0.105-0.104-0.172-0.318-0.338-0.309
		c-0.078,0.172-0.146,0.361-0.295,0.492c-0.147,0.008-0.269-0.104-0.338-0.225c-0.084-0.113,0.069-0.246-0.043-0.354
		c-0.083-0.127-0.224-0.223-0.365-0.197c-0.046,0.063-0.088,0.143-0.069,0.213c0.069,0.073,0.189,0.115,0.211,0.225
		c-0.07,0.027-0.197,0.015-0.269-0.043c-0.081-0.098-0.074-0.279-0.237-0.295c-0.078-0.004-0.167-0.015-0.199-0.1
		c0.004-0.134,0.022-0.326-0.151-0.338c-0.097-0.021-0.302,0-0.255-0.14c0.115-0.089,0.293-0.149,0.324-0.324
		c-0.02-0.049-0.008-0.124-0.069-0.142c-0.124,0-0.255,0.174-0.354,0.029c0.088-0.162-0.078-0.293-0.195-0.353
		c-0.205-0.151-0.521-0.032-0.688-0.269c-0.235-0.187-0.09-0.582-0.438-0.675c-0.055-0.015-0.144-0.058-0.153-0.086
		C294.258,80.882,294.205,81.529,294.62,81.501z M302.735,81.334c-0.015,0.021-0.024,0.053-0.058,0.057
		c-0.144-0.054-0.282-0.162-0.379-0.295l0.016-0.072C302.48,81.07,302.634,81.191,302.735,81.334z M302.188,81.77
		c-0.187-0.099-0.408-0.166-0.521-0.379c0.061-0.1,0.205-0.012,0.282,0.041C302.049,81.523,302.196,81.618,302.188,81.77z
		 M301.484,82.064c-0.163-0.01-0.286-0.112-0.409-0.211c0.051-0.097,0.148-0.002,0.212,0.028
		C301.354,81.941,301.477,81.955,301.484,82.064z M292.918,82.148c-0.123,0.057-0.225-0.031-0.324-0.084
		c-0.064-0.049-0.101-0.112-0.083-0.197c0.074-0.102,0.169,0.008,0.238,0.044C292.805,81.991,292.936,82.041,292.918,82.148z
		 M292.65,82.416c0.012,0.036-0.031,0.062-0.058,0.07c-0.153-0.008-0.276-0.08-0.394-0.184c-0.062-0.076-0.109-0.179-0.069-0.281
		c0.05-0.084,0.142-0.021,0.196,0C292.447,82.135,292.623,82.251,292.65,82.416z M293.439,82.135
		c0.014,0.131,0.049,0.307-0.086,0.396c-0.088,0.094-0.261,0.06-0.365,0.025c-0.115-0.062-0.018-0.205-0.027-0.309
		c0.077-0.012,0.133,0.027,0.211,0.014c0.078-0.098,0.003-0.298,0.211-0.238L293.439,82.135z M301.906,82.486
		c-0.117,0-0.231-0.105-0.311-0.211l0.014-0.057C301.713,82.302,301.913,82.333,301.906,82.486z M293.832,82.543
		c-0.083,0.145,0.137,0.489-0.197,0.396c-0.195-0.059-0.033-0.282-0.084-0.438C293.629,82.432,293.801,82.443,293.832,82.543z
		 M292.637,82.938c0.012,0.08-0.102,0.08-0.154,0.056c-0.062-0.028-0.118-0.07-0.168-0.125
		C292.379,82.631,292.609,82.782,292.637,82.938z M293.256,82.812l-0.126,0.11c0.084,0.113,0.063,0.271,0.126,0.396
		c-0.017,0.076-0.078,0.037-0.126,0.029c-0.082-0.205-0.353-0.347-0.325-0.578C292.945,82.721,293.133,82.732,293.256,82.812z
		 M301.568,83.051c-0.151-0.035-0.281-0.15-0.382-0.281C301.339,82.837,301.47,82.932,301.568,83.051z M305.396,82.854
		c0.674,0.767,1.077,1.644,1.349,2.576c0.039,0.223,0.073,0.545-0.142,0.676c-0.118,0.055-0.215-0.086-0.267-0.17
		c-0.328-0.588-0.577-1.207-0.789-1.844c-0.034-0.049-0.084-0.131-0.151-0.127c0.181,0.707,0.688,1.28,0.59,2.068
		c-0.031,0.078-0.117,0.046-0.169,0.014c-0.391-0.404-0.535-0.906-0.762-1.378c-0.045-0.039-0.081-0.104-0.14-0.114v0.114
		c0.228,0.456,0.615,0.886,0.507,1.449c-0.027,0.08-0.103,0.165-0.184,0.196h-0.07c-0.21-0.563-0.45-1.129-0.844-1.604
		c0.031,0.608,0.522,1.06,0.646,1.646c-0.077,0.096-0.183,0.006-0.267-0.015c-0.416-0.306-0.591-0.756-0.845-1.153
		c0.043,0.56,0.439,0.949,0.55,1.465c-0.104,0.055-0.212-0.039-0.312-0.071c-0.343-0.204-0.46-0.586-0.702-0.856
		c-0.021,0-0.042,0.021-0.042,0.041c0.054,0.408,0.388,0.696,0.423,1.11c-0.073,0.069-0.154-0.011-0.226-0.026
		c-0.229-0.184-0.376-0.431-0.45-0.69c-0.05-0.072-0.134-0.162-0.225-0.126l-0.028,0.042c0.141,0.353,0.404,0.721,0.239,1.126
		l-0.085-0.028c-0.196-0.292-0.353-0.626-0.632-0.858c-0.058,0.127,0.034,0.262,0.084,0.381c0.098,0.197,0.256,0.385,0.253,0.604
		c-0.358,0.054-0.581-0.364-0.815-0.592c0.035,0.255,0.271,0.479,0.238,0.761c-0.049,0.081-0.179,0.081-0.267,0.057
		c-0.229-0.103-0.239-0.344-0.38-0.506c-0.1,0.061-0.05,0.225-0.043,0.322c0.046,0.127,0.268,0.2,0.184,0.366
		c-0.031,0.078-0.148,0.092-0.211,0.042c-0.087-0.052-0.011-0.141-0.017-0.211c-0.04-0.102-0.021-0.232-0.125-0.311
		c-0.056,0.039-0.146,0.09-0.212,0.028c-0.163-0.071-0.157-0.271-0.11-0.407c0.128-0.289,0.478-0.238,0.688-0.423
		c1.352-0.884,2.37-2.302,3.531-3.463C305.239,82.912,305.299,82.846,305.396,82.854z M301.23,83.585
		c-0.142-0.046-0.265-0.158-0.364-0.269l0.013-0.041L301.23,83.585z M293.65,83.443c-0.02,0.066,0.043,0.179-0.058,0.197
		c-0.099,0-0.243,0.018-0.253-0.1c0.014-0.087,0.01-0.234,0.143-0.225C293.555,83.316,293.65,83.359,293.65,83.443z M294.282,83.585
		c-0.019,0.112,0.049,0.31-0.111,0.31c-0.092,0.012-0.202-0.004-0.228-0.099c0.024-0.099-0.06-0.254,0.072-0.296
		C294.113,83.503,294.236,83.484,294.282,83.585z M303.031,83.739l0.296,0.338c-0.155-0.06-0.339-0.278-0.45-0.423
		C302.906,83.427,302.954,83.716,303.031,83.739z M296.532,84.839c0.008,0.076-0.076,0.097-0.125,0.126
		c-0.339,0.034-0.585-0.351-0.732-0.607c-0.108-0.168-0.104-0.393-0.28-0.519c-0.008,0.017-0.028,0.015-0.043,0.015v-0.155
		C295.805,83.969,296.206,84.418,296.532,84.839z M300.851,84.077c-0.104-0.011-0.229-0.119-0.321-0.224l0.013-0.045
		C300.658,83.869,300.778,83.977,300.851,84.077z M306.209,84.611c0.143,0.316,0.275,0.638,0.339,0.986
		c-0.154-0.562-0.397-1.07-0.718-1.55C306.02,84.173,306.097,84.418,306.209,84.611z M302.75,84.514
		c-0.134-0.039-0.246-0.183-0.324-0.296l0.016-0.085C302.514,84.261,302.686,84.368,302.75,84.514z M295.014,84.457l0.27-0.014
		c-0.081,0.107-0.25,0.107-0.381,0.084c-0.092-0.006-0.127-0.105-0.168-0.17v-0.183C294.76,84.311,294.898,84.384,295.014,84.457z
		 M305.562,85.021c0.063,0.233,0.218,0.438,0.238,0.688l-0.069-0.069c-0.112-0.504-0.387-0.938-0.647-1.379
		C305.331,84.454,305.404,84.766,305.562,85.021z M300.851,84.654c-0.06,0.049-0.16,0.15-0.253,0.07
		c-0.023-0.039-0.065-0.035-0.068-0.086c0.126,0.047,0.146-0.152,0.268-0.041L300.851,84.654z M302.327,85.049
		c-0.146-0.057-0.286-0.216-0.365-0.354l0.015-0.069C302.064,84.781,302.254,84.891,302.327,85.049z M304.676,84.711
		c0.185,0.334,0.377,0.658,0.508,1.014c-0.222-0.343-0.359-0.742-0.605-1.084L304.676,84.711z M304.733,86.062
		c-0.156-0.035-0.212-0.246-0.296-0.381l-0.239-0.535C304.4,85.441,304.596,85.736,304.733,86.062z M296.363,85.414
		c0.029,0.095,0.015,0.204-0.043,0.281c-0.072,0.104-0.398,0.061-0.266,0.283c0.037,0.064,0.115,0.074,0.168,0.067
		c0.077-0.062,0.032-0.239,0.185-0.21c0.11,0.115,0.091,0.284,0.11,0.436c-0.08,0.039-0.252-0.029-0.238,0.112
		c0.089,0.082,0.258,0.119,0.17,0.282c-0.021,0.05-0.071,0.084-0.129,0.084l-0.152-0.197c-0.119,0.158,0.057,0.367-0.044,0.551
		c0.019,0.041,0.039,0.11,0.101,0.11c0.043,0.007,0.073-0.01,0.098-0.042c-0.045-0.122,0.078-0.177,0.156-0.21
		c0.074,0.007,0.06,0.116,0.041,0.168c-0.086,0.165-0.311,0.297-0.281,0.521c-0.057,0.048-0.153,0.037-0.211,0
		c-0.219-0.441,0.24-1.051-0.338-1.35c-0.481-0.143-0.771,0.479-1.237,0.195c-0.081-0.094-0.081-0.242-0.056-0.364
		c0.08-0.093,0.207-0.121,0.322-0.086c0.204,0.134,0.436,0.286,0.703,0.183c0.105-0.022,0.169-0.136,0.211-0.224
		c0.073-0.188-0.039-0.469,0.1-0.619C295.941,85.396,296.171,85.361,296.363,85.414z M301.414,85.809
		c-0.141-0.031-0.271-0.222-0.296-0.379L301.414,85.809z M303.86,85.822c0.032,0.207,0.273,0.33,0.324,0.535
		c-0.285-0.198-0.372-0.547-0.562-0.805C303.749,85.587,303.797,85.729,303.86,85.822z M295.184,85.852
		c0.027,0.154-0.174,0.088-0.254,0.084c-0.046-0.021-0.031-0.084-0.015-0.112C294.975,85.73,295.145,85.748,295.184,85.852z
		 M301.007,86.146c-0.141-0.057-0.229-0.207-0.31-0.323l0.013-0.044C300.829,85.867,300.929,86.016,301.007,86.146z M299.993,86.667
		c0.084,0.134,0.103,0.313,0.07,0.479c-0.093,0.137-0.254,0.195-0.408,0.168c-0.159-0.189-0.047-0.496-0.099-0.731
		c-0.046-0.063-0.138-0.067-0.197-0.028c-0.083,0.062-0.123,0.178-0.21,0.197c-0.148-0.166-0.021-0.395,0-0.576
		c-0.051-0.047-0.093-0.113-0.169-0.085c-0.051,0.046-0.093,0.113-0.171,0.085c-0.052-0.029-0.104-0.08-0.081-0.156
		c0.156-0.102,0.336-0.201,0.548-0.141C299.564,86.083,299.768,86.398,299.993,86.667z M297.715,86.02
		c0.031,0.103,0.018,0.229-0.084,0.282c-0.103-0.024-0.078-0.181-0.197-0.196c-0.065,0.002-0.127,0.014-0.168,0.069
		c-0.066,0.134,0.207,0.349-0.072,0.351c-0.133-0.064-0.075-0.231-0.068-0.336c0.042-0.174,0.23-0.236,0.363-0.312
		C297.587,85.864,297.683,85.932,297.715,86.02z M303.552,86.611c-0.142-0.166-0.357-0.344-0.353-0.564
		C303.319,86.225,303.475,86.406,303.552,86.611z M306.983,86.329c0.338,0.733,0.464,1.619,0.379,2.505
		c-0.007,0.07-0.038,0.131-0.084,0.184c-0.173-0.045-0.199-0.248-0.282-0.381c-0.22-0.527-0.299-1.115-0.478-1.66
		c-0.342,0.592,0.376,1.014,0.296,1.633c0.024,0.236-0.081,0.457-0.281,0.562c-0.119,0.04-0.243,0-0.324-0.098l-0.084-0.155
		c-0.099-0.641-0.161-1.298-0.395-1.885c-0.114,0.133-0.017,0.347-0.028,0.52c0.061,0.493,0.244,1.004,0.114,1.506
		c-0.07,0.045-0.14-0.013-0.197-0.041c-0.446-0.49-0.446-1.16-0.703-1.731l-0.042-0.042l-0.099,0.111
		c0.195,0.551,0.383,1.193,0.225,1.803c-0.161-0.004-0.184-0.186-0.267-0.28c-0.197-0.409-0.289-0.864-0.467-1.282
		c-0.104,0.155,0.02,0.35,0.029,0.521c0.054,0.307,0.188,0.572,0.155,0.915c-0.025,0.045-0.092,0.03-0.127,0.015
		c-0.407-0.359-0.541-0.859-0.73-1.324c0.011,0.493,0.205,0.979,0.154,1.479c-0.139,0.007-0.229-0.147-0.312-0.254
		c-0.199-0.32-0.263-0.694-0.464-1.015c-0.08,0.07-0.08,0.215-0.056,0.324c0.056,0.338,0.291,0.622,0.28,0.971
		c-0.049,0.116-0.222,0.074-0.311,0.043c-0.544-0.312-0.115-1.119-0.744-1.42v-0.043c1.352-0.662,2.703-1.307,4.232-1.535
		C306.589,86.27,306.801,86.27,306.983,86.329z M298.25,86.37c0.093,0.108,0.108,0.254,0.099,0.409
		c-0.012-0.238-0.219-0.397-0.449-0.438c-0.017,0-0.037,0.004-0.043-0.014C297.975,86.29,298.15,86.275,298.25,86.37z
		 M303.046,86.963c-0.088-0.229-0.247-0.43-0.396-0.634C302.901,86.441,303.036,86.721,303.046,86.963z M290.95,86.414
		c0.079,0.107,0.079,0.271,0.055,0.406c-0.521,0.392-0.979-0.215-1.56,0.029c-0.424,0.065-0.795,0.31-1.071,0.674
		c0.317,0.064,0.487-0.314,0.761-0.394c0.373-0.172,0.844-0.149,1.251-0.069l0.113-0.084c0.464,0.287,0.94,0.533,1.521,0.547
		c0.098,0,0.178-0.045,0.252-0.097c0.184,0.017,0.4-0.054,0.521,0.111c0.115,0.214,0.25,0.454,0.154,0.718
		c-0.07,0.204-0.303,0.296-0.45,0.408c-0.019,0.07,0.042,0.109,0.086,0.154c0.297,0,0.499-0.342,0.59-0.577
		c0.06-0.181,0.052-0.408-0.028-0.576c-0.108-0.151-0.261-0.313-0.437-0.366l-0.364,0.016c0.146-0.338,0.283-0.789,0.702-0.9
		c0.433-0.068,0.812,0.072,1.11,0.365c0.394,0.467,0.303,1.176,0.296,1.772c-0.104,0.534-0.384,1.179-0.983,1.322
		c-0.324,0.01-0.604-0.144-0.789-0.406c-0.191-0.217-0.011-0.612-0.268-0.774c-0.801,0.039-1.497,0.332-2.223,0.562
		c-0.717,0.197-1.078-0.588-1.801-0.379h-0.041c0.074-0.109,0.197-0.188,0.281-0.27c-0.266-0.031-0.582-0.037-0.719,0.227
		c-0.047,0.146-0.023,0.327-0.069,0.479c-0.211-0.104-0.337-0.323-0.353-0.549c0.025-0.306,0.244-0.595,0.521-0.73
		c0.199-0.109,0.457-0.032,0.675-0.016c0.049-0.076-0.023-0.146-0.084-0.184l-0.73-0.027c-0.145-0.078-0.061-0.257-0.042-0.379
		c0.217-0.703,1.079-0.304,1.364-0.931c0.213-0.083,0.414,0.044,0.646,0C290.214,86.484,290.576,86.225,290.95,86.414z
		 M297.616,86.555c-0.008,0.057,0.002,0.137-0.07,0.153h-0.127c-0.024-0.037-0.01-0.094-0.015-0.142
		C297.458,86.521,297.573,86.473,297.616,86.555z M302.523,87.075c-0.118-0.128-0.351-0.317-0.379-0.534
		C302.296,86.695,302.412,86.893,302.523,87.075z M298.84,86.682v0.1l-0.225-0.016c0.011-0.066-0.036-0.181,0.069-0.184
		C298.769,86.566,298.832,86.598,298.84,86.682z M295.702,86.751c-0.001,0.069,0.021,0.173-0.069,0.185
		c-0.066-0.012-0.154-0.024-0.169-0.1c-0.019-0.066,0.036-0.115,0.086-0.141C295.604,86.702,295.689,86.674,295.702,86.751z
		 M293.424,86.766c-0.15,0.197-0.402,0.258-0.646,0.226C292.922,86.801,293.189,86.667,293.424,86.766z M295.057,86.877
		c-0.066,0.061-0.177,0.104-0.225,0.198c-0.02,0.187,0.045,0.409-0.057,0.562c-0.112,0.057-0.143-0.099-0.17-0.169
		c-0.018-0.173-0.039-0.384,0.069-0.521C294.76,86.825,294.938,86.836,295.057,86.877z M301.935,87.3
		c-0.142-0.063-0.266-0.215-0.28-0.364l0.013-0.084C301.713,87.02,301.859,87.146,301.935,87.3z M298.192,87.104
		c0.135,0.141,0.268,0.28,0.268,0.479c-0.057,0.046-0.155,0.036-0.21,0c-0.124-0.116,0.093-0.516-0.227-0.408
		c-0.162,0.266-0.038,0.745-0.464,0.803c-0.187,0.135,0.137,0.354-0.112,0.422c-0.375,0.059,0.054-0.51-0.365-0.395
		c-0.074,0.064,0.023,0.143-0.027,0.212c-0.094,0.032-0.222,0.015-0.255-0.085c0.019-0.236,0.166-0.451,0.366-0.576
		c0.084,0.094-0.088,0.127-0.111,0.211c0.135,0.063,0.291,0,0.434,0c0.121-0.043,0.272-0.065,0.324-0.211
		c0.05-0.189-0.115-0.328-0.098-0.521C297.872,86.973,298.06,87.014,298.192,87.104z M297.419,87.09
		c0.024,0.041,0.013,0.102,0.015,0.153c-0.053,0.036-0.113,0.049-0.184,0.042c-0.014-0.053-0.032-0.084-0.014-0.141
		C297.286,87.096,297.35,87.082,297.419,87.09z M299.261,87.09c-0.061,0.018-0.122,0.064-0.152,0.125
		c-0.031,0.074-0.005,0.159,0.027,0.227l0.041,0.043c-0.091,0.01-0.199-0.057-0.196-0.155
		C298.956,87.176,299.104,87.043,299.261,87.09z M307.195,88.523c-0.132-0.426-0.152-0.894-0.199-1.352
		C307.17,87.581,307.126,88.092,307.195,88.523z M300.458,87.328c0.023,0.275-0.06,0.539-0.31,0.661
		c-0.039,0.022-0.097,0.011-0.142,0.014c-0.062-0.062-0.011-0.146,0.015-0.211c0.144-0.179,0.095-0.51,0.363-0.562L300.458,87.328z
		 M295.814,87.469c0.026,0.096,0.061,0.239-0.014,0.323c-0.092,0.088-0.208,0.116-0.324,0.142c0.104-0.062,0.197-0.142,0.239-0.254
		c0.022-0.154-0.046-0.271-0.069-0.408C295.756,87.279,295.764,87.4,295.814,87.469z M306.464,88.807
		c-0.057-0.339-0.092-0.711-0.297-1l-0.013-0.507C306.221,87.816,306.674,88.242,306.464,88.807z M297.025,87.412
		c-0.192,0.092-0.349,0.289-0.424,0.492c-0.06,0.031-0.11-0.037-0.11-0.098c-0.022-0.127,0.038-0.219,0.098-0.31
		C296.698,87.384,296.88,87.355,297.025,87.412z M298.811,88.089c-0.038,0.033-0.082,0.05-0.14,0.041
		c0.039-0.239-0.022-0.522,0.058-0.746C298.861,87.562,298.826,87.854,298.811,88.089z M305.635,88.723
		c-0.156-0.424-0.266-0.863-0.367-1.311C305.497,87.807,305.572,88.26,305.635,88.723z M290.357,87.708
		c0.027,0.08-0.07,0.099-0.111,0.126l-0.956,0.016c-0.062-0.058-0.011-0.142,0.015-0.197
		C289.578,87.395,290.137,87.395,290.357,87.708z M301.02,87.723c0.053,0.08,0.08,0.204,0.028,0.295
		c-0.05,0.123-0.182,0.223-0.281,0.312c-0.103,0.03-0.159-0.124-0.254-0.029c-0.171,0.124-0.053,0.398-0.267,0.479
		c-0.264,0.115-0.65-0.067-0.871,0.154c-0.089-0.08-0.006-0.231-0.071-0.324c0.113-0.049,0.304,0.07,0.324-0.125
		c-0.012-0.061-0.029-0.131-0.1-0.144c-0.081-0.009-0.126-0.069-0.111-0.153c0.076-0.177-0.172-0.496,0.154-0.549l0.1-0.127
		c0.069,0.239-0.009,0.502-0.043,0.719l0.225,0.014c0.103,0.201-0.425,0.384-0.085,0.492c0.261,0.024,0.17-0.291,0.339-0.365
		c0.208,0.08,0.332-0.13,0.479-0.239c0.138-0.169,0.095-0.394,0.084-0.591C300.829,87.393,300.929,87.622,301.02,87.723z
		 M304.719,87.863c0.035,0.264,0.165,0.492,0.155,0.772c-0.074-0.387-0.181-0.76-0.338-1.112
		C304.637,87.596,304.681,87.743,304.719,87.863z M298.333,87.708c0.017,0.099-0.011,0.2-0.126,0.183
		c-0.063,0.024-0.088-0.037-0.085-0.084C298.041,87.607,298.255,87.719,298.333,87.708z M304.241,88.665
		c0.007,0.035,0.016,0.069,0.014,0.112c-0.112-0.311-0.239-0.631-0.268-0.957C304.156,88.059,304.178,88.376,304.241,88.665z
		 M298.039,87.877c0.002,0.092,0.002,0.215-0.057,0.295c-0.036,0.021-0.084,0.067-0.127,0.028c-0.035-0.06-0.028-0.138-0.028-0.211
		C297.883,87.918,297.953,87.88,298.039,87.877z M303.677,89.018c-0.178-0.356-0.329-0.746-0.407-1.127
		C303.46,88.242,303.568,88.629,303.677,89.018z M293.818,88.299c0.002,0.064,0.006,0.166-0.086,0.156
		c-0.094,0.006-0.18-0.059-0.211-0.143c-0.01-0.065,0.068-0.104,0.112-0.127C293.721,88.162,293.814,88.215,293.818,88.299z
		 M302.131,88.271c0.007,0.043-0.011,0.074-0.043,0.099c-0.053,0.01-0.126-0.032-0.153,0.042c0.039,0.143,0.25,0.163,0.268,0.324
		c0,0.099-0.085,0.142-0.169,0.154c-0.323,0.037-0.748-0.108-0.942,0.184c0.019,0.08-0.019,0.166-0.099,0.183
		c-0.044-0.032-0.065-0.206-0.195-0.14c-0.037,0.091,0.076,0.21-0.029,0.309c-0.079,0.096-0.192,0.194-0.309,0.113
		c-0.043-0.068,0.013-0.139,0.041-0.196c0.096-0.012,0.172-0.075,0.198-0.171c-0.026-0.13,0.026-0.268,0.152-0.294
		c0.058-0.014,0.116-0.028,0.156-0.085c0.028-0.061-0.044-0.105-0.086-0.113c-0.081,0.004-0.158,0.055-0.239,0.016
		c-0.055-0.067-0.092-0.166-0.055-0.254c0.104-0.131,0.271,0.019,0.393-0.07c0.173-0.104,0.431-0.219,0.618-0.07
		C301.821,88.331,301.983,88.08,302.131,88.271z M302.961,88.961c-0.137-0.243-0.127-0.543-0.323-0.761
		C302.895,88.379,302.958,88.684,302.961,88.961z M298.403,88.257c-0.07,0.095-0.018,0.278-0.183,0.296l-0.127,0.014
		c-0.032-0.08-0.003-0.168,0.027-0.237C298.207,88.277,298.294,88.239,298.403,88.257z M296.027,88.369
		c0.016,0.066-0.036,0.117-0.086,0.141c-0.08,0.008-0.166,0-0.196-0.084C295.739,88.281,295.95,88.346,296.027,88.369z
		 M297.827,88.355c0.03,0.088,0.004,0.187-0.027,0.268c-0.1,0.062-0.205,0.105-0.323,0.111
		C297.578,88.604,297.595,88.335,297.827,88.355z M299.177,88.51c-0.116-0.004-0.235-0.052-0.351-0.014
		c-0.064,0.141-0.186,0.285-0.338,0.322c-0.066-0.045,0.003-0.104,0.014-0.153c0.158-0.239,0.438-0.286,0.688-0.296L299.177,88.51z
		 M301.752,88.496c-0.083,0.08-0.236,0.092-0.354,0.084c0.021-0.074,0.102-0.122,0.17-0.141
		C301.638,88.438,301.709,88.438,301.752,88.496z M289.938,88.807c0.047,0.021,0.088,0.065,0.069,0.125
		c-0.312,0.105-0.636-0.014-0.899-0.154c0-0.108,0.125-0.153,0.197-0.211C289.518,88.665,289.65,88.961,289.938,88.807z
		 M298.164,88.807c0.036,0.09,0.011,0.217-0.113,0.196h-0.056c-0.024-0.038-0.01-0.096-0.013-0.14
		C298.023,88.802,298.095,88.802,298.164,88.807z M297.688,88.918c0.021,0.123-0.021,0.246-0.127,0.296
		c-0.071,0.007-0.099-0.078-0.084-0.141C297.434,88.928,297.602,88.932,297.688,88.918z M300.415,88.975
		c-0.004,0.066,0.018,0.189-0.07,0.227c-0.087,0.023-0.211-0.004-0.254,0.097c0.02,0.122-0.014,0.237-0.11,0.296h-0.101
		c-0.002-0.183-0.073-0.438,0.113-0.547C300.116,88.979,300.274,89,300.415,88.975z M298.544,89.104
		c-0.006,0.094,0.028,0.207-0.07,0.267h-0.141c-0.011-0.104-0.056-0.282,0.098-0.312C298.474,89.064,298.538,89.041,298.544,89.104z
		 M302.032,89.229l0.491,0.027c0.028,0.057,0.016,0.145-0.041,0.169c-0.119,0.007-0.291-0.092-0.338,0.085
		c-0.004,0.122,0.031,0.288-0.141,0.281c-0.048,0-0.103,0.011-0.128-0.043c-0.01-0.077,0.009-0.155,0.1-0.141
		c0.019-0.004,0.047,0.012,0.057-0.016c-0.087-0.15-0.067-0.422-0.31-0.436c-0.011,0.082-0.081,0.179-0.154,0.238
		c-0.133,0.155-0.359,0.143-0.45,0.338c-0.052-0.065-0.197-0.162-0.07-0.252l0.59-0.424
		C301.814,89.011,301.893,89.195,302.032,89.229z M293.705,89.214c-0.145,0.177-0.352,0.291-0.562,0.296
		c0.053-0.124-0.047-0.281,0.028-0.365C293.357,89.146,293.564,89.126,293.705,89.214z M307.235,89.297
		c0.408,0.949,0.071,2.07-0.38,2.9c-0.056,0.031-0.079,0.141-0.169,0.1c-0.38-0.834,0.438-1.561,0-2.354
		c-0.084,0-0.06,0.094-0.084,0.144c0.021,0.833-0.084,1.614-0.507,2.267c-0.041,0.047-0.088,0.086-0.152,0.069
		c-0.343-0.844,0.241-1.692-0.016-2.59c-0.095,0.655,0.025,1.421-0.533,1.856c-0.047,0.004-0.097,0.054-0.142,0.015
		c0.017-0.613,0.207-1.284,0.056-1.899c-0.024-0.031-0.066-0.06-0.098-0.029l-0.028,0.045c0.087,0.615-0.053,1.203-0.366,1.688
		l-0.057,0.043l-0.056-0.057c-0.003-0.562-0.032-1.114-0.142-1.633l-0.043-0.041l-0.084,0.141c-0.072,0.446-0.018,0.945-0.153,1.364
		c-0.124-0.023-0.124-0.181-0.186-0.269c-0.121-0.318-0.051-0.721-0.11-1.067c-0.172-0.175-0.43,0.102-0.634-0.07
		c-0.088-0.06-0.065-0.163-0.068-0.254c0.194-0.377,0.646-0.147,0.956-0.254c0.953-0.074,1.895-0.207,2.882-0.154L307.235,89.297z
		 M294.689,89.705c-0.002,0.062-0.021,0.135-0.015,0.184c0.062,0.071,0.162,0.047,0.239,0.071c0.12,0.073,0.238,0.315,0.38,0.11
		c0.166-0.021,0.019,0.209,0.183,0.213c0.1,0.004,0.17-0.059,0.269-0.057c-0.099,0.164-0.108,0.369-0.239,0.521
		c-0.357-0.134-0.701-0.422-0.928-0.76c-0.123-0.098-0.289-0.086-0.45-0.086c-0.077-0.06-0.028-0.168-0.042-0.254
		C294.297,89.646,294.508,89.646,294.689,89.705z M299.922,89.833c0.016,0.039-0.02,0.06-0.042,0.085
		c-0.083,0.014-0.161-0.016-0.196-0.085c-0.01-0.058,0.054-0.054,0.084-0.071C299.835,89.748,299.908,89.779,299.922,89.833z
		 M300.809,90.143c-0.102,0.088-0.268,0.086-0.394,0.142c-0.099,0.081-0.232,0.123-0.365,0.084
		c-0.035-0.019-0.028-0.054-0.028-0.084c0.219-0.084,0.488-0.196,0.576-0.45C300.725,89.875,300.627,90.121,300.809,90.143z
		 M301.539,90.016c0.04,0.051,0.078,0.101,0.07,0.168c-0.076,0.041-0.186-0.009-0.279-0.013c-0.109,0-0.227,0.062-0.323,0
		c-0.005-0.12,0.104-0.229,0.211-0.269C301.35,89.879,301.449,89.936,301.539,90.016z M303.172,90.199l0.196-0.042
		c-0.023,0.067-0.002,0.147-0.07,0.196c-0.119,0.014-0.2-0.145-0.31-0.07c0.028,0.517,0.799,0.066,0.703,0.605
		c-0.167-0.008-0.281-0.148-0.45-0.156c-0.118,0.074,0.054,0.207-0.014,0.324c-0.116,0.08-0.226-0.106-0.31,0.028
		c-0.035,0.123,0.183,0.204,0.069,0.295c-0.277,0.007-0.644-0.153-0.857,0.085c-0.007,0.096,0.104,0.087,0.155,0.127
		c0.233,0.073,0.506-0.025,0.73,0.027c-0.043,0.158-0.254,0.142-0.31,0.295c0.031,0.07,0.182-0.03,0.141,0.1
		c-0.039,0.1-0.197,0.088-0.268,0.196c-0.179-0.019-0.115-0.231-0.197-0.337c-0.134,0.045,0.035,0.218-0.127,0.238
		c-0.13-0.049-0.245,0.019-0.338,0.099c-0.06,0.036-0.06,0.097-0.055,0.153c0.111,0.082,0.296-0.107,0.362,0.059
		c0.072,0.069,0.286,0.074,0.186,0.237c-0.01,0.04-0.062,0.082-0.099,0.044c-0.117-0.201-0.386-0.088-0.562-0.1
		c-0.089,0.012-0.176,0.084-0.213,0.17c-0.018,0.072,0.021,0.141,0.086,0.168c0.102,0.018,0.218-0.015,0.31,0.057
		c0.003,0.13,0.003,0.261-0.058,0.367c-0.049-0.082-0.114-0.209-0.224-0.254c-0.085-0.038-0.233-0.053-0.311,0.015
		c0.033,0.087,0.154,0.052,0.183,0.153c0.011,0.169-0.193,0.281-0.099,0.451c0.102,0.147,0.355,0.084,0.365,0.309
		c-0.303,0.546-0.808,1.256-1.52,1.238c-0.806-0.229-0.926-1.11-1.236-1.731c0.039-0.044,0.137-0.071,0.111-0.153
		c-0.089-0.102-0.209,0.088-0.268-0.057c-0.003-0.061-0.003-0.12,0.056-0.154c0.101-0.027,0.204,0.119,0.253-0.027
		c-0.017-0.084-0.014-0.189-0.11-0.227c-0.416,0.102-0.781-0.083-1.068-0.365c-0.071-0.133-0.271-0.281-0.112-0.437
		c0.157-0.099,0.179-0.288,0.323-0.394c0.041-0.008,0.068,0.041,0.083,0.068c0.007,0.105-0.062,0.18-0.098,0.268
		c-0.081,0.058-0.188,0.054-0.254,0.142c0.028,0.089,0.098,0.173,0.196,0.183c0.128,0.01,0.239-0.115,0.339-0.056
		c-0.01,0.13-0.166,0.108-0.211,0.211l0.07,0.071c0.29-0.021,0.518-0.205,0.801-0.24c0.047,0.028,0.03,0.104,0.016,0.141
		c-0.116,0.138-0.289,0.131-0.424,0.228c0.155,0.084,0.385,0.084,0.549,0c0.105-0.087,0.167-0.208,0.269-0.269
		c0.071,0.045,0.038,0.147,0.028,0.211c-0.058,0.069-0.146,0.061-0.198,0.142c0.092,0.218,0.355,0.056,0.534,0.084
		c0.212-0.113,0.486-0.099,0.635-0.338c0.09-0.028,0.145,0.043,0.21,0.071c-0.026,0.115-0.169,0.125-0.254,0.196
		c0.155,0,0.327,0.125,0.465,0c0.131-0.163,0.039-0.415,0.099-0.604c0.04-0.184,0.121-0.397,0.323-0.467
		c-0.118-0.013-0.212-0.069-0.268-0.182c-0.023-0.13,0.127-0.189,0.212-0.238c0.133-0.082,0.315-0.109,0.395-0.269
		c-0.106-0.226,0.179-0.3,0.196-0.479c-0.238-0.08-0.449,0.151-0.688,0.071c0.003-0.12,0.031-0.247,0.14-0.311
		c0.133-0.027,0.296,0.057,0.422,0c0.193-0.446,0.676-0.468,1.069-0.437C302.939,90.048,303.021,90.191,303.172,90.199z
		 M306.927,91.579c0.032-0.486,0.104-1.071,0.155-1.604C307.198,90.525,307.062,91.078,306.927,91.579z M306.125,91.662
		c0.032-0.465,0.103-1.079,0.155-1.619C306.396,90.6,306.263,91.159,306.125,91.662z M305.521,91.057
		c0.052-0.195,0.018-0.375,0.026-0.59l0.043-0.408C305.757,90.364,305.65,90.77,305.521,91.057z M304.227,90.859
		c-0.102-0.221-0.037-0.461-0.056-0.717C304.273,90.348,304.208,90.621,304.227,90.859z M302.777,90.255
		c-0.03,0.339-0.179,0.653-0.437,0.873c-0.126,0.099-0.354,0.011-0.423,0.196c0.01,0.142-0.094,0.229-0.21,0.269
		c-0.109,0.039-0.278,0.052-0.379-0.014c0.148-0.089,0.348-0.097,0.448-0.269c0.032-0.135-0.022-0.345,0.155-0.379
		c0.15-0.033,0.344,0.004,0.479-0.029c-0.066-0.131-0.242-0.045-0.366-0.069c-0.022-0.075-0.022-0.19,0.059-0.228
		c0.107-0.022,0.245,0.127,0.309-0.026c0.003-0.063,0.003-0.13-0.057-0.17c-0.084-0.003-0.239,0.135-0.253,0
		c0-0.062,0.021-0.13,0.085-0.154C302.402,90.382,302.588,90.064,302.777,90.255z M291.861,92.465
		c0.076-0.722,0.195-1.482,0.227-2.252C292.2,90.971,292.096,91.777,291.861,92.465z M308.038,90.818
		c-0.103,0.129-0.141,0.287-0.169,0.449c0.623,1.01,0.504,2.532,0.155,3.631c0.122-0.756,0.229-1.523,0.183-2.351
		c-0.025-0.341-0.141-0.664-0.395-0.887c-0.096,0.401,0.107,0.753,0.099,1.153c0.085,0.869-0.248,1.598-0.28,2.436
		c-0.139,0.007-0.236,0.137-0.323,0.238c0.231-0.991,0.676-2,0.38-3.109c-0.077,0.197-0.166,0.391-0.31,0.562
		c0.245-0.689,0.299-1.522,0.562-2.236C308.013,90.703,307.989,90.786,308.038,90.818z M300.43,90.775
		c0,0.078-0.044,0.146-0.112,0.183h-0.084c-0.051-0.091,0.021-0.183,0.098-0.226C300.37,90.732,300.426,90.729,300.43,90.775z
		 M296.279,90.846c0.003,0.188-0.25,0.189-0.366,0.312c-0.111,0.003-0.171-0.101-0.224-0.185c-0.02-0.053-0.031-0.14,0.013-0.184
		C295.913,90.766,296.087,90.828,296.279,90.846z M300.978,91.027c0.024,0.076,0.024,0.179-0.057,0.227
		c-0.081,0.018-0.081-0.095-0.055-0.141C300.893,91.07,300.914,91.021,300.978,91.027z M296.674,91.143v0.056l-0.099,0.015
		c-0.032,0.223,0.348,0.089,0.31,0.367c-0.223,0.031-0.423-0.094-0.562-0.268c0.029-0.104,0.099-0.227,0.211-0.256
		C296.6,91.055,296.689,91.05,296.674,91.143z M303.649,91.197c-0.019,0.047,0.031,0.066,0.015,0.113
		c-0.117-0.043-0.188,0.102-0.311,0.084c-0.06-0.184,0.154-0.117,0.226-0.197H303.649z M303.199,91.773
		c0.061,0.262,0.081,0.543,0.31,0.732c-0.013,0.126-0.055,0.24-0.126,0.34c0.187,0.086,0.265,0.297,0.281,0.49l-0.028,0.21
		c-0.176-0.136-0.345-0.358-0.395-0.59c0.036-0.008,0.082,0.019,0.1-0.028c-0.204-0.064-0.071-0.371-0.169-0.535
		c-0.084-0.144-0.229-0.267-0.253-0.436c0.133-0.092,0.154-0.257,0.14-0.423C303.147,91.574,303.176,91.688,303.199,91.773z
		 M300.177,91.648c-0.005,0.095-0.02,0.195-0.112,0.24c-0.032,0.01-0.066-0.012-0.07-0.045c-0.019-0.104,0.019-0.201,0.098-0.252
		C300.134,91.574,300.165,91.62,300.177,91.648z M297.631,91.943c0.017,0.07-0.04,0.113-0.1,0.113
		c-0.137,0.01-0.264-0.074-0.323-0.197c-0.006-0.051,0.007-0.099,0.058-0.113C297.419,91.736,297.566,91.8,297.631,91.943z
		 M301.555,92.507c-0.098,0.12-0.223,0.175-0.367,0.183c-0.04-0.062,0.026-0.111,0.044-0.168c0.069-0.041,0.242,0.039,0.227-0.099
		c-0.211-0.116-0.021-0.31,0-0.45C301.487,92.139,301.565,92.311,301.555,92.507z M302.862,92.562
		c-0.077,0.062-0.178,0.011-0.253-0.015c-0.09-0.069-0.067-0.188-0.07-0.296C302.603,92.465,303.018,92.225,302.862,92.562z
		 M300.189,92.465c0.004,0.059,0,0.116-0.041,0.155c-0.047,0.013-0.09-0.019-0.1-0.058c-0.008-0.062,0.006-0.119,0.041-0.17
		C300.141,92.377,300.189,92.418,300.189,92.465z M303.172,92.773c0.004,0.131,0.054,0.265,0.014,0.395
		c-0.146-0.145-0.207-0.337-0.407-0.45C302.877,92.557,303.102,92.637,303.172,92.773z M302.946,93.014
		c0.104,0.246,0.201,0.497,0.196,0.787c-0.2-0.171-0.165-0.514-0.407-0.633c-0.157,0.077,0.039,0.4-0.226,0.338
		c-0.038-0.268,0.038-0.538,0.226-0.717C302.862,92.791,302.89,92.932,302.946,93.014z M306.562,93.057
		c-0.099,0.518-0.108,1.072-0.238,1.575c-0.046-0.584,0.052-1.264,0.238-1.83V93.057z M297.025,92.93
		c0,0.06,0.011,0.131-0.043,0.168c-0.065,0.031-0.099-0.049-0.125-0.084c-0.02-0.063,0.021-0.117,0.068-0.141
		C296.973,92.857,297.016,92.891,297.025,92.93z M293.299,93.168c-0.027,0.039-0.043,0.08-0.085,0.113
		c-0.046-0.077-0.032-0.227-0.014-0.324C293.333,92.939,293.32,93.083,293.299,93.168z M301.104,93.111
		c-0.127,0.043-0.245,0.147-0.38,0.127l-0.043-0.07c0.114-0.085,0.261-0.098,0.38-0.169
		C301.083,93.021,301.09,93.074,301.104,93.111z M300.345,93.027c-0.011,0.158-0.234,0.102-0.352,0.154
		c-0.025-0.024-0.081-0.007-0.085-0.056c0.004-0.134,0.188-0.082,0.281-0.112C300.242,93.018,300.303,93.003,300.345,93.027z
		 M292.131,93.352c-0.078,0.972-0.395,1.844-1.084,2.562c-0.091,0.071-0.195,0.151-0.324,0.099c-0.127-0.107-0.1-0.285-0.125-0.437
		c0.035,0.12,0.074,0.265,0.196,0.325c0.208-0.051,0.339-0.278,0.465-0.438c0.439-0.73,0.763-1.509,0.802-2.406
		C292.148,93.091,292.127,93.245,292.131,93.352z M302.146,93.154l0.015,0.562c-0.04,0.046-0.096-0.021-0.143-0.026
		c-0.065-0.193-0.003-0.402,0.058-0.578C302.106,93.104,302.142,93.123,302.146,93.154z M296.786,93.337
		c-0.08,0.047-0.205,0.031-0.295,0.015c-0.04-0.045-0.071-0.099-0.058-0.168C296.543,93.257,296.805,93.137,296.786,93.337z
		 M298.039,93.366c0.002,0.048,0.002,0.126-0.057,0.126c-0.065,0.021-0.071-0.051-0.084-0.086l0.055-0.141
		C298.008,93.27,298.045,93.309,298.039,93.366z M303.073,94.152c0.065,0.183-0.061,0.359-0.057,0.55
		c-0.054,0.021-0.13,0.024-0.169-0.028c0.011-0.06,0.039-0.113,0.028-0.183l-0.085-0.058c-0.045-0.373-0.032-0.787-0.015-1.168
		C303.105,93.484,302.795,93.913,303.073,94.152z M299.782,93.378c0.027,0.09-0.05,0.133-0.111,0.144
		c-0.132-0.019-0.322,0.053-0.367-0.114c-0.01-0.064,0.064-0.091,0.113-0.099C299.539,93.292,299.694,93.27,299.782,93.378z
		 M294.704,93.324c-0.004,0.078,0.019,0.229-0.07,0.267c-0.022-0.063-0.073-0.147-0.014-0.213
		C294.648,93.363,294.663,93.312,294.704,93.324z M302.65,93.886c-0.052,0.074-0.168,0.039-0.238,0.027
		c-0.07-0.044-0.169-0.095-0.196-0.183c0.03-0.107-0.081-0.338,0.1-0.324l0.04-0.04C302.409,93.559,302.656,93.667,302.65,93.886z
		 M300.471,93.378c0,0.036-0.013,0.063-0.041,0.086c-0.091,0.047-0.184,0.166-0.311,0.127l-0.042-0.069
		C300.196,93.441,300.33,93.398,300.471,93.378z M303.537,94.294v0.085c-0.091,0.031-0.192,0.006-0.269-0.044v-0.856
		C303.552,93.689,303.348,94.048,303.537,94.294z M304.002,93.745v0.28c-0.145-0.146-0.304-0.327-0.253-0.549
		C303.854,93.544,303.953,93.63,304.002,93.745z M301.035,93.604l-0.017,0.086c-0.127,0.006-0.318,0.056-0.406-0.043
		c-0.028-0.092,0.077-0.092,0.127-0.112C300.838,93.559,301.017,93.475,301.035,93.604z M296.646,93.633
		c0.179,0.168-0.176,0.33,0.026,0.506c0.112,0.105,0.239,0.227,0.396,0.185c0.056-0.05,0.068-0.13,0.041-0.197
		c-0.066-0.123-0.426,0.026-0.252-0.226c0.088-0.107,0.242-0.086,0.363-0.07c0.098,0.043,0.035,0.204,0.113,0.281
		c0.218,0.312,0.535,0.576,0.887,0.662c0.057-0.057,0-0.133-0.043-0.184c-0.204-0.205-0.519-0.285-0.633-0.562
		c0.076-0.084,0.2-0.103,0.311-0.07c0.098,0.116-0.032,0.348,0.168,0.395c0.099,0,0.204-0.062,0.296,0
		c0.077,0.119,0.204,0.219,0.352,0.156c0.049-0.025,0.101-0.062,0.126-0.113c-0.007-0.265-0.436,0.06-0.394-0.226
		c0.088-0.106,0.312-0.096,0.281-0.269c-0.107-0.1-0.235,0.018-0.365,0c-0.011-0.061-0.039-0.113-0.029-0.184
		c0.209-0.046,0.466-0.053,0.619,0.112c0.079,0.112,0.211,0.223,0.141,0.381c-0.098,0.095-0.094,0.229-0.153,0.337
		c-0.357,0.628-1.125,0.688-1.463,1.309c-0.207,0.494-0.18,1.099-0.24,1.635c0.035,0.097,0.143,0.144,0.227,0.182
		c0.281-0.014,0.542-0.253,0.831-0.085c0.087,0.063,0.121,0.152,0.125,0.254c-0.007,0.099-0.065,0.187-0.153,0.239
		c-0.458,0.115-0.81-0.277-1.238-0.098c-0.193,0.156-0.465,0.305-0.703,0.182c-0.102-0.053-0.192-0.157-0.226-0.268l0.015-0.082
		c-0.199-0.039-0.395-0.097-0.604-0.115c-0.192,0.124-0.45,0.18-0.688,0.115c-0.07-0.045-0.172-0.08-0.196-0.17
		c0-0.209,0.091-0.397,0.267-0.508c0.219-0.023,0.356,0.148,0.563,0.154c0.267,0.018,0.532,0.208,0.801,0.057
		c0.258-0.158,0.591-0.307,0.718-0.604c-0.066-0.513,0.02-0.999,0.311-1.378c-0.135-0.201-0.385-0.229-0.549-0.408
		c-0.039-0.468-0.242-0.863-0.367-1.295l0.016-0.1C296.449,93.564,296.568,93.544,296.646,93.633z M303.734,94.125
		c-0.039,0.027-0.064,0.085-0.112,0.085c-0.116-0.174-0.131-0.405-0.098-0.619C303.595,93.771,303.878,93.93,303.734,94.125z
		 M295.702,93.73c0.043,0.261,0,0.523-0.126,0.731c-0.026-0.264-0.016-0.569,0.044-0.83C295.675,93.63,295.689,93.691,295.702,93.73
		z M291.047,95.166c0.176-0.503,0.355-1.006,0.577-1.492C291.529,94.182,291.329,94.706,291.047,95.166z M291.764,95.632
		c-0.109,0.214-0.221,0.429-0.392,0.618c0.319-0.834,0.752-1.622,0.955-2.505C292.246,94.417,291.951,95.001,291.764,95.632z
		 M299.754,93.829c-0.125,0.043-0.298,0.043-0.422,0c-0.01-0.065,0.066-0.046,0.098-0.069
		C299.547,93.764,299.697,93.742,299.754,93.829z M300.443,93.999c-0.151,0.06-0.331,0.06-0.508,0.056
		c-0.057-0.015-0.068-0.084-0.042-0.125c0.158-0.061,0.401-0.074,0.55,0.014V93.999L300.443,93.999z M307.335,93.941
		c0.004,0.531-0.089,1.056-0.281,1.521c-0.021-0.532,0.062-1.055,0.254-1.521H307.335z M292.384,96.266l-0.196,0.279
		c0.131-0.402,0.352-0.832,0.521-1.252c0.081-0.451,0.293-0.85,0.31-1.322C292.975,94.805,292.764,95.57,292.384,96.266z
		 M304.325,94.294c0.085,0.19,0.071,0.418,0.099,0.633c-0.162-0.034-0.149-0.215-0.197-0.337c-0.099-0.15-0.299-0.277-0.238-0.479
		C304.138,93.995,304.268,94.186,304.325,94.294z M294.382,96.139c-0.038,0.104-0.093,0.195-0.169,0.28
		c0.003-0.496,0.198-0.95,0.268-1.437l0.127-0.844C294.723,94.85,294.539,95.508,294.382,96.139z M293.482,96.066
		c-0.062,0.093-0.09,0.194-0.156,0.283c0.054-0.431,0.225-0.871,0.296-1.324l0.11-0.857
		C293.809,94.85,293.625,95.459,293.482,96.066z M303.833,94.182c0.035,0.062,0.05,0.133,0.043,0.211
		c0.072,0.1,0.272,0.151,0.223,0.295c-0.068,0.096-0.168,0.004-0.237-0.027c-0.169-0.092-0.146-0.28-0.126-0.436
		C303.746,94.182,303.794,94.148,303.833,94.182z M297.587,94.604c-0.076,0.047-0.194,0.033-0.28,0.016
		c-0.07-0.078-0.13-0.158-0.127-0.268C297.289,94.498,297.608,94.393,297.587,94.604z M303.537,94.632
		c-0.057,0.104-0.007,0.373-0.041,0.55h-0.059c-0.076,0.238,0.036,0.506-0.041,0.745c-0.038,0.017-0.1-0.088-0.128-0.141
		l-0.027-0.636c0.067-0.029,0.142-0.002,0.196,0.029c-0.076-0.197-0.21-0.363-0.196-0.591l-0.027-0.127
		C303.31,94.55,303.399,94.684,303.537,94.632z M303.102,94.982c0.031,0.019,0.07,0.039,0.084,0.07c0,0.352-0.046,0.687-0.098,1.014
		h-0.085c-0.011-0.269-0.102-0.534-0.028-0.801c-0.056-0.019-0.154,0.026-0.211-0.029c-0.045-0.137-0.03-0.316-0.014-0.465
		C302.949,94.732,302.858,95.061,303.102,94.982z M303.776,94.812c-0.035,0.27,0.011,0.606-0.142,0.847
		c0.012-0.269-0.024-0.591,0.028-0.858L303.776,94.812z M304.438,95.082c0.005,0.1,0.005,0.195-0.056,0.268
		c-0.104-0.019-0.187-0.109-0.211-0.211c0.007-0.082-0.024-0.177,0.056-0.225C304.318,94.898,304.388,95.029,304.438,95.082z
		 M304.029,95.055c0.049,0.269,0.216,0.641-0.027,0.872l-0.084-0.901L304.029,95.055z M304.647,95.404
		c-0.015,0.128-0.004,0.328-0.183,0.326c-0.091,0.006-0.232,0.056-0.295-0.045c-0.015-0.133,0.145-0.102,0.196-0.195
		C304.452,95.427,304.596,95.166,304.647,95.404z M304.466,95.855c-0.06,0.15-0.239,0.193-0.367,0.268
		c-0.068,0.027-0.155,0.016-0.21-0.041v-0.044C304.072,95.954,304.257,95.667,304.466,95.855z M303.706,96.025
		c0,0.156-0.042,0.3-0.127,0.42c-0.091,0.02-0.119-0.086-0.154-0.141c-0.024-0.158,0.046-0.272,0.142-0.379
		C303.617,95.952,303.677,95.977,303.706,96.025z M303.425,96.617c0.042,0.113-0.059,0.15-0.14,0.167
		c-0.104,0.022-0.212-0.023-0.228-0.126c-0.02-0.223,0.021-0.417,0.127-0.592C303.399,96.145,303.425,96.398,303.425,96.617z
		 M303.975,96.209c-0.009,0.122-0.097,0.225-0.197,0.295h-0.112c0.021-0.126,0.104-0.3,0.254-0.354L303.975,96.209z M292.961,96.404
		l0.014,0.254L292.961,96.404z"/>
	<path fill="#BAB9BA" d="M298.011,75.154l-0.311,0.324c-0.229-0.035,0.031-0.215-0.113-0.311c-0.119-0.164-0.349-0.157-0.519-0.111
		c-0.289,0.127-0.354,0.422-0.354,0.702c0.023,0.304,0.235,0.599,0.521,0.72c0.189,0.049,0.429,0.099,0.591-0.043
		c0.049-0.074,0.065-0.131,0.168-0.127c0.035,0.105,0.05,0.246,0.044,0.381c-0.508,0.164-1.126,0.102-1.491-0.325
		c-0.219-0.283-0.289-0.755-0.114-1.082c0.143-0.265,0.412-0.448,0.69-0.493C297.488,74.744,297.803,74.88,298.011,75.154z
		 M299.248,74.874c-0.025,0.021-0.012,0.056-0.015,0.084c-0.069,0.007-0.123,0.06-0.143,0.126l-0.167,1.451
		c0.267-0.008,0.668,0.216,0.829-0.085l0.126,0.013l-0.056,0.409l-1.405-0.168c-0.04-0.152,0.191-0.101,0.153-0.254L298.74,75
		c0-0.092-0.153-0.081-0.1-0.195L299.248,74.874z M301.37,75.268c0.036,0.164-0.152,0.086-0.209,0.17
		c-0.351,0.31-0.658,0.731-0.464,1.211c0.13,0.213,0.36,0.299,0.59,0.336c0.149-0.481,0.296-0.971,0.395-1.478
		c-0.027-0.069-0.127-0.084-0.057-0.17l0.576,0.156c0.007,0.112-0.096,0.049-0.142,0.127c-0.168,0.495-0.288,1.009-0.423,1.521
		c-0.018,0.096,0.151,0.092,0.071,0.195c-0.491-0.184-1.21-0.104-1.406-0.73c-0.162-0.549,0.229-0.937,0.576-1.31
		c0.003-0.092-0.154-0.073-0.056-0.17L301.37,75.268z M293.79,75.76l0.463,1.338c0.233-0.119,0.666-0.07,0.72-0.421l0.111-0.059
		l0.141,0.396l-1.351,0.465c-0.06-0.093,0.038-0.113,0.044-0.199c-0.148-0.506-0.316-1.002-0.508-1.489
		c-0.045-0.082-0.16-0.005-0.154-0.127l0.549-0.197C293.949,75.561,293.68,75.63,293.79,75.76z M303.959,76.281
		c0.113,0.102,0.236,0.225,0.227,0.396c0.004,0.163-0.093,0.313-0.239,0.392l-0.281,0.058c0.133,0.115,0.204,0.258,0.212,0.423
		c-0.019,0.184-0.109,0.358-0.281,0.449c-0.577,0.152-0.995-0.337-1.49-0.506c-0.004-0.105,0.088-0.069,0.152-0.1l0.718-1.379
		c0.071-0.119-0.137-0.145-0.014-0.24L303.959,76.281z M292.834,76.111l0.605,1.337c0.033,0.12,0.205-0.017,0.183,0.143
		l-0.549,0.239c-0.078-0.104,0.102-0.202,0-0.312l-0.577-1.295c-0.033-0.121-0.225,0.008-0.196-0.152l0.534-0.24
		C292.979,75.919,292.732,75.992,292.834,76.111z M303.818,76.577c0.027,0.104-0.039,0.174-0.084,0.253
		c-0.243,0.16-0.457-0.088-0.677-0.153l0.228-0.466C303.475,76.302,303.717,76.361,303.818,76.577z M291.764,76.45
		c0.143,0.614,0.271,1.233,0.438,1.843l-0.309,0.211l-1.49-1.14c-0.075-0.046-0.135,0.043-0.17-0.069l0.521-0.338
		c0.13,0.083-0.073,0.107,0.015,0.211c0.355,0.301,0.729,0.557,1.084,0.857c-0.082-0.441-0.217-0.9-0.326-1.35
		c-0.047-0.105-0.156,0.033-0.182-0.1l0.408-0.281C291.816,76.327,291.805,76.396,291.764,76.45z M303.537,77.322
		c0.015,0.126-0.013,0.232-0.083,0.324c-0.275,0.256-0.564-0.047-0.816-0.143l0.31-0.619
		C303.155,77.003,303.432,77.076,303.537,77.322z M306.814,79.055c-0.06,0.305-0.345,0.604-0.647,0.688
		c-0.642,0.152-1.055-0.422-1.52-0.787c0.005-0.028,0.038-0.047,0.058-0.07c0.042,0.038,0.127,0.038,0.169,0l1.013-1.183
		c0.007-0.05-0.008-0.091-0.043-0.127l0.058-0.07C306.378,77.896,307.005,78.355,306.814,79.055z M306.505,78.729
		c-0.01,0.291-0.211,0.567-0.479,0.689c-0.33,0.096-0.615-0.076-0.844-0.311l0.941-1.097
		C306.372,78.178,306.508,78.438,306.505,78.729z M290.542,78.646c0.142,0.306,0.112,0.699-0.084,0.971
		c-0.215,0.296-0.524,0.49-0.888,0.49c-0.379-0.01-0.735-0.26-0.899-0.604c-0.151-0.312-0.096-0.745,0.112-1.014
		c0.211-0.29,0.514-0.417,0.844-0.449C290.011,78.055,290.372,78.29,290.542,78.646z M290.287,78.997
		c0.07,0.229,0.018,0.476-0.168,0.632c-0.146,0.118-0.312,0.188-0.521,0.156c-0.314-0.083-0.604-0.373-0.688-0.689
		c-0.061-0.268,0.07-0.517,0.295-0.66c0.159-0.117,0.373-0.082,0.549-0.029C289.986,78.532,290.207,78.747,290.287,78.997z
		 M307.785,79.277c0.315,0.375,0.601,0.763,0.899,1.142l-0.295,0.239c-0.234-0.088,0.108-0.203-0.057-0.323l-0.438-0.55
		c-0.137,0.083-0.262,0.195-0.394,0.296c0.163,0.164,0.257,0.515,0.534,0.479l0.058,0.069c-0.113,0.095-0.242,0.222-0.367,0.31
		c-0.124-0.045-0.052-0.119-0.056-0.226c-0.077-0.176-0.231-0.319-0.352-0.479l-0.577,0.438c0.183,0.23,0.322,0.527,0.591,0.676
		c0.089,0.028,0.127-0.078,0.169,0.043c-0.1,0.084-0.253,0.357-0.352,0.195l-0.888-1.141c0.059-0.144,0.169,0.047,0.254-0.057
		l1.194-0.955C307.718,79.343,307.697,79.266,307.785,79.277z M287.7,79.939l1.435,0.719c0.067,0.023,0.116-0.078,0.17,0
		c-0.054,0.152-0.173,0.316-0.281,0.463c-0.021,0.036-0.078-0.006-0.086-0.041c0.035-0.123-0.107-0.169-0.183-0.211l-1.083-0.534
		v0.041l0.717,0.886c-0.056,0.114-0.117,0.286-0.281,0.17l-0.998-0.295c0.311,0.317,0.699,0.637,1.057,0.942
		c0.077,0.042,0.121-0.085,0.184,0c-0.029,0.147-0.17,0.28-0.254,0.422l-0.084-0.041c0.023-0.065,0.026-0.112-0.015-0.17
		l-1.183-1.042c-0.073-0.038-0.115,0.111-0.168,0c0.059-0.15,0.207-0.326,0.31-0.493l0.899,0.269V80.98l-0.576-0.717l0.352-0.507
		C287.746,79.785,287.65,79.873,287.7,79.939z M309.938,82.643c0.176,0.28,0.215,0.719,0.015,1l-0.422-0.17
		c-0.043-0.219,0.25-0.063,0.282-0.269c0.032-0.153,0.006-0.315-0.088-0.437c-0.155-0.226-0.448-0.218-0.688-0.168
		c-0.271,0.073-0.512,0.342-0.591,0.604c-0.038,0.239-0.011,0.485,0.142,0.662c0.075,0.118,0.271,0.003,0.254,0.198
		c-0.121,0.037-0.229,0.107-0.353,0.14c-0.242-0.354-0.401-0.781-0.311-1.239c0.104-0.38,0.483-0.707,0.872-0.744
		C309.416,82.191,309.737,82.336,309.938,82.643z M287.63,82.938c0.157,0.364,0.031,0.783-0.183,1.082
		c-0.223,0.262-0.514,0.396-0.844,0.354c-0.379-0.031-0.777-0.3-0.888-0.676c-0.138-0.443,0.023-0.865,0.353-1.168
		c0.246-0.174,0.576-0.278,0.887-0.17C287.236,82.447,287.504,82.659,287.63,82.938z M287.363,83.119
		c0.104,0.23,0.076,0.517-0.1,0.706c-0.138,0.157-0.32,0.21-0.535,0.183c-0.309-0.029-0.617-0.209-0.758-0.492
		c-0.054-0.183-0.033-0.41,0.067-0.563c0.106-0.155,0.262-0.249,0.438-0.269C286.838,82.666,287.15,82.837,287.363,83.119z
		 M310.611,84.725l-0.083,0.041c-0.19-0.195-0.45,0.008-0.661,0.045l0.168,0.772c0.211-0.042,0.553-0.003,0.634-0.253l0.084-0.014
		l0.127,0.574c-0.098,0.064-0.201-0.131-0.337-0.041l-1.366,0.324c-0.104,0.018-0.021,0.203-0.167,0.154l-0.127-0.562
		c0.039-0.035,0.083-0.06,0.127,0.014c0.083,0.062,0.186,0,0.28,0l0.521-0.127l-0.169-0.787c-0.248,0.031-0.515,0.096-0.76,0.168
		c-0.078,0.047-0.016,0.148-0.128,0.142c-0.066-0.176-0.093-0.394-0.141-0.591c0.092-0.057,0.1,0.046,0.171,0.07
		c0.524-0.073,1.016-0.236,1.531-0.34c0.127-0.033,0.011-0.196,0.169-0.152L310.611,84.725z M285.604,84.695
		c0.07,0.236-0.237,0.058-0.226,0.27c-0.019,0.102-0.019,0.215-0.055,0.309l1.519,0.269c0.069-0.021,0.072-0.123,0.17-0.083
		l-0.101,0.589c-0.14,0.043-0.065-0.155-0.196-0.155l-1.436-0.252c-0.038,0.141-0.103,0.293-0.055,0.45
		c0.069,0.063,0.149,0.089,0.099,0.196l-0.396-0.07l0.298-1.59L285.604,84.695z M310.922,86.469c0.032,0.19,0.042,0.396,0.056,0.592
		c-0.021,0.02-0.056,0.016-0.084,0.016c0-0.047-0.05-0.081-0.085-0.1l-1.574,0.154c-0.092,0.031-0.047,0.151-0.169,0.127
		l-0.056-0.591c0.021-0.024,0.056-0.011,0.083-0.015c0.021,0.039,0.061,0.08,0.1,0.099l1.562-0.153
		C310.844,86.578,310.799,86.425,310.922,86.469z M285.025,86.977c0.521,0.019,1.078,0.03,1.591-0.014
		c0.067-0.039,0.036-0.138,0.142-0.1c-0.035,0.558,0.204,1.312-0.423,1.592c-0.479,0.249-0.938-0.076-1.349-0.255
		c-0.067,0.039-0.036,0.137-0.141,0.099v-0.576c0.143-0.07,0.118,0.116,0.211,0.142c0.299,0.241,0.684,0.362,1.082,0.28
		c0.157-0.045,0.284-0.188,0.352-0.338c0.054-0.135,0.019-0.299,0.027-0.451c-0.502-0.017-1.041-0.03-1.531,0.016
		c-0.059,0.042-0.043,0.134-0.141,0.1v-0.605C284.973,86.805,284.934,86.963,285.025,86.977z M309.332,87.75l1.548,0.141
		c0.087-0.022,0.074-0.154,0.184-0.084l-0.058,0.592c-0.146,0.049-0.088-0.139-0.211-0.142l-1.463-0.141
		c-0.03,0.247-0.122,0.513-0.027,0.761c0.077,0.048,0.171,0.084,0.111,0.196l-0.421-0.042l0.14-1.422
		C309.272,87.57,309.221,87.727,309.332,87.75z M286.87,89.439c-0.013,0.017-0.054,0.022-0.085,0.028
		c-0.027-0.032-0.034-0.09-0.084-0.1c-0.186,0.053-0.335,0.196-0.508,0.28l0.101,0.648c0.222-0.012,0.543,0.276,0.661-0.029h0.042
		l0.084,0.506c-0.104,0.082-0.104-0.084-0.197-0.084l-1.825-0.393l-0.06-0.381l1.632-0.957c0.067-0.046,0.032-0.146,0.143-0.127
		L286.87,89.439z M309.135,89.342c0.516,0.153,1.062,0.213,1.604,0.294c0.057-0.05,0.089-0.116,0.169-0.069l-0.268,1.449
		l-0.364-0.058c-0.014-0.05,0.025-0.076,0.014-0.125c0.088,0.003,0.186-0.05,0.196-0.144l0.111-0.688
		c-0.15-0.053-0.318-0.066-0.478-0.1c-0.021,0.232-0.211,0.557,0,0.719l-0.029,0.1l-0.479-0.072
		c-0.08-0.209,0.194-0.088,0.183-0.267l0.085-0.493c-0.216-0.074-0.478-0.102-0.717-0.154l-0.141,0.846
		c0.027,0.119,0.214,0.102,0.111,0.254l-0.38-0.072l0.255-1.533C309.101,89.229,309.101,89.271,309.135,89.342z M286.055,90.255
		l-0.646-0.127l0.562-0.353L286.055,90.255z"/>
	<path fill="#BAB9BA" d="M301.33,71.285l0.448,1.857c0.729,0.207,1.449,0.441,2.14,0.746l1.489-1.195
		c0.711,0.271,1.351,0.714,1.997,1.139c-0.076,0.646-0.239,1.26-0.294,1.914c0.587,0.419,1.128,0.943,1.675,1.463
		c0.597-0.223,1.231-0.354,1.841-0.548c0.576,0.565,0.987,1.2,1.407,1.828l-1.015,1.604c0.404,0.723,0.768,1.465,1.082,2.223
		l1.888,0.24c0.271,0.711,0.438,1.467,0.562,2.236c-0.507,0.374-1.034,0.686-1.533,1.07c0.084,0.729,0.126,1.475,0.126,2.238
		l1.633,0.871c0.057,0.805-0.138,1.541-0.254,2.293c-0.604,0.174-1.237,0.278-1.843,0.451c-0.241,0.749-0.461,1.51-0.788,2.225
		l1.183,1.447c-0.284,0.704-0.688,1.359-1.124,2c-0.657-0.035-1.242-0.261-1.899-0.295c-0.395,0.498-0.798,0.993-1.265,1.463
		l0.561,1.73c-0.513,0.605-1.151,1.021-1.758,1.463c-0.559-0.26-1.067-0.645-1.618-0.928c-0.559,0.326-1.116,0.648-1.702,0.914
		l-0.125,1.885c-0.688,0.328-1.438,0.518-2.193,0.691c-0.409-0.477-0.73-0.99-1.141-1.463c-0.709,0.123-1.434,0.209-2.18,0.25
		l-0.772,1.635c-0.792,0.06-1.556-0.032-2.294-0.143c-0.196-0.564-0.34-1.152-0.52-1.73c-0.768-0.168-1.521-0.379-2.251-0.633
		l-1.294,1.211c-0.729-0.239-1.402-0.6-2.068-0.985c-0.006-0.611,0.125-1.203,0.155-1.813c-0.669-0.438-1.306-0.951-1.927-1.492
		l-1.66,0.632c-0.587-0.513-1.107-1.104-1.547-1.702c0.264-0.562,0.594-1.1,0.857-1.66c-0.488-0.718-0.904-1.463-1.252-2.236
		l-0.098-0.043l-1.717-0.113c-0.331-0.683-0.496-1.435-0.676-2.182c0.422-0.408,0.941-0.703,1.392-1.097
		c-0.129-0.837-0.263-1.672-0.267-2.562l-1.633-0.804c-0.062-0.815,0.098-1.541,0.185-2.293l1.801-0.507
		c0.203-0.865,0.472-1.706,0.802-2.52l-1.154-1.394c0.268-0.711,0.677-1.364,1.098-2.013c0.609,0.042,1.21,0.189,1.828,0.252
		c0.472-0.639,0.999-1.251,1.591-1.844c-0.155-0.59-0.38-1.146-0.549-1.73c0.51-0.579,1.149-1.057,1.772-1.477l1.645,0.957
		c0.679-0.383,1.363-0.738,2.082-1.027l0.042-0.1l0.184-1.801c0.697-0.285,1.438-0.468,2.194-0.604
		c0.432,0.464,0.717,1.041,1.139,1.534c0.784-0.116,1.586-0.188,2.435-0.154l0.887-1.648C299.845,71,300.588,71.137,301.33,71.285z
		 M310.401,81.77c1.71,3.244,1.867,7.989,0.381,11.385c-2.009,5.089-7.306,8.677-12.771,8.628
		c-5.177,0.045-9.938-2.787-12.394-7.431c-1.842-3.289-2.102-8.127-0.592-11.652c1.884-4.932,7.039-8.575,12.281-8.697
		C302.849,73.752,307.942,76.816,310.401,81.77z"/>
	<path fill="#BAB9BA" d="M293.643,97.973c-0.205,0.104-0.441,0.092-0.678,0.065l-0.072,0.187c0.151,0.039,0.312,0.057,0.465,0.043
		l-0.633,1.566c-0.09,0.221-0.141,0.286-0.44,0.182l-0.05,0.121l1.022,0.415l0.05-0.122c-0.203-0.098-0.238-0.158-0.162-0.35
		l0.804-1.984L293.643,97.973z M296.258,98.968c0.281,0.04,0.418,0.288,0.379,0.56c-0.035,0.26-0.26,0.453-0.52,0.418
		c-0.27-0.037-0.393-0.285-0.354-0.541C295.8,99.133,295.973,98.928,296.258,98.968z M296.566,100.13
		c-0.073,0.517-0.35,0.876-0.853,0.806c-0.146-0.021-0.345-0.072-0.358-0.25l-0.178-0.024l-0.055,0.403
		c0.18,0.07,0.367,0.135,0.564,0.16c0.799,0.113,1.307-0.472,1.416-1.248c0.092-0.645-0.135-1.237-0.842-1.336
		c-0.492-0.07-0.938,0.191-1.01,0.702c-0.064,0.457,0.229,0.843,0.686,0.906c0.215,0.03,0.504-0.032,0.633-0.215L296.566,100.13z
		 M298.76,100.951c0.037-0.195,0.306-0.35,0.46-0.446c0.396-0.252,0.921-0.606,0.854-1.147c-0.064-0.533-0.604-0.715-1.077-0.655
		c-0.262,0.03-0.585,0.14-0.795,0.297l0.062,0.519l0.205-0.024c0.038-0.3,0.223-0.447,0.51-0.481c0.27-0.031,0.556,0.141,0.59,0.422
		c0.061,0.5-0.697,0.783-1.011,1.243c-0.167,0.246-0.134,0.407-0.104,0.699l1.879-0.229l-0.071-0.584l-0.178,0.021
		c-0.021,0.207-0.128,0.226-0.302,0.245L298.76,100.951z M301.935,99.977c-0.095-0.271-0.047-0.527,0.249-0.631
		c0.271-0.094,0.502,0.066,0.592,0.325c0.091,0.263,0.015,0.54-0.265,0.636C302.237,100.4,302.024,100.234,301.935,99.977z
		 M301.717,99.332c-0.267,0.189-0.378,0.488-0.268,0.807c0.182,0.531,0.684,0.621,1.164,0.457c0.483-0.168,0.815-0.598,0.637-1.115
		c-0.102-0.299-0.396-0.474-0.704-0.432c0.21-0.164,0.295-0.391,0.206-0.646c-0.148-0.43-0.645-0.428-1.003-0.305
		c-0.353,0.123-0.736,0.457-0.597,0.862c0.076,0.222,0.323,0.396,0.562,0.367L301.717,99.332z M301.845,98.389
		c0.221-0.076,0.415-0.021,0.492,0.204c0.074,0.216-0.06,0.397-0.259,0.466c-0.213,0.073-0.412,0-0.487-0.219
		C301.517,98.621,301.641,98.457,301.845,98.389z"/>
	<path fill="#BAB9BA" d="M440.862,80.461c0,1.04-0.078,2.969-1.464,2.969c-1.255,0-1.523-1.812-1.523-2.969
		c0-1.602,0.289-3.104,1.523-3.104C440.746,77.357,440.862,78.859,440.862,80.461z M434.83,83.217c0,1.273-0.041,1.793-0.079,2.256
		h2.892c0.039-0.387,0.077-0.906,0.077-1.6c0.348,0.617,1.022,1.754,2.775,1.754c2.255,0,3.526-2.217,3.526-5.417
		c0-2.698-1.003-4.935-3.526-4.935c-1.407,0-2.216,0.732-2.583,1.639l-0.037-5.896h-3.045V83.217L434.83,83.217z M433.289,75.432
		h-3.047v5.627c0,1.291-0.346,2.14-1.327,2.14c-0.617,0-1.177-0.327-1.177-1.579v-6.188h-3.045v6.571
		c0,2.005,0.731,3.624,2.948,3.624c1.6,0,2.37-0.732,2.832-1.832c0.038,0.676,0.078,1.234,0.116,1.678h2.775
		c-0.059-0.521-0.077-1.138-0.077-2.102L433.289,75.432L433.289,75.432z M420.011,85.473h3.046V71.018h-3.046V85.473z
		 M418.856,72.443c-0.521-0.213-1.544-0.656-3.549-0.656c-2.734,0-6.051,1.966-6.051,6.9c0,4.26,2.583,7.016,6.265,7.016
		c1.716,0,2.834-0.309,3.372-0.48l-0.114-2.815c-0.31,0.137-1.214,0.715-2.756,0.715c-2.005,0-3.529-1.774-3.529-4.396
		c0-2.718,1.352-4.435,3.471-4.435c1.445,0,2.255,0.502,2.736,0.772L418.856,72.443z M400.322,85.473h3.043V71.018h-3.043V85.473z
		 M395.543,73.715h3.047v-2.697h-3.047V73.715z M395.543,85.473h3.047V75.432h-3.047V85.473z M388.165,85.473h3.587l3.142-10.041
		h-2.969l-1.83,7.149l-1.89-7.149h-3.161L388.165,85.473z M378.453,80.422c0-1.967,0.501-3.064,1.562-3.064s1.562,1.099,1.562,3.064
		c0,1.965-0.501,3.122-1.562,3.122S378.453,82.387,378.453,80.422z M375.293,80.422c0,3.046,1.637,5.205,4.722,5.205
		c3.084,0,4.722-2.159,4.722-5.205c0-3.007-1.638-5.146-4.722-5.146C376.93,75.275,375.293,77.415,375.293,80.422z M378.51,74.292
		h1.773l1.928-2.812h-2.659L378.51,74.292z M370.954,85.473H374v-6.574c0-2.004-0.734-3.623-2.949-3.623
		c-1.601,0-2.312,0.733-2.757,1.679c-0.424-1.002-1.156-1.679-2.602-1.679c-1.602,0-2.37,0.733-2.834,1.832
		c-0.038-0.674-0.077-1.233-0.114-1.676h-2.775c0.057,0.521,0.075,1.137,0.075,2.101v7.94h3.046v-5.629
		c0-1.271,0.347-2.14,1.352-2.14c0.5,0,1.059,0.31,1.059,1.58v6.188h3.045v-6.363c0-0.75,0.348-1.405,1.253-1.405
		c0.676,0,1.157,0.425,1.157,1.58L370.954,85.473L370.954,85.473z M352.472,80.422c0-1.967,0.5-3.064,1.562-3.064
		c1.059,0,1.559,1.099,1.559,3.064c0,1.965-0.5,3.122-1.559,3.122C352.972,83.544,352.472,82.387,352.472,80.422z M349.309,80.422
		c0,3.046,1.641,5.205,4.726,5.205c3.082,0,4.721-2.159,4.721-5.205c0-3.007-1.639-5.146-4.721-5.146
		C350.948,75.275,349.309,77.415,349.309,80.422z M341.853,77.568h1.658v5.09c0,2.197,1.368,2.969,2.949,2.969
		c0.982,0,1.812-0.154,2.12-0.27v-2.142c-0.309,0.136-0.578,0.214-1.003,0.214c-0.578,0-1.021-0.271-1.021-1.256v-4.605h1.967V75.43
		h-1.967v-3.007l-2.968,0.943v2.063h-1.736L341.853,77.568L341.853,77.568z M341.104,75.432h-3.046v5.627
		c0,1.291-0.347,2.14-1.329,2.14c-0.615,0-1.175-0.327-1.175-1.579v-6.188h-3.047v6.571c0,2.005,0.733,3.624,2.949,3.624
		c1.601,0,2.371-0.732,2.834-1.832c0.038,0.676,0.076,1.234,0.115,1.678h2.775c-0.059-0.521-0.077-1.138-0.077-2.102V75.432
		L341.104,75.432z M327.226,80.191H324.2l1.599-5.592L327.226,80.191z M328.671,85.473h3.237l-4.316-13.453h-3.47l-4.472,13.453
		h3.046l0.924-3.009h4.223L328.671,85.473z"/>
	<path fill="#BAB9BA" d="M328.845,90.299h-3.046v5.896c-0.404-0.906-1.213-1.639-2.621-1.639c-2.523,0-3.526,2.235-3.526,4.935
		c0,3.2,1.272,5.416,3.526,5.416c1.754,0,2.431-1.138,2.735-1.755c0.04,0.695,0.079,1.215,0.118,1.602h2.89
		c-0.037-0.463-0.076-0.984-0.076-2.256V90.299L328.845,90.299z M383.316,99.799c0-5.24-3.45-5.24-4.356-5.24
		c-2.871,0-4.45,2.447-4.45,5.146c0,3.063,1.561,5.203,5.087,5.203c1.042,0,2.197-0.212,3.182-0.578l-0.06-2.293
		c-0.751,0.405-1.791,0.79-2.833,0.79c-1.715,0-2.486-1.1-2.486-2.294h5.918L383.316,99.799L383.316,99.799z M377.398,98.874
		c0-0.539,0-2.466,1.562-2.466c1.253,0,1.58,1.193,1.58,2.466H377.398z M370.078,104.754h3.045V90.299h-3.045V104.754z
		 M365.301,92.996h3.045v-2.697h-3.045V92.996z M365.301,104.754h3.045V94.711h-3.045V104.754z M355.066,104.754h3.047v-5.63
		c0-1.29,0.347-2.138,1.33-2.138c0.615,0,1.175,0.326,1.175,1.578v6.188h3.046V98.18c0-2.005-0.733-3.623-2.948-3.623
		c-1.1,0-2.217,0.521-2.562,1.639l-0.039-5.896h-3.047L355.066,104.754L355.066,104.754z M354.009,91.725
		c-0.521-0.211-1.542-0.656-3.547-0.656c-2.735,0-6.052,1.968-6.052,6.899c0,4.261,2.582,7.017,6.265,7.017
		c1.716,0,2.833-0.308,3.373-0.479l-0.118-2.815c-0.307,0.138-1.213,0.713-2.753,0.713c-2.006,0-3.527-1.772-3.527-4.395
		c0-2.718,1.35-4.433,3.469-4.433c1.444,0,2.256,0.501,2.738,0.771L354.009,91.725z M338.943,99.799c0-5.24-3.449-5.24-4.355-5.24
		c-2.873,0-4.453,2.447-4.453,5.146c0,3.063,1.562,5.203,5.09,5.203c1.04,0,2.196-0.212,3.18-0.578l-0.059-2.293
		c-0.75,0.405-1.792,0.79-2.832,0.79c-1.717,0-2.486-1.1-2.486-2.294h5.917L338.943,99.799L338.943,99.799z M333.026,98.874
		c0-0.539,0-2.466,1.562-2.466c1.253,0,1.579,1.193,1.579,2.466H333.026z M322.812,99.743c0-1.601,0.113-3.104,1.465-3.104
		c1.231,0,1.521,1.504,1.521,3.104c0,1.155-0.269,2.968-1.521,2.968C322.89,102.711,322.812,100.783,322.812,99.743z"/>
</g>
<g>
	<path fill="#2D3136" d="M-361.61-90.762l0.036,22.423c0.003,2.077,0.916,2.823,2.37,2.82c1.449,0,2.366-0.751,2.36-2.825
		l-0.034-22.423l4.316-0.011l0.036,22.137c0.007,4.649-2.314,7.311-6.797,7.316c-4.486,0.01-6.816-2.646-6.824-7.298l-0.033-22.131
		L-361.61-90.762z"/>
	<path fill="#2D3136" d="M-339.843-61.725c-0.247-0.747-0.414-1.205-0.422-3.57l-0.005-4.568c-0.003-2.701-0.918-3.695-2.995-3.692
		l-1.576,0.002l0.016,11.837l-4.562,0.006l-0.048-29.068l6.893-0.011c4.733-0.007,6.775,2.191,6.779,6.675l0.006,2.285
		c0.003,2.988-0.95,4.945-2.98,5.902c2.283,0.95,3.033,3.15,3.039,6.182l0.004,4.484c0.005,1.411,0.047,2.447,0.507,3.527
		L-339.843-61.725z M-344.863-86.631l0.014,8.925l1.784-0.005c1.707,0,2.742-0.751,2.738-3.072l-0.004-2.867
		c-0.001-2.075-0.712-2.99-2.332-2.988L-344.863-86.631z"/>
	<path fill="#2D3136" d="M-319.063-84.141v1.038c0.008,2.989-0.905,4.902-2.938,5.86c2.45,0.95,3.407,3.152,3.417,6.225l0.002,2.366
		c0.005,4.483-2.354,6.896-6.926,6.9l-7.183,0.016l-0.047-29.07l6.894-0.009C-321.109-90.825-319.072-88.624-319.063-84.141z
		 M-328.163-86.659l0.014,7.684l1.786-0.006c1.704-0.002,2.737-0.751,2.735-3.074l-0.002-1.623
		c-0.007-2.076-0.711-2.986-2.333-2.982L-328.163-86.659z M-328.144-74.825l0.012,8.925l2.619-0.001
		c1.536-0.002,2.365-0.709,2.363-2.869l-0.006-2.531c-0.002-2.703-0.878-3.531-2.953-3.529L-328.144-74.825z"/>
	<path fill="#2D3136" d="M-301.039-61.786l-4.61,0.006l-0.797-5.271l-5.601,0.008l-0.785,5.273l-4.196,0.006l4.607-29.076
		l6.686-0.006L-301.039-61.786z M-311.477-70.99l4.401-0.007l-2.222-14.697L-311.477-70.99z"/>
	<path fill="#2D3136" d="M-294.879-82.847l0.033,21.052l-4.108,0.004l-0.045-29.064l5.731-0.012l4.716,17.396l-0.028-17.402
		l4.071-0.008l0.047,29.07l-4.69,0.006L-294.879-82.847z"/>
	<path fill="#2D3136" d="M-281.218-90.888l4.566-0.001l0.045,29.066l-4.568,0.002L-281.218-90.888z"/>
	<path fill="#2D3136" d="M-258.495-61.852l-4.613,0.009l-0.793-5.272l-5.606,0.006l-0.784,5.275l-4.193,0.008l4.609-29.075
		l6.681-0.011L-258.495-61.852z M-268.933-71.055l4.4-0.009l-2.225-14.694L-268.933-71.055z"/>
</g>
<g>
	<path fill="#2D3136" d="M-412.118-79.725l9.754,25.732l10.344,3.458l-8.061-39.089L-412.118-79.725z M-402.968-81.075l0.758,3.518
		l-1.764,0.671l-0.734-3.284L-402.968-81.075z M-405.916-72.989l1.335-0.393l0.692,2.334l-1.378,0.265L-405.916-72.989z
		 M-403.536-64.941l-0.521-1.762l1.1-0.204l0.484,1.895L-403.536-64.941z M-402.64-71.463l1.392-0.413l0.574,2.399l-1.43,0.343
		L-402.64-71.463z M-399.202-61.815l-1.262,0.002l-0.373-1.566l1.254-0.059L-399.202-61.815z"/>
	<path fill="#2D3136" d="M-420.39-73.059l9.533,16.135l6.906,2.321l-9.387-24.083L-420.39-73.059z M-414.268-65.316l-0.758-1.499
		l0.899-0.457l0.812,1.582L-414.268-65.316z M-409.226-60.805l0.48,1.111l-0.9,0.172l-0.477-1.074L-409.226-60.805z
		 M-411.535-66.632l0.729,1.643l-0.982,0.435l-0.688-1.597L-411.535-66.632z M-412.105-62.848l0.594,1.295l-0.744,0.193
		l-0.608-1.197L-412.105-62.848z M-414.143-69.861l-0.966-2.255l1.127-0.879l1.01,2.418L-414.143-69.861z"/>
	<path fill="#2D3136" d="M-398.679-90.792l8.215,40.805l0.367,0.125l8.869,2.889l-8.303-51.409L-398.679-90.792z M-394.514-75.811
		l1.951-0.359l0.629,3.416l-1.986,0.17L-394.514-75.811z M-392.349-64.042l-0.473-2.58l1.586-0.121l0.396,2.758L-392.349-64.042z
		 M-386.678-58.955l-1.794-0.188l-0.29-2.271l1.792,0.107L-386.678-58.955z M-387.61-70.04l-2.072,0.267l-0.414-3.382l2.037-0.375
		L-387.61-70.04z M-391.169-81.043l-1.129-4.521l2.554-1.225l0.876,5.139L-391.169-81.043z"/>
	<path fill="#2D3136" d="M-373.727-94.126"/>
	<polygon fill="#2D3136" points="-385.739,-94.631 -384.826,-87.686 -381.78,-87.438 -382.423,-93.934 	"/>
	<polygon fill="#2D3136" points="-377.937,-85.723 -377.75,-81.879 -375.569,-82.016 -375.613,-85.629 	"/>
	<polygon fill="#2D3136" points="-380.812,-77.676 -381.108,-81.638 -384.124,-81.45 -383.565,-77.021 	"/>
	<polygon fill="#2D3136" points="-375.27,-73.458 -375.362,-76.603 -377.479,-76.433 -377.258,-73.029 	"/>
	<polygon fill="#2D3136" points="-379.896,-68.486 -380.355,-72.711 -382.958,-71.915 -382.373,-67.63 	"/>
	<polygon fill="#2D3136" points="-374.96,-63.963 -375.129,-68.023 -377.028,-67.242 -376.751,-62.978 	"/>
	<polygon fill="#2D3136" points="-378.849,-56.844 -379.256,-61.481 -381.407,-60.24 -380.759,-55.465 	"/>
</g>
<line fill="none" stroke="#303030" stroke-miterlimit="10" x1="-452.12" y1="-143.437" x2="285.532" y2="-143.437"/>
<line fill="none" stroke="#303030" stroke-miterlimit="10" x1="-212.188" y1="-214.246" x2="-212.188" y2="-72.627"/>
<line fill="none" stroke="#303030" stroke-miterlimit="10" x1="-21.804" y1="162.584" x2="-21.804" y2="304.203"/>
<g>
	<path fill="#2D3136" d="M109.087-71.731l-1.255,0.248l-3.537-11.639L88.816-86.62c-0.051,0.507,0.133,0.938,0.552,1.293
		c0.291,0.266,0.602,0.449,0.931,0.551l13.159,2.947l0.419,1.312L92.372-83.14c-0.062,0.469,0.126,0.905,0.571,1.311
		c0.266,0.242,0.575,0.406,0.932,0.496c0.076,0.024,0.133,0.057,0.17,0.094l10.326,2.263l0.381,1.294l-9.812-2.206
		c-0.039,0.494,0.14,0.938,0.533,1.331c0.342,0.305,0.729,0.488,1.158,0.551l8.635,1.941l0.398,1.235l-9.433-2.034
		c-0.759-0.166-1.337-0.515-1.729-1.047c-0.521-0.672-0.799-1.426-0.837-2.262c-0.761-0.115-1.337-0.457-1.731-1.028
		c-0.519-0.646-0.785-1.389-0.798-2.225l-0.988-0.209c0,0.013-0.013,0.007-0.039-0.019c-0.747-0.103-1.337-0.451-1.768-1.046
		c-0.71-0.913-0.919-1.952-0.627-3.119c0.024-0.089,0.044-0.165,0.056-0.229l17.285,3.899l0.154-0.059l0.037,0.096l-0.076-0.057
		l0.113,0.113L109.087-71.731z"/>
	<path fill="#2D3136" d="M231.971-89.738c-0.508,1.749-1.326,4.228-2.453,7.435l-1.502,4.26h8.023l-1.482-4.26
		c-1.18-3.424-1.998-5.901-2.453-7.435H231.971z M232.482-90.84l7.625,21.316h-1.103l-2.644-7.626h-8.672l-2.681,7.626h-1.047
		l7.626-21.316H232.482z M220.751-89.928h-6.923v20.404h-1.026v-20.404h-6.903v-0.912h14.854L220.751-89.928L220.751-89.928z
		 M197.816-90.461c0.926,0.443,1.725,1.027,2.396,1.75l-0.646,0.723c-1.356-1.51-3.074-2.264-5.153-2.264
		c-1.483,0-2.681,0.374-3.595,1.122c-0.926,0.748-1.389,1.731-1.389,2.948c0,1.153,0.438,2.123,1.312,2.909
		c0.508,0.444,1.318,0.913,2.435,1.407l3.29,1.483c1.458,0.659,2.51,1.318,3.157,1.978c0.913,0.95,1.368,2.168,1.368,3.651
		c0,1.623-0.607,2.96-1.825,4.013c-1.242,1.064-2.853,1.597-4.83,1.597c-2.878,0-5.241-1.077-7.093-3.233l0.703-0.703
		c0.799,0.926,1.736,1.648,2.813,2.168c1.13,0.533,2.32,0.799,3.575,0.799c1.698,0,3.066-0.424,4.107-1.272
		c1.015-0.838,1.521-1.939,1.521-3.309c0-1.268-0.389-2.289-1.162-3.062c-0.506-0.494-1.431-1.046-2.775-1.654l-3.309-1.484
		c-1.269-0.557-2.213-1.133-2.834-1.73c-0.988-0.938-1.482-2.104-1.482-3.498c0-1.496,0.576-2.725,1.729-3.689
		c1.129-0.937,2.556-1.407,4.279-1.407C195.617-91.222,196.752-90.968,197.816-90.461z M174.846-91.222
		c1.203,0,2.346,0.254,3.424,0.761c0.912,0.432,1.711,1.014,2.396,1.75l-0.646,0.723c-1.381-1.51-3.105-2.264-5.174-2.264
		c-1.482,0-2.681,0.374-3.595,1.122c-0.912,0.735-1.368,1.72-1.368,2.948c0,1.153,0.438,2.123,1.312,2.909
		c0.507,0.444,1.318,0.913,2.434,1.407l3.29,1.483c1.444,0.659,2.49,1.318,3.138,1.978c0.914,0.95,1.368,2.168,1.368,3.651
		c0,1.623-0.606,2.96-1.823,4.013c-1.229,1.064-2.834,1.597-4.812,1.597c-2.891,0-5.262-1.077-7.112-3.233l0.724-0.703
		c0.785,0.926,1.719,1.648,2.797,2.168c1.127,0.533,2.326,0.799,3.593,0.799c1.698,0,3.062-0.424,4.089-1.272
		c1.014-0.838,1.521-1.939,1.521-3.309c0-1.268-0.387-2.289-1.16-3.062c-0.508-0.494-1.434-1.046-2.775-1.654l-3.291-1.484
		c-1.268-0.557-2.213-1.133-2.834-1.73c-0.988-0.938-1.482-2.104-1.482-3.498c0-1.496,0.569-2.725,1.711-3.689
		C171.695-90.751,173.121-91.222,174.846-91.222z M160.45-90.879v13.369c0,3.017-0.742,5.229-2.226,6.636
		c-1.205,1.128-2.808,1.692-4.812,1.692c-2.003,0-3.587-0.564-4.753-1.692c-1.473-1.407-2.207-3.619-2.207-6.636v-13.369h1.025
		v13.102c0,2.727,0.604,4.729,1.808,6.01c1.002,1.078,2.378,1.616,4.127,1.616c1.787,0,3.194-0.538,4.222-1.616
		c1.229-1.281,1.844-3.283,1.844-6.01v-13.102H160.45z M138.695-89.928h-6.903v20.404h-1.026v-20.404h-6.902v-0.912h14.832V-89.928
		L138.695-89.928z"/>
	<path fill="none" stroke="#2D3136" stroke-miterlimit="10" d="M116.922-80.307c0,4.907-1.736,9.097-5.211,12.57
		c-3.461,3.475-7.65,5.211-12.568,5.211c-4.907,0-9.097-1.736-12.57-5.211c-3.475-3.474-5.21-7.663-5.21-12.57
		c0-4.918,1.735-9.108,5.21-12.568c3.474-3.475,7.663-5.211,12.57-5.211c4.917,0,9.107,1.736,12.568,5.211
		C115.186-89.416,116.922-85.225,116.922-80.307z"/>
</g>
<g>
	<path fill="#2D3136" d="M-155.999-74.396c0,1.142-0.28,2.118-0.832,2.931c-0.558,0.811-1.378,1.428-2.461,1.846
		c-1.085,0.42-2.404,0.629-3.961,0.629c-1.482,0-2.755-0.227-3.815-0.682c-1.058-0.454-1.841-1.021-2.344-1.703
		c-0.505-0.68-0.758-1.364-0.758-2.05c0-0.456,0.16-0.844,0.482-1.168c0.324-0.322,0.733-0.483,1.229-0.483
		c0.433,0,0.766,0.106,0.998,0.316c0.234,0.213,0.455,0.51,0.666,0.896c0.427,0.734,0.932,1.285,1.523,1.648
		c0.59,0.363,1.394,0.545,2.412,0.545c0.828,0,1.508-0.184,2.037-0.552c0.529-0.369,0.794-0.79,0.794-1.265
		c0-0.727-0.274-1.256-0.824-1.59c-0.548-0.333-1.455-0.65-2.719-0.953c-1.422-0.354-2.579-0.725-3.474-1.113
		c-0.892-0.389-1.606-0.9-2.142-1.537c-0.533-0.635-0.801-1.418-0.801-2.346c0-0.828,0.246-1.61,0.741-2.346
		c0.494-0.738,1.223-1.326,2.188-1.765c0.96-0.438,2.125-0.659,3.486-0.659c1.07,0,2.032,0.111,2.885,0.334
		c0.853,0.222,1.565,0.52,2.135,0.893c0.571,0.372,1.006,0.787,1.304,1.242c0.295,0.453,0.444,0.898,0.444,1.33
		c0,0.477-0.159,0.864-0.476,1.166c-0.319,0.305-0.771,0.455-1.357,0.455c-0.421,0-0.782-0.121-1.08-0.363
		c-0.298-0.242-0.639-0.605-1.023-1.091c-0.312-0.403-0.68-0.727-1.104-0.968c-0.424-0.242-1.002-0.363-1.728-0.363
		c-0.745,0-1.366,0.159-1.86,0.476c-0.495,0.319-0.74,0.716-0.74,1.188c0,0.436,0.18,0.79,0.544,1.068
		c0.362,0.277,0.853,0.507,1.466,0.689c0.617,0.182,1.465,0.402,2.546,0.666c1.28,0.312,2.328,0.686,3.14,1.119
		c0.813,0.434,1.43,0.947,1.847,1.537C-156.211-75.826-155.999-75.153-155.999-74.396z"/>
	<path fill="#2D3136" d="M-151.034-87.718c-0.577,0-1.068-0.175-1.476-0.53c-0.408-0.354-0.615-0.853-0.615-1.498
		c0-0.584,0.211-1.068,0.629-1.445c0.419-0.379,0.906-0.567,1.462-0.567c0.534,0,1.008,0.171,1.422,0.515
		c0.415,0.342,0.622,0.843,0.622,1.498c0,0.637-0.201,1.133-0.604,1.491C-149.997-87.896-150.479-87.718-151.034-87.718z
		 M-148.99-83.449v11.944c0,0.828-0.197,1.454-0.591,1.877c-0.394,0.424-0.894,0.637-1.5,0.637c-0.604,0-1.097-0.217-1.474-0.65
		c-0.38-0.434-0.57-1.055-0.57-1.863v-11.822c0-0.818,0.19-1.434,0.57-1.848c0.377-0.414,0.869-0.621,1.474-0.621
		c0.606,0,1.106,0.207,1.5,0.621S-148.99-84.185-148.99-83.449z"/>
	<path fill="#2D3136" d="M-131.593-77.089v5.494c0,0.868-0.197,1.521-0.591,1.954s-0.914,0.65-1.561,0.65
		c-0.627,0-1.134-0.217-1.521-0.65c-0.389-0.434-0.583-1.086-0.583-1.954v-6.585c0-1.038-0.035-1.846-0.106-2.423
		c-0.07-0.575-0.264-1.045-0.575-1.415c-0.312-0.369-0.809-0.552-1.483-0.552c-1.354,0-2.242,0.464-2.672,1.392
		c-0.429,0.93-0.642,2.262-0.642,3.998v5.585c0,0.858-0.197,1.507-0.587,1.946c-0.386,0.439-0.899,0.658-1.535,0.658
		c-0.625,0-1.136-0.219-1.537-0.658c-0.397-0.439-0.597-1.088-0.597-1.946v-11.823c0-0.778,0.178-1.368,0.538-1.771
		c0.356-0.402,0.83-0.605,1.416-0.605c0.564,0,1.035,0.189,1.415,0.568c0.378,0.379,0.567,0.901,0.567,1.566v0.395
		c0.717-0.859,1.482-1.49,2.301-1.893c0.816-0.403,1.725-0.605,2.724-0.605c1.04,0,1.933,0.207,2.681,0.62
		c0.747,0.413,1.364,1.038,1.846,1.878c0.699-0.848,1.444-1.477,2.241-1.886c0.797-0.408,1.683-0.612,2.649-0.612
		c1.13,0,2.105,0.221,2.923,0.666c0.816,0.443,1.428,1.08,1.833,1.907c0.352,0.747,0.53,1.921,0.53,3.526v8.069
		c0,0.868-0.198,1.521-0.591,1.954c-0.395,0.434-0.914,0.65-1.561,0.65c-0.627,0-1.14-0.219-1.537-0.658
		c-0.399-0.439-0.599-1.088-0.599-1.946v-6.948c0-0.888-0.038-1.6-0.112-2.135c-0.078-0.535-0.281-0.984-0.614-1.348
		c-0.333-0.364-0.836-0.544-1.514-0.544c-0.546,0-1.062,0.161-1.551,0.483c-0.489,0.324-0.869,0.757-1.144,1.303
		C-131.443-80.088-131.593-78.856-131.593-77.089z"/>
	<path fill="#2D3136" d="M-114.716-83.479v0.5c0.777-0.959,1.584-1.664,2.422-2.113c0.84-0.447,1.787-0.672,2.849-0.672
		c1.272,0,2.441,0.327,3.512,0.983c1.069,0.655,1.915,1.614,2.536,2.876c0.618,1.262,0.93,2.758,0.93,4.481
		c0,1.271-0.18,2.439-0.536,3.505c-0.358,1.064-0.851,1.959-1.477,2.679c-0.628,0.722-1.366,1.278-2.219,1.666
		c-0.854,0.389-1.77,0.583-2.746,0.583c-1.182,0-2.173-0.238-2.977-0.712c-0.802-0.474-1.568-1.171-2.294-2.089v6.206
		c0,1.817-0.661,2.726-1.983,2.726c-0.777,0-1.291-0.234-1.545-0.705c-0.25-0.467-0.376-1.152-0.376-2.051v-17.833
		c0-0.788,0.171-1.375,0.515-1.763c0.343-0.388,0.812-0.584,1.406-0.584c0.586,0,1.064,0.199,1.433,0.598
		C-114.899-84.797-114.716-84.227-114.716-83.479z M-106.615-77.468c0-1.09-0.166-2.028-0.499-2.809
		c-0.333-0.782-0.796-1.384-1.388-1.802c-0.591-0.418-1.241-0.628-1.959-0.628c-1.141,0-2.102,0.448-2.885,1.347
		c-0.78,0.898-1.174,2.221-1.174,3.967c0,1.645,0.389,2.925,1.167,3.838c0.778,0.914,1.741,1.37,2.892,1.37
		c0.687,0,1.322-0.199,1.908-0.599c0.586-0.398,1.054-0.996,1.408-1.793S-106.615-76.338-106.615-77.468z"/>
	<path fill="#2D3136" d="M-99.771-71.504v-17.924c0-0.828,0.184-1.453,0.552-1.878c0.368-0.425,0.865-0.635,1.49-0.635
		c0.626,0,1.132,0.208,1.517,0.628c0.382,0.419,0.574,1.046,0.574,1.885v17.924c0,0.838-0.194,1.467-0.584,1.885
		c-0.389,0.42-0.891,0.629-1.507,0.629c-0.604,0-1.097-0.217-1.474-0.65C-99.582-70.075-99.771-70.696-99.771-71.504z"/>
	<path fill="#2D3136" d="M-80.453-76.379h-8.085c0.009,0.939,0.198,1.767,0.566,2.483c0.368,0.716,0.857,1.257,1.47,1.62
		c0.609,0.365,1.285,0.545,2.021,0.545c0.496,0,0.946-0.059,1.354-0.174c0.411-0.115,0.807-0.299,1.19-0.544
		c0.385-0.248,0.736-0.513,1.06-0.796c0.324-0.281,0.741-0.666,1.257-1.151c0.211-0.181,0.515-0.272,0.908-0.272
		c0.422,0,0.768,0.117,1.029,0.348c0.263,0.234,0.394,0.561,0.394,0.984c0,0.375-0.147,0.811-0.438,1.311
		c-0.295,0.5-0.736,0.979-1.326,1.438c-0.59,0.461-1.331,0.842-2.224,1.144c-0.893,0.302-1.922,0.454-3.081,0.454
		c-2.655,0-4.719-0.756-6.191-2.271c-1.475-1.514-2.212-3.566-2.212-6.161c0-1.222,0.183-2.354,0.546-3.398
		c0.362-1.046,0.893-1.94,1.59-2.688c0.695-0.746,1.553-1.318,2.573-1.717s2.149-0.598,3.392-0.598c1.614,0,2.999,0.34,4.155,1.021
		c1.157,0.682,2.019,1.561,2.597,2.641c0.575,1.08,0.861,2.182,0.861,3.301c0,1.039-0.295,1.715-0.893,2.021
		C-78.537-76.533-79.373-76.379-80.453-76.379z M-88.538-78.725h7.493c-0.1-1.414-0.481-2.471-1.143-3.172s-1.53-1.053-2.61-1.053
		c-1.028,0-1.878,0.356-2.538,1.068C-87.997-81.17-88.395-80.119-88.538-78.725z"/>
	<path fill="#2D3136" d="M-59.365-74.108c0,0.514-0.152,1.065-0.462,1.65c-0.307,0.585-0.776,1.143-1.408,1.672
		c-0.628,0.53-1.425,0.957-2.383,1.28c-0.959,0.322-2.04,0.484-3.242,0.484c-2.551,0-4.546-0.745-5.979-2.233
		c-1.432-1.488-2.149-3.484-2.149-5.986c0-1.697,0.329-3.195,0.984-4.497c0.656-1.302,1.605-2.309,2.847-3.021
		c1.243-0.712,2.724-1.066,4.451-1.066c1.07,0,2.051,0.156,2.945,0.469c0.893,0.312,1.649,0.717,2.268,1.211
		c0.625,0.494,1.098,1.022,1.426,1.582c0.328,0.561,0.491,1.082,0.491,1.566c0,0.495-0.183,0.914-0.552,1.258
		c-0.368,0.342-0.816,0.514-1.342,0.514c-0.341,0-0.627-0.088-0.852-0.264c-0.229-0.178-0.483-0.463-0.768-0.854
		c-0.503-0.768-1.03-1.344-1.581-1.727c-0.551-0.384-1.249-0.574-2.098-0.574c-1.22,0-2.204,0.477-2.95,1.43
		c-0.75,0.953-1.12,2.258-1.12,3.914c0,0.775,0.094,1.49,0.286,2.142c0.191,0.651,0.469,1.205,0.834,1.665
		c0.361,0.46,0.803,0.809,1.317,1.046c0.513,0.235,1.077,0.354,1.694,0.354c0.827,0,1.537-0.19,2.127-0.574
		c0.592-0.384,1.114-0.97,1.568-1.755c0.251-0.465,0.523-0.83,0.815-1.092c0.293-0.262,0.651-0.394,1.076-0.394
		c0.503,0,0.923,0.192,1.255,0.576C-59.532-74.951-59.365-74.542-59.365-74.108z"/>
	<path fill="#2D3136" d="M-52.278-74.956v3.451c0,0.838-0.198,1.467-0.591,1.885c-0.395,0.42-0.894,0.629-1.5,0.629
		c-0.596,0-1.083-0.213-1.467-0.637c-0.385-0.423-0.577-1.049-0.577-1.877V-83.01c0-1.857,0.673-2.786,2.017-2.786
		c0.684,0,1.18,0.217,1.482,0.651c0.303,0.433,0.469,1.074,0.499,1.923c0.495-0.849,1.001-1.49,1.521-1.923
		c0.521-0.435,1.215-0.651,2.084-0.651c0.867,0,1.711,0.217,2.525,0.651c0.818,0.433,1.229,1.01,1.229,1.726
		c0,0.505-0.174,0.922-0.522,1.25c-0.35,0.327-0.724,0.492-1.127,0.492c-0.153,0-0.519-0.095-1.099-0.28
		c-0.58-0.188-1.093-0.28-1.535-0.28c-0.607,0-1.102,0.158-1.486,0.477c-0.384,0.319-0.68,0.788-0.893,1.416
		c-0.213,0.626-0.358,1.369-0.438,2.232C-52.239-77.25-52.278-76.197-52.278-74.956z"/>
	<path fill="#2D3136" d="M-32.66-76.379h-8.082c0.009,0.939,0.199,1.767,0.566,2.483c0.369,0.717,0.858,1.257,1.47,1.62
		c0.608,0.365,1.284,0.545,2.021,0.545c0.494,0,0.946-0.059,1.354-0.174c0.41-0.115,0.807-0.299,1.191-0.544
		c0.381-0.248,0.735-0.513,1.059-0.796c0.323-0.281,0.74-0.666,1.256-1.151c0.211-0.181,0.516-0.272,0.91-0.272
		c0.421,0,0.766,0.117,1.027,0.348c0.263,0.234,0.395,0.561,0.395,0.984c0,0.375-0.147,0.811-0.438,1.311
		c-0.296,0.5-0.736,0.979-1.327,1.438c-0.591,0.461-1.331,0.842-2.227,1.144c-0.891,0.302-1.919,0.454-3.079,0.454
		c-2.655,0-4.719-0.756-6.191-2.271c-1.476-1.514-2.212-3.566-2.212-6.161c0-1.222,0.183-2.354,0.546-3.398
		c0.363-1.046,0.893-1.94,1.589-2.688c0.696-0.746,1.554-1.318,2.575-1.717c1.018-0.399,2.148-0.598,3.39-0.598
		c1.616,0,3.001,0.34,4.156,1.021c1.155,0.681,2.021,1.561,2.597,2.641c0.577,1.08,0.863,2.182,0.863,3.301
		c0,1.039-0.298,1.715-0.894,2.021C-30.74-76.533-31.578-76.379-32.66-76.379z M-40.742-78.725h7.492
		c-0.1-1.414-0.481-2.471-1.142-3.172s-1.53-1.053-2.613-1.053c-1.028,0-1.874,0.356-2.536,1.068
		C-40.201-81.17-40.602-80.119-40.742-78.725z"/>
	<path fill="#2D3136" d="M-24.227-83.221l2.695,9.234l2.453-8.583c0.263-0.899,0.455-1.513,0.582-1.839
		c0.126-0.328,0.365-0.643,0.711-0.939c0.351-0.297,0.826-0.447,1.431-0.447c0.616,0,1.099,0.15,1.447,0.447
		c0.347,0.297,0.591,0.62,0.734,0.969c0.143,0.348,0.337,0.951,0.59,1.81l2.454,8.583l2.723-9.234
		c0.184-0.667,0.328-1.148,0.44-1.445c0.11-0.299,0.295-0.561,0.558-0.787c0.266-0.229,0.643-0.342,1.137-0.342
		s0.923,0.172,1.287,0.516c0.365,0.342,0.546,0.746,0.546,1.21c0,0.425-0.157,1.065-0.472,1.923l-3.374,9.901
		c-0.293,0.837-0.521,1.442-0.683,1.817c-0.161,0.373-0.414,0.705-0.764,0.998c-0.349,0.293-0.824,0.439-1.432,0.439
		c-0.623,0-1.115-0.156-1.477-0.469c-0.355-0.312-0.62-0.697-0.792-1.15c-0.173-0.455-0.36-1.046-0.562-1.772l-2.362-8.054
		l-2.284,8.054c-0.304,1.12-0.631,1.966-0.985,2.536c-0.354,0.57-0.973,0.855-1.863,0.855c-0.452,0-0.839-0.088-1.157-0.266
		c-0.316-0.177-0.581-0.428-0.795-0.756c-0.211-0.328-0.397-0.719-0.56-1.167c-0.159-0.448-0.286-0.804-0.38-1.066l-3.344-9.901
		c-0.333-0.929-0.5-1.568-0.5-1.923c0-0.444,0.177-0.843,0.531-1.194c0.354-0.354,0.787-0.531,1.302-0.531
		c0.685,0,1.149,0.196,1.392,0.584C-24.757-84.822-24.498-84.159-24.227-83.221z"/>
</g>
<g>
	<path fill="#BAB9BA" d="M371.372,3.859h4.44c0.323-1.019-0.061-1.2-1.832-1.2C371.992,2.659,371.697,2.841,371.372,3.859z
		 M367.829,5.387l0.258-0.818c1.037-3.209,2.786-3.903,5.012-3.903h0.91l6.855-0.011l0.597-1.853h3.048l-0.62,1.929h4.73
		l-0.768,2.36h-4.732l-1.05,3.255c-0.202,0.626,0.197,0.765,0.927,0.765c0.982,0,1.33-0.236,1.582-1.011l0.179-0.57h2.672
		l-0.331,1.032c-0.524,1.615-1.939,2.841-4.367,2.841h-1.204c-1.872,0-3.292-0.618-2.539-2.959l1.084-3.353h-1.162
		c-0.046,0.355-0.144,0.769-0.294,1.229l-0.462,1.426h-7.4l-0.169,0.525c-0.281,0.889,0.243,1.135,1.51,1.135h0.936
		c1.652,0,1.878-0.46,2.042-0.963h2.855l-0.114,0.367c-0.688,2.126-2.648,2.592-4.858,2.592h-2.281
		C368.653,9.402,366.656,9.001,367.829,5.387z M335.226,6.443l1.087-3.353h-1.521l0.736-2.3h1.525l0.642-1.989h3.057l-0.646,1.989
		l4.73,0.006l-0.745,2.294h-4.729l-1.053,3.255c-0.199,0.626,0.198,0.765,0.933,0.765c0.982,0,1.326-0.236,1.581-1.011l0.181-0.57
		h2.667l-0.332,1.032c-0.519,1.615-1.932,2.841-4.365,2.841h-1.207C335.894,9.402,334.473,8.781,335.226,6.443z M348.588,0.791
		l-2.741,8.479H342.8l2.738-8.479H348.588L348.588,0.791z M349.741-2.762l-0.807,2.498h-3.06l0.811-2.498H349.741z M347.444,5.381
		l0.259-0.812c1.041-3.209,2.786-3.903,5.012-3.903h3.429c2.248,0,3.354,0.861,2.727,2.812l-0.246,0.759h-2.954
		c0.281-0.866-0.049-1.18-1.383-1.18h-1.172c-1.272,0-1.992,0.37-2.291,1.3l-0.368,1.124c-0.354,1.102,0.205,1.434,1.163,1.434
		l1.549-0.008c0.856,0.008,1.705-0.196,1.957-0.979l0.064-0.197h2.954l-0.245,0.748c-0.731,2.274-2.759,2.925-4.498,2.925h-3.117
		C348.27,9.402,346.271,9.001,347.444,5.381z M357.245,9.271l3.885-12.032h3.051l-2.054,6.351h0.57l3.583-2.792h4.007l-5.354,3.968
		l3.104,4.506h-3.885l-2.163-3.389h-0.603l-1.099,3.389L357.245,9.271L357.245,9.271z"/>
	<path fill="#BAB9BA" d="M313.396,5.002c0-5.892,4.511-10.683,10.119-10.788c-1.391,2.608-2.444,5.777-2.544,9.438
		c-0.024,0.869,0.106,1.873,0.315,2.839c0.403,1.475,1.38,4.741,1.38,4.741s0.369-1.392,0.624-1.974
		c4.66-10.579,13.855-14.74,13.855-14.74l-6-8.773c0,0-2.526,1.44-4.981,4.476c2.777-3.858,5.654-6.015,5.654-6.015l8.169,11.605
		c0,0-10.202,3.293-15.137,12.661c2.303-3.697,5.354-6.23,8.237-7.952c0.591,1.367,0.923,2.88,0.923,4.48
		c0,5.963-4.614,10.791-10.307,10.791C318.011,15.793,313.396,10.965,313.396,5.002z M339.988-6.017c0-0.884,0.688-1.557,1.5-1.557
		c0.815,0,1.499,0.673,1.499,1.557c0,0.897-0.684,1.566-1.499,1.566C340.675-4.45,339.988-5.119,339.988-6.017z M340.253-6.017
		c0,0.761,0.543,1.336,1.235,1.336s1.227-0.575,1.227-1.336c-0.003-0.749-0.533-1.321-1.227-1.321
		C340.796-7.338,340.253-6.766,340.253-6.017z M340.908-5.101v-1.815h0.673c0.417,0,0.61,0.17,0.61,0.515
		c0,0.323-0.202,0.465-0.46,0.496l0.496,0.805h-0.292l-0.468-0.784h-0.292V-5.1L340.908-5.101L340.908-5.101z M341.177-6.689v0.577
		h0.288c0.232,0,0.458-0.018,0.458-0.297c0-0.243-0.2-0.28-0.382-0.28H341.177z"/>
	<path fill="#BAB9BA" d="M273.16,4.571l-0.268,0.826c-0.41,1.284,0.131,1.564,1.338,1.564h1.6c1.466,0,1.775-0.532,2.084-1.482
		l0.318-0.988c0.316-0.951,0.336-1.481-1.123-1.481h-1.603C274.302,3.01,273.576,3.29,273.16,4.571z M267.657,12.172l3.694-11.421
		h2.949l-0.41,1.266c0.655-0.754,1.562-1.396,3.342-1.396h0.877c3.858,0,3.865,1.445,3.162,3.602l-0.492,1.527
		c-0.698,2.155-1.639,3.606-5.496,3.606h-0.615c-1.734,0-2.258-0.252-2.503-1.6l-1.46,4.415L267.657,12.172L267.657,12.172z
		 M293.652,0.751l-2.743,8.467h-3.038l0.436-1.358c-0.949,1.179-2.119,1.497-3.756,1.497c-1.89,0-4.494-0.086-3.309-3.739
		l1.568-4.866l3.045-0.005l-1.573,4.871c-0.269,0.829,0.237,1.249,1.562,1.249h0.707c1.302-0.008,2.281-0.638,2.675-1.85
		l1.377-4.266H293.652z M291.333,9.218l2.741-8.467h3.048l-0.44,1.355c0.95-1.177,2.116-1.486,3.752-1.486
		c1.357,0,5.501-0.005,5.501-0.005l0.602-1.854h3.045l-0.603,1.854h4.726l-0.782,2.43h-4.729l-1.046,3.253
		c-0.214,0.629,0.19,0.769,0.917,0.769c0.99,0,1.336-0.239,1.588-1.014l0.184-0.573h2.665l-0.331,1.029
		c-0.523,1.617-1.933,2.848-4.363,2.848h-1.205c-1.877,0-3.3-0.612-2.539-2.961l1.086-3.351h-1.116
		c-0.031,0.372-0.117,0.807-0.279,1.311l-1.573,4.862h-3.05l1.575-4.862c0.27-0.829-0.235-1.252-1.568-1.252h-0.694
		c-1.306,0-2.286,0.636-2.677,1.847l-1.383,4.268L291.333,9.218L291.333,9.218z"/>
	<path fill="#BAB9BA" d="M415.913,9.235l2.808-8.509h2.912c0,0,0.035,0-0.514,1.664c0.562-1.221,1.8-1.801,3.306-1.801h1.166
		c1.445,0,2.218,0.652,2.36,1.993c1.011-1.549,1.812-1.993,3.551-1.993h0.944c2.789,0,3.325,1.424,2.523,3.859l-1.578,4.786h-3.063
		l1.511-4.572c0.388-1.169,0.229-1.57-1.562-1.57c-1.47,0-2.177,0.333-2.551,1.455l-1.548,4.688h-3.061l1.593-4.823
		c0.346-1.055,0.069-1.319-1.782-1.321c-1.311,0.002-2.047,0.335-2.479,1.659l-1.473,4.485H415.913z M388.256,9.235l1.123-3.406
		h3.348l-1.119,3.406H388.256z M394.472,5.333l0.274-0.821c1.055-3.224,2.821-3.922,5.051-3.922h3.443
		c2.267,0,3.372,0.864,2.726,2.818l-0.249,0.771h-2.97c0.286-0.862-0.04-1.187-1.381-1.187h-1.183c-1.271,0-1.996,0.365-2.309,1.309
		L397.5,5.43c-0.363,1.104,0.201,1.439,1.155,1.439h1.562c0.864,0,1.705-0.202,1.969-0.99l0.067-0.195h2.96l-0.244,0.748
		c-0.75,2.285-2.783,2.938-4.539,2.927l-3.122,0.011C395.278,9.358,393.276,8.971,394.472,5.333z M405.27,5.999l0.668-2.041
		c0.928-2.798,2.923-3.368,4.479-3.368h4.578c1.563,0,3.174,0.57,2.255,3.368l-0.669,2.041c-0.922,2.798-2.911,3.359-4.474,3.359
		h-4.58C405.972,9.369,404.347,8.797,405.27,5.999z M408.798,4.584l-0.26,0.797c-0.4,1.217,0.163,1.581,1.562,1.581h0.74
		c1.977,0.007,2.45-0.263,2.818-1.394l0.391-1.176c0.367-1.135,0.073-1.4-1.901-1.4h-0.735C410.009,2.992,409.2,3.357,408.798,4.584
		z"/>
</g>
<g>
	<path fill="#BAB9BA" d="M188.189,154.43c0-1.296,0.011-2.591-0.004-3.881c-0.006-0.396,0.131-0.584,0.537-0.555
		c0.195,0.015,0.394,0.003,0.59,0.005c0.68,0,0.722,0.039,0.724,0.704c0,2.266-0.004,4.529,0.004,6.794
		c0,0.39,0.021,0.788,0.103,1.167c0.324,1.436,1.461,2.193,3.133,2.133c1.326-0.048,2.386-0.982,2.608-2.316
		c0.052-0.289,0.073-0.586,0.075-0.879c0.007-2.334,0.002-4.67,0.002-7.002c0-0.557,0.047-0.603,0.607-0.601
		c1.363,0.004,1.248-0.163,1.248,1.235c-0.002,2.193,0.011,4.389-0.004,6.58c-0.016,2.369-1.379,4.088-3.641,4.623
		c-2.523,0.6-5.049-0.711-5.749-3.02c-0.157-0.516-0.207-1.075-0.224-1.613C188.166,156.68,188.189,155.555,188.189,154.43z"/>
	<path fill="#BAB9BA" d="M281.518,162.544c-0.533,0.154-0.854-0.151-1.062-0.726c-0.205-0.563-0.495-1.098-0.73-1.65
		c-0.1-0.238-0.229-0.333-0.498-0.331c-1.713,0.015-3.432,0.013-5.142,0.003c-0.258-0.005-0.362,0.088-0.456,0.312
		c-0.273,0.658-0.584,1.301-0.863,1.959c-0.135,0.31-0.33,0.465-0.679,0.436c-0.253-0.017-0.506,0.002-0.759-0.002
		c-0.465-0.013-0.575-0.186-0.381-0.617c0.628-1.389,1.259-2.777,1.895-4.164c1.108-2.431,2.221-4.861,3.33-7.293
		c0.107-0.24,0.178-0.509,0.535-0.5c0.331,0.008,0.4,0.254,0.504,0.48c1.711,3.773,3.42,7.544,5.129,11.316
		c0.301,0.664,0.225,0.776-0.509,0.776C281.76,162.544,281.688,162.544,281.518,162.544z M274.471,158.3c1.504,0,2.938,0,4.418,0
		c-0.736-1.64-1.459-3.239-2.222-4.934C275.911,155.062,275.198,156.664,274.471,158.3z"/>
	<path fill="#BAB9BA" d="M214.783,162.581c-1.579-0.054-2.819-0.462-3.889-1.347c-0.258-0.217-0.344-0.424-0.123-0.713
		c0.127-0.166,0.228-0.353,0.345-0.527c0.253-0.387,0.463-0.428,0.813-0.119c0.834,0.729,1.77,1.167,2.909,1.085
		c1.07-0.073,1.832-0.83,1.767-1.792c-0.039-0.648-0.431-1.102-0.944-1.416c-0.568-0.352-1.179-0.643-1.784-0.925
		c-0.88-0.411-1.777-0.808-2.406-1.579c-1.641-2.005-0.488-4.891,2.116-5.335c1.464-0.249,2.812,0.052,4.067,0.815
		c0.473,0.287,0.513,0.459,0.205,0.914c-0.527,0.768-0.443,1-1.48,0.34c-0.787-0.502-1.648-0.701-2.572-0.465
		c-0.597,0.149-1.051,0.496-1.218,1.104c-0.169,0.615-0.046,1.22,0.47,1.604c0.563,0.422,1.209,0.741,1.83,1.082
		c0.699,0.383,1.444,0.688,2.113,1.113c1.193,0.766,1.762,1.896,1.521,3.311c-0.246,1.439-1.232,2.254-2.575,2.652
		C215.509,162.514,215.04,162.542,214.783,162.581z"/>
	<path fill="#BAB9BA" d="M235.861,162.581c-1.069-0.033-2.307-0.438-3.381-1.319c-0.271-0.224-0.363-0.438-0.121-0.744
		c0.129-0.164,0.225-0.354,0.342-0.526c0.24-0.362,0.451-0.392,0.79-0.111c0.618,0.519,1.274,0.962,2.106,1.065
		c0.562,0.07,1.114,0.063,1.644-0.193c1.036-0.504,1.313-1.757,0.469-2.543c-0.511-0.479-1.163-0.811-1.776-1.163
		c-0.742-0.422-1.558-0.729-2.252-1.211c-1.176-0.812-1.656-2.177-1.283-3.479c0.396-1.395,1.391-2.164,2.787-2.422
		c1.461-0.271,2.812,0.053,4.063,0.826c0.448,0.278,0.489,0.452,0.19,0.885c-0.533,0.782-0.447,1.02-1.474,0.364
		c-0.788-0.5-1.646-0.709-2.571-0.479c-0.613,0.154-1.078,0.51-1.24,1.135c-0.161,0.615-0.025,1.218,0.494,1.596
		c0.567,0.414,1.197,0.766,1.84,1.067c0.992,0.464,2.013,0.87,2.781,1.688c1.478,1.575,1.055,3.991-0.879,5.034
		C237.699,162.427,236.953,162.596,235.861,162.581z"/>
	<path fill="#BAB9BA" d="M254.723,151.848c-0.871,0-1.697,0-2.523,0c-0.663,0-0.705-0.041-0.705-0.682
		c-0.002-0.984-0.002-0.984,0.986-0.984c2.224,0,4.444,0,6.666,0c0.557,0,0.627,0.07,0.633,0.629c0.01,1.037,0.01,1.037-1.034,1.037
		c-0.716,0-1.433,0-2.211,0c0,0.199,0,0.362,0,0.525c0,3.162,0,6.326,0,9.491c0,0.686-0.031,0.713-0.714,0.717
		c-1.217,0.007-1.096,0.063-1.096-1.081c-0.002-3.039-0.002-6.076-0.002-9.111C254.723,152.225,254.723,152.059,254.723,151.848z"/>
	<path fill="#BAB9BA" d="M169.962,151.848c-0.872,0-1.698,0-2.524,0c-0.66,0-0.703-0.041-0.705-0.682
		c-0.002-0.984-0.002-0.984,0.988-0.984c2.221,0,4.443,0,6.666,0c0.555,0,0.627,0.07,0.631,0.629c0.01,1.037,0.01,1.037-1.033,1.037
		c-0.717,0-1.434,0-2.209,0c0,0.199,0,0.362,0,0.525c0,3.162,0,6.326,0,9.491c-0.002,0.686-0.03,0.713-0.713,0.717
		c-1.22,0.007-1.101,0.063-1.101-1.081c0-3.039,0-6.076,0-9.111C169.962,152.225,169.962,152.059,169.962,151.848z"/>
</g>
<g>
	<path fill="#2C3035" d="M147.016,65.466c-1.77,0-3.203-1.433-3.203-3.2v-5.883c-2.196,1.713-4.949,2.53-7.594,2.53
		c-3.244,0-6.207-1.161-8.34-3.272c-2.234-2.207-3.426-3.664-3.426-3.664v3.35c0,1.77-1.436,3.203-3.205,3.203h-4.309
		c-1.771,0-3.205-1.434-3.205-3.203v-1.783c-0.344,0.324-0.701,0.63-1.07,0.914c-1.961,1.494-4.156,2.406-7.346,3.049
		c-0.355,0.072-0.756,0.105-1.26,0.105c-0.609,0-1.373-0.053-2.081-0.113c-0.654,0.902-1.557,1.8-3.025,2.43
		c-1.389,0.592-2.91,0.895-4.527,0.895c-3.459,0-6.826-1.389-9.031-3.49c-0.162,0.102-0.334,0.189-0.516,0.264
		c-1.449,0.586-3.867,1.286-7.158,1.286c-3.449,0-6.354-1.098-8.441-3.022c-0.252,1.517-1.57,2.673-3.158,2.673h-4.311
		c-1.77,0-3.4-1.435-3.4-3.204c0,1.77-1.629,3.204-3.398,3.204h-4.346c-0.441,0-0.863-0.091-1.246-0.253
		c-1.416,0.521-3.221,0.604-4.184,0.604c-2.434,0-4.646-0.889-6.072-2.438c-1.461-1.574-2.178-3.846-2.178-6.936V44.6
		c-1.406-0.339-2.453-1.604-2.453-3.117V38.26c0-1.742,1.391-3.158,3.123-3.202l0.541-2.301c0.332-1.406,1.566-2.417,3.01-2.466
		l3.08-0.104c0.035-0.001,0.072-0.002,0.107-0.002c0.83,0,1.629,0.322,2.227,0.9c0.398,0.384,0.684,0.86,0.842,1.378v-2.019
		c0-1.769,1.434-3.204,3.203-3.204h4.346c1.77,0,3.203,1.435,3.203,3.204v4.431c0.633-0.136,1.285-0.204,1.947-0.204
		c3.078,0,6.176,1.492,7.863,4.717c2.061-2.924,5.352-4.717,9.238-4.717c6.799,0,10.1,5.018,10.518,10.337l4.541,1.252l0.012-9.349
		l0.631-1.919l-3.455-0.714c-0.877-0.183-1.637-0.725-2.098-1.497c-0.459-0.771-0.572-1.699-0.316-2.559
		c0.174-0.58,0.303-1.134,0.428-1.67c0.521-2.241,1.17-5.03,5.025-6.575c1.094-0.439,2.113-0.71,3.809-0.71
		c4.008-0.001,7.383,1.185,9.502,3.337c1.051,1.068,1.785,2.353,2.178,3.794c3.021,0.923,5.791,2.984,7.719,5.821
		c0.203,0.302,0.398,0.609,0.578,0.921c0.236-0.055,0.484-0.085,0.738-0.085h3.475c0.4,0,0.787,0.073,1.141,0.21
		c1.072-0.457,2.308-0.699,3.662-0.699c1.164,0,2.441,0.19,3.176,0.473c0.666,0.258,1.205,0.718,1.564,1.29
		c1.812-1.067,3.986-1.658,6.406-1.658c2.805,0,5.377,0.859,7.385,2.446c0.152-0.395,0.381-0.761,0.68-1.072
		c0.605-0.633,1.441-0.989,2.316-0.989h3.783c0.639,0,1.236,0.188,1.74,0.514c1.315-0.591,2.797-0.898,4.393-0.898
		c2.896,0,5.555,1.226,7.484,3.452c1.9,2.192,2.902,5.112,2.902,8.442c0,0.084-0.002,0.166-0.005,0.248v0.062
		c-0.143,7.902-5.631,12.037-10.979,12.037c-0.569,0-1.129-0.044-1.668-0.131v3.482c0,1.769-1.434,3.2-3.202,3.2H147.016z"/>
	<path fill="#FFFFFF" d="M98.07,46.559c-1.047,0.643-1.9,0.064-1.9-1.281v-7.384c0-1.347,0.854-1.923,1.9-1.281l6.2,3.806
		c1.045,0.643,1.045,1.692,0,2.335L98.07,46.559z"/>
	<path fill="#FFFFFF" d="M44.395,33.388l-3.078,0.104l-1.127,4.766h-2.451v3.223h2.451v8.027c0,2.244,0.422,3.785,1.332,4.768
		c0.807,0.875,2.137,1.4,3.715,1.4c1.367,0,2.488-0.176,3.119-0.421l-0.07-3.294c-0.385,0.105-0.945,0.211-1.682,0.211
		c-1.646,0-2.209-1.087-2.209-3.154V41.48h4.102v-3.223h-4.102V33.388z M77.264,37.872c-5.285,0-8.148,4.389-8.332,8.948H68.93
		c-0.004,0.078-0.008,0.154-0.008,0.234c0,5.221,3.262,8.62,8.799,8.62c2.451,0,4.484-0.456,5.957-1.052l-0.631-2.979
		c-1.297,0.49-2.734,0.771-4.732,0.771c-2.732,0-5.15-1.332-5.254-4.415h11.424c0.043-0.246,0.09-0.594,0.115-1.021h0.008
		c0.012-0.197,0.018-0.572,0.018-0.804C84.625,42.429,82.803,37.872,77.264,37.872 M80.557,44.986h-7.496
		c0.174-1.752,1.295-4.17,3.959-4.17C79.893,40.816,80.594,43.41,80.557,44.986 M60.162,37.872c-1.086,0-2.102,0.282-2.943,0.772
		c-0.91,0.489-1.611,1.155-2.137,1.961h-0.07V30.443h-4.346v24.882h4.346V45.126c0-0.489,0.033-0.945,0.174-1.295
		c0.455-1.298,1.648-2.419,3.33-2.419c2.383,0,3.295,1.857,3.295,4.346v9.567h4.311V45.268C66.121,39.8,63.072,37.872,60.162,37.872
		"/>
	<g>
		<path fill="#FFFFFF" d="M120.809,40.592l-0.262-2.334h-3.475c-0.029,1.575-0.133,3.189-0.133,5.503v2.604h-0.002v8.96h4.311V46.82
			v-0.325c0-0.492,0.07-0.948,0.141-1.333c0.387-1.928,1.787-3.259,3.855-3.259c0.525,0,1.217,0.174,1.566,0.244l0.563-4.119
			C126.828,37.817,121.914,36.883,120.809,40.592z"/>
		<path fill="#FFFFFF" d="M136.496,37.872c-5.121,0-8.785,3.397-8.828,8.948c0,0.029-0.002,0.062-0.002,0.095
			c0,5.466,3.717,8.797,8.553,8.797c4.266,0,8.594-2.854,8.752-8.892h0.004c0-0.062,0.004-0.123,0.004-0.188
			C144.979,41.447,141.58,37.872,136.496,37.872z M140.527,46.82c-0.027,3.391-1.736,5.771-4.17,5.771
			c-2.609,0-4.215-2.598-4.238-5.856c0.021-2.815,1.252-5.708,4.273-5.708c2.944,0,4.135,3.051,4.135,5.713
			C140.527,46.768,140.527,46.794,140.527,46.82z"/>
	</g>
	<path fill="#FFFFFF" d="M155.08,37.91c-1.15,0.241-2.193,0.706-3.02,1.294c-0.343,0.288-0.687,0.575-1.025,0.863l-0.379,0.377
		c-0.107-0.718-0.215-1.438-0.322-2.157h-3.344v8.525v0.153v15.38h4.314v-6.852c1.213,0.068,2.53,0.549,3.938,0.322
		c3.896-0.621,6.215-1.801,7.553-4.906c0.557-1.295,0.859-2.701,0.92-4.1l0,0C163.943,41.687,160.916,36.69,155.08,37.91z
		 M151.305,51.719v-4.752v-0.154v-2.916c1.021-1.437,2.209-2.5,3.938-2.588c2.825-0.044,4.041,2.728,3.979,5.514
		c-0.033,1.06-0.25,2.129-0.636,3.062C157.379,52.818,154.355,52.688,151.305,51.719z"/>
	<rect x="33.275" y="20.007" fill="none" width="136.45" height="47.986"/>
	<g>
		<g>
			<defs>
				<rect id="SVGID_1_" x="86.002" y="24.469" width="29.189" height="33.149"/>
			</defs>
			<clipPath id="SVGID_2_">
				<use xlink:href="#SVGID_1_"  overflow="visible"/>
			</clipPath>
			<path clip-path="url(#SVGID_2_)" fill="#FFFFFF" d="M105.166,31.089c0.072-4.754-4.191-6.621-8.809-6.62
				c-1.23,0-1.848,0.172-2.615,0.481c-2.951,1.182-2.648,3.089-3.578,6.191c3.754,0.782,7.512,1.566,11.266,2.351
				c1.931,0.476,4,0.606,5.658,1.334c1.471,0.646,2.613,1.767,3.471,3.042c1.135,1.69,2.01,4.589,1.174,7.315
				c-0.176,0.572-0.409,1.123-0.694,1.637c-0.494,0.893-1.136,1.675-1.867,2.259c-1.215,0.971-2.43,1.751-4.271,2.137
				c-2.137,0.445-4.288-0.289-6.033-0.694c-4.037-0.817-8.078-1.638-12.117-2.455h-0.053c-0.396,1.222-0.973,3.258-0.535,4.75
				c1.016,3.457,7.117,6.054,11.531,4.166c1.42-0.608,1.865-1.594,2.615-2.883c0,0,3.499,0.442,4.379,0.267
				c2.502-0.505,4.36-1.179,6.033-2.455c1.579-1.208,2.938-3.025,3.717-5.091c0.084-0.223,0.162-0.448,0.233-0.676
				C116.953,38.707,111.373,31.583,105.166,31.089"/>
		</g>
	</g>
</g>
</svg>
