<?xml version="1.0" encoding="utf-8"?>
<!-- Generator: Adobe Illustrator 16.0.0, SVG Export Plug-In . SVG Version: 6.00 Build 0)  -->
<!DOCTYPE svg PUBLIC "-//W3C//DTD SVG 1.1//EN" "http://www.w3.org/Graphics/SVG/1.1/DTD/svg11.dtd">
<svg version="1.1" id="Layer_1" xmlns="http://www.w3.org/2000/svg" xmlns:xlink="http://www.w3.org/1999/xlink" x="0px" y="0px"
	 width="203px" height="88px" viewBox="0 0 203 88" enable-background="new 0 0 203 88" xml:space="preserve">
<g>
	<path fill="#2C3035" d="M128.684,48.812l0.012-0.008L105.592,11.36l-0.015,0.008c-0.419-0.695-1.173-1.165-2.041-1.165
		c-0.841,0-1.572,0.432-2,1.084l-0.013-0.008L78.417,48.723l0.015,0.012c-0.247,0.375-0.395,0.82-0.395,1.305
		c0,1.32,1.072,2.391,2.398,2.391c0,0,0.008-0.004,0.015-0.004v0.023h46.21v-0.023c1.311-0.012,2.369-1.072,2.369-2.387
		C129.029,49.588,128.898,49.172,128.684,48.812z M110.252,31.011h-1.938c-0.105-0.01-0.217-0.015-0.326-0.015
		c-0.104,0-0.204,0.004-0.303,0.012c-0.58,0.055-1.096,0.261-1.549,0.617c-0.099,0.076-0.193,0.16-0.283,0.253
		c-0.299,0.298-0.521,0.626-0.668,0.982c-0.137,0.332-0.209,0.691-0.215,1.078l-0.016,4.64c-0.006-0.105-0.018-0.209-0.029-0.314
		v1.277c0,0.003,0,0.008,0,0.014c-0.06,0.859-0.234,1.672-0.521,2.436c-0.041,0.103-0.084,0.206-0.125,0.309
		c-0.424,0.979-1.041,1.874-1.856,2.69c-1.626,1.629-3.58,2.47-5.864,2.525h-2.917v-5.614h2.083c0.114,0.015,0.232,0.02,0.353,0.02
		c0.112,0,0.222-0.005,0.336-0.015c0.688-0.071,1.286-0.359,1.797-0.87c0.268-0.269,0.477-0.566,0.624-0.887
		c0.162-0.355,0.258-0.743,0.284-1.166v-4.74c-0.002-0.075-0.002-0.153-0.002-0.229c0-0.077,0-0.153,0.002-0.228
		c0.023-1.019,0.203-1.973,0.542-2.857c0.041-0.107,0.083-0.213,0.124-0.312c0.421-0.982,1.037-1.878,1.854-2.694
		c1.227-1.227,2.642-2.005,4.238-2.336c0.54-0.114,1.102-0.173,1.689-0.181l2.686-0.003V31.011L110.252,31.011z"/>
	<g>
		<path fill="#2C3035" d="M130.411,64.325c-0.263,0-0.437,0.116-0.543,0.37c-0.617,1.49-1.237,2.98-1.856,4.471l-1.178,2.828
			c-0.744,1.788-1.486,3.574-2.229,5.363l-0.153,0.367h1.132l0.221-0.05l0.051-0.202c0.01-0.043,0.02-0.084,0.037-0.127l0.418-1.01
			c0.278-0.675,0.56-1.35,0.879-2.062c0.408,0.006,0.812,0.006,1.219,0.006h3.434c0.695,0,1.391,0,2.088-0.006l0.073,0.045
			c0.065,0.19,0.146,0.38,0.228,0.565l0.099,0.229c0.33,0.814,0.66,1.632,0.994,2.447l0.067,0.164h1.299l-5.317-12.775
			C131.141,64.408,131.039,64.338,130.411,64.325z M127.613,73.154c0.982-2.377,1.96-4.74,2.953-7.148l2.955,7.148H127.613z"/>
		<path fill="#2C3035" d="M145.314,65.064c-0.672-0.487-1.49-0.729-2.504-0.734c-0.51-0.002-1.019-0.003-1.526-0.003l-2.688,0.003
			c-0.048,0-0.1,0.005-0.215,0.016l-0.242,0.02v13.361h1.189l-0.02-0.285c-0.002-0.03-0.008-0.062-0.012-0.094
			c-0.003-0.021-0.007-0.045-0.007-0.068v-5.133h1.836c0.535,0,1.071,0,1.604-0.004c0.293-0.002,0.658-0.004,1.004-0.074
			c1.927-0.379,3.129-1.84,3.138-3.812C146.882,66.9,146.355,65.827,145.314,65.064z M145.68,68.26
			c-0.009,1.018-0.38,1.77-1.137,2.297c-0.46,0.323-1.01,0.483-1.682,0.49c-0.557,0.004-1.111,0.005-1.668,0.005l-1.891-0.002
			v-5.601l3.553-0.002c0.789,0,1.42,0.219,1.933,0.668C145.387,66.643,145.686,67.363,145.68,68.26z"/>
		<path fill="#2C3035" d="M154.938,65.064c-0.666-0.487-1.485-0.729-2.504-0.734c-0.508-0.002-1.017-0.003-1.524-0.003l-2.687,0.003
			c-0.05,0-0.099,0.005-0.217,0.016l-0.244,0.019v13.362h1.202l-0.039-0.362c-0.003-0.027-0.008-0.056-0.008-0.085l-0.003-5.133
			h1.838c0.535,0,1.07,0,1.604-0.004c0.293-0.002,0.66-0.004,1.006-0.074c1.93-0.381,3.132-1.842,3.138-3.812
			C156.507,66.898,155.98,65.826,154.938,65.064z M154.176,70.555c-0.464,0.323-1.007,0.483-1.66,0.49
			c-0.595,0.005-1.188,0.007-1.783,0.007l-1.803-0.002v-5.603h0.027c0.361,0,0.725-0.002,1.088-0.006
			c0.876-0.004,1.754-0.015,2.631,0.02c1.151,0.039,1.958,0.575,2.398,1.59C155.618,68.307,155.23,69.812,154.176,70.555z"/>
	</g>
	<path fill="#2C3035" d="M52.663,64.316c0.789,0.138,1.583,0.234,2.357,0.426c1.019,0.251,1.938,0.73,2.786,1.438
		c-0.697,0.92-1.38,1.827-1.983,2.629c-1.011-0.36-1.946-0.738-2.913-1.021c-0.43-0.125-0.919-0.111-1.371-0.065
		c-0.22,0.023-0.417,0.267-0.624,0.408c0.157,0.192,0.279,0.503,0.477,0.557c0.95,0.261,1.944,0.383,2.875,0.688
		c0.882,0.283,1.82,0.587,2.538,1.137c2.087,1.602,1.684,5.036-0.671,6.436c-0.884,0.525-1.856,0.762-2.871,0.824
		c-2.485,0.152-4.781-0.354-6.763-1.947c0-0.069,0-0.139,0-0.205c0.666-0.926,1.332-1.848,2.013-2.788
		c0.143,0.118,0.271,0.228,0.406,0.331c1.286,0.979,2.722,1.472,4.351,1.27c0.362-0.046,0.823-0.104,0.834-0.59
		c0.012-0.515-0.481-0.505-0.819-0.59c-1.177-0.286-2.372-0.493-3.529-0.832c-1.129-0.331-2.062-0.984-2.552-2.123
		c-0.958-2.24,0.241-4.74,2.703-5.55c0.655-0.215,1.359-0.289,2.037-0.429C52.185,64.316,52.423,64.316,52.663,64.316z"/>
	<path fill="#2C3035" d="M72.523,77.568c-1.44,0-2.81,0.006-4.177-0.016c-0.128-0.002-0.311-0.164-0.369-0.295
		c-0.174-0.386-0.185-0.96-0.467-1.146c-0.315-0.207-0.856-0.074-1.301-0.077c-0.958-0.007-1.917,0.008-2.875-0.009
		c-0.291-0.004-0.448,0.058-0.548,0.375c-0.378,1.173-0.395,1.166-1.639,1.166c-1.037,0-2.074,0-3.183,0
		c0.509-1.375,0.992-2.682,1.471-3.986c1.042-2.832,2.085-5.657,3.114-8.492c0.141-0.395,0.303-0.583,0.78-0.568
		c1.454,0.043,2.908,0.016,4.385,0.016C69.315,68.874,70.911,73.195,72.523,77.568z M65.243,68.414
		c-0.452,1.484-0.865,2.822-1.284,4.188c0.882,0,1.705,0,2.572,0C66.11,71.229,65.7,69.893,65.243,68.414z"/>
	<path fill="#2C3035" d="M84.229,64.562c3.255,0,6.502,0,9.792,0c0,1.127,0,2.244,0,3.412c-1.923,0-3.849,0-5.821,0
		c0,0.432,0,0.812,0,1.254c1.867,0,3.757,0,5.688,0c0,1.174,0,2.295,0,3.472c-1.873,0-3.766,0-5.692,0c0,0.489,0,0.926,0,1.435
		c1.934,0,3.871,0,5.84,0c0,1.176,0,2.277,0,3.408c-3.273,0-6.519,0-9.807,0C84.229,73.225,84.229,68.906,84.229,64.562z"/>
	<path fill="#2C3035" d="M77.205,77.54c-1.371,0-2.649,0-3.952,0c0-4.332,0-8.636,0-12.972c3.27,0,6.528,0,9.817,0
		c0,1.136,0,2.254,0,3.42c-1.952,0-3.878,0-5.84,0c0,0.431,0,0.814,0,1.255c1.888,0,3.777,0,5.704,0c0,1.171,0,2.289,0,3.465
		c-1.892,0-3.781,0-5.729,0C77.205,74.343,77.205,75.924,77.205,77.54z"/>
	<path fill="#2C3035" d="M115.977,64.549c-0.113,0.004-0.262,0.178-0.334,0.307c-0.734,1.326-1.455,2.662-2.229,4.08
		c-0.753-1.362-1.48-2.652-2.18-3.959c-0.174-0.322-0.355-0.453-0.737-0.451c-1.292,0.004-2.585,0.007-3.879,0.01v0.137l0,0
		c0.159,0.238,0.251,0.37,0.336,0.505c1.288,2.072,2.558,4.157,3.879,6.208c0.442,0.688,0.651,1.375,0.618,2.197
		c-0.055,1.312-0.016,2.625-0.016,3.943c1.34,0,2.625,0,3.938,0c0-1.549-0.017-3.055,0.017-4.561
		c0.008-0.352,0.119-0.744,0.301-1.045c1.359-2.248,2.752-4.479,4.132-6.716c0.12-0.194,0.229-0.397,0.382-0.667
		C118.736,64.537,117.357,64.529,115.977,64.549z"/>
	<path fill="#2C3035" d="M95.673,64.535c-0.179,0-0.361,0-0.535,0c0,1.193,0,2.314,0,3.479c1.159,0,2.284,0,3.464,0
		c0,3.202,0,6.358,0,9.512c1.351,0,2.642,0,3.983,0c0-3.193,0-6.353,0-9.56c1.177,0,2.299,0,3.474,0c0-1.096,0-2.143,0-3.319v0.002
		v-0.113C102.596,64.538,99.133,64.535,95.673,64.535z"/>
</g>
</svg>
