<?xml version="1.0" encoding="utf-8"?>
<!-- Generator: Adobe Illustrator 16.0.0, SVG Export Plug-In . SVG Version: 6.00 Build 0)  -->
<!DOCTYPE svg PUBLIC "-//W3C//DTD SVG 1.1//EN" "http://www.w3.org/Graphics/SVG/1.1/DTD/svg11.dtd">
<svg version="1.1" id="Layer_1" xmlns="http://www.w3.org/2000/svg" xmlns:xlink="http://www.w3.org/1999/xlink" x="0px" y="0px"
	 width="512px" height="512px" viewBox="0 0 512 512" enable-background="new 0 0 512 512" xml:space="preserve">
<path id="time-icon" fill="#FFFFFF" d="M367,295.5H227.5V142h45v108.5H367V295.5z M256,95c-88.992,0-161,72.022-161,161
	c0,88.992,72.023,161,161,161c88.992,0,161-72.023,161-161C417,167.007,344.977,95,256,95 M256,50c113.771,0,206,92.229,206,206
	c0,113.771-92.229,206-206,206c-113.771,0-206-92.229-206-206C50,142.229,142.229,50,256,50z"/>
</svg>
