<?xml version="1.0" encoding="utf-8"?>
<!-- Generator: Adobe Illustrator 16.0.0, SVG Export Plug-In . SVG Version: 6.00 Build 0)  -->
<!DOCTYPE svg PUBLIC "-//W3C//DTD SVG 1.1//EN" "http://www.w3.org/Graphics/SVG/1.1/DTD/svg11.dtd">
<svg version="1.1" id="Layer_1" xmlns="http://www.w3.org/2000/svg" xmlns:xlink="http://www.w3.org/1999/xlink" x="0px" y="0px"
	 width="512px" height="512px" viewBox="0 0 512 512" enable-background="new 0 0 512 512" xml:space="preserve">
<path id="location-4-icon" fill="#FFFFFF" d="M256,50c-72.072,0-130.5,58.427-130.5,130.5S182.614,336.333,256,462
	c73.388-125.666,130.5-209.427,130.5-281.5S328.074,50,256,50z M255.998,270.66c-49.626,0-89.855-40.229-89.855-89.855
	c0-49.625,40.229-89.854,89.855-89.854c49.627,0,89.857,40.229,89.857,89.854C345.855,230.432,305.625,270.66,255.998,270.66z"/>
</svg>
